SYSTEM LOG -- DATE :2019-11-08 23:35:38 - CLASS : me - FUNCTION : index - URL : localhost/private/cv-atp/index.php/meme/me - USER ID : 340 - USER IP : ::1 - USER ROLE : 1 - BROWSER : Mozilla/5.0 (Windows NT 10.0; Win64; x64) AppleWebKit/537.36 (KHTML, like Gecko) Chrome/78.0.3904.87 Safari/537.36 - USERNAME : safari
SYSTEM LOG -- DATE :2019-11-08 23:35:46 - CLASS : order - FUNCTION : index - URL : localhost/private/cv-atp/index.php/order/order - USER ID : 340 - USER IP : ::1 - USER ROLE : 1 - BROWSER : Mozilla/5.0 (Windows NT 10.0; Win64; x64) AppleWebKit/537.36 (KHTML, like Gecko) Chrome/78.0.3904.87 Safari/537.36 - USERNAME : safari
SYSTEM LOG -- DATE :2019-11-08 23:35:47 - CLASS : order - FUNCTION : ajax_list - URL : localhost/private/cv-atp/index.php/order/order/ajax_list - USER ID : 340 - USER IP : ::1 - USER ROLE : 1 - BROWSER : Mozilla/5.0 (Windows NT 10.0; Win64; x64) AppleWebKit/537.36 (KHTML, like Gecko) Chrome/78.0.3904.87 Safari/537.36 - USERNAME : safari
SYSTEM LOG -- DATE :2019-11-08 23:37:01 - CLASS : order - FUNCTION : index - URL : localhost/private/cv-atp/index.php/order/order - USER ID : 340 - USER IP : ::1 - USER ROLE : 1 - BROWSER : Mozilla/5.0 (Windows NT 10.0; Win64; x64) AppleWebKit/537.36 (KHTML, like Gecko) Chrome/78.0.3904.87 Safari/537.36 - USERNAME : safari
SYSTEM LOG -- DATE :2019-11-08 23:37:01 - CLASS : order - FUNCTION : ajax_list - URL : localhost/private/cv-atp/index.php/order/order/ajax_list - USER ID : 340 - USER IP : ::1 - USER ROLE : 1 - BROWSER : Mozilla/5.0 (Windows NT 10.0; Win64; x64) AppleWebKit/537.36 (KHTML, like Gecko) Chrome/78.0.3904.87 Safari/537.36 - USERNAME : safari
SYSTEM LOG -- DATE :2019-11-08 23:37:02 - CLASS : order - FUNCTION : add - URL : localhost/private/cv-atp/index.php/order/order/add - USER ID : 340 - USER IP : ::1 - USER ROLE : 1 - BROWSER : Mozilla/5.0 (Windows NT 10.0; Win64; x64) AppleWebKit/537.36 (KHTML, like Gecko) Chrome/78.0.3904.87 Safari/537.36 - USERNAME : safari
