SYSTEM LOG -- DATE :2018-04-08 13:02:20 - CLASS : me - FUNCTION : index - URL : localhost:8080/kaderisasi/ - USER ID : 340 - USER IP : ::1 - USER ROLE : 1 - BROWSER : Mozilla/5.0 (Windows NT 10.0; Win64; x64) AppleWebKit/537.36 (KHTML, like Gecko) Chrome/65.0.3325.181 Safari/537.36 - USERNAME : safari
SYSTEM LOG -- DATE :2018-04-08 13:04:12 - CLASS : cetak_idcard - FUNCTION : index - URL : localhost:8080/kaderisasi/index.php/report/cetak_idcard - USER ID : 340 - USER IP : ::1 - USER ROLE : 1 - BROWSER : Mozilla/5.0 (Windows NT 10.0; Win64; x64) AppleWebKit/537.36 (KHTML, like Gecko) Chrome/65.0.3325.181 Safari/537.36 - USERNAME : safari
SYSTEM LOG -- DATE :2018-04-08 13:04:39 - CLASS : cetak_idcard - FUNCTION : data_export - URL : localhost:8080/kaderisasi/index.php/report/cetak_idcard/data_export/?_id=eBd5k1bECdlSYK7AePwZ%2B03B4C40w08BMr0i9P8crzmTEK6qz%2F6ftc8bMQGAjoEfHrh9fBrAOjrti7Qb8tP2%2Fw%3D%3D - USER ID : 340 - USER IP : ::1 - USER ROLE : 1 - BROWSER : Mozilla/5.0 (Windows NT 10.0; Win64; x64) AppleWebKit/537.36 (KHTML, like Gecko) Chrome/65.0.3325.181 Safari/537.36 - USERNAME : safari
SYSTEM LOG -- DATE :2018-04-08 13:06:01 - CLASS : cetak_idcard - FUNCTION : index - URL : localhost:8080/kaderisasi/index.php/report/cetak_idcard - USER ID : 340 - USER IP : ::1 - USER ROLE : 1 - BROWSER : Mozilla/5.0 (Windows NT 10.0; Win64; x64) AppleWebKit/537.36 (KHTML, like Gecko) Chrome/65.0.3325.181 Safari/537.36 - USERNAME : safari
SYSTEM LOG -- DATE :2018-04-08 13:06:03 - CLASS : cetak_idcard - FUNCTION : data_export - URL : localhost:8080/kaderisasi/index.php/report/cetak_idcard/data_export/?_id=Emr7wnYE5WQxOsBylFt%2B4GHR85M88Ktya7OlPOTIdWQCkiDmJDMnbnGDcLUNXJoiSwUTHhfBEfJsXkQXdChOfA%3D%3D - USER ID : 340 - USER IP : ::1 - USER ROLE : 1 - BROWSER : Mozilla/5.0 (Windows NT 10.0; Win64; x64) AppleWebKit/537.36 (KHTML, like Gecko) Chrome/65.0.3325.181 Safari/537.36 - USERNAME : safari
