SYSTEM LOG -- DATE :2018-12-13 01:12:21 - CLASS : master_anggota - FUNCTION : index - URL : localhost:8080/dpt/index.php/master/master_anggota - USER ID : 340 - USER IP : ::1 - USER ROLE : 1 - BROWSER : Mozilla/5.0 (Windows NT 10.0; Win64; x64; rv:63.0) Gecko/20100101 Firefox/63.0 - USERNAME : safari
SYSTEM LOG -- DATE :2018-12-13 01:24:59 - CLASS : master_anggota - FUNCTION : index - URL : localhost:8080/dpt/index.php/master/master_anggota - USER ID : 340 - USER IP : ::1 - USER ROLE : 1 - BROWSER : Mozilla/5.0 (Windows NT 10.0; Win64; x64; rv:63.0) Gecko/20100101 Firefox/63.0 - USERNAME : safari
SYSTEM LOG -- DATE :2018-12-13 22:24:32 - CLASS : me - FUNCTION : index - URL : localhost:8080/dpt/index.php/meme/me - USER ID : 340 - USER IP : ::1 - USER ROLE : 1 - BROWSER : Mozilla/5.0 (Windows NT 10.0; Win64; x64) AppleWebKit/537.36 (KHTML, like Gecko) Chrome/71.0.3578.98 Safari/537.36 - USERNAME : safari
SYSTEM LOG -- DATE :2018-12-13 22:24:34 - CLASS : master_anggota - FUNCTION : index - URL : localhost:8080/dpt/index.php/master/master_anggota - USER ID : 340 - USER IP : ::1 - USER ROLE : 1 - BROWSER : Mozilla/5.0 (Windows NT 10.0; Win64; x64) AppleWebKit/537.36 (KHTML, like Gecko) Chrome/71.0.3578.98 Safari/537.36 - USERNAME : safari
SYSTEM LOG -- DATE :2018-12-13 22:24:35 - CLASS : master_anggota - FUNCTION : ajax_list - URL : localhost:8080/dpt/index.php/master/master_anggota/ajax_list - USER ID : 340 - USER IP : ::1 - USER ROLE : 1 - BROWSER : Mozilla/5.0 (Windows NT 10.0; Win64; x64) AppleWebKit/537.36 (KHTML, like Gecko) Chrome/71.0.3578.98 Safari/537.36 - USERNAME : safari
SYSTEM LOG -- DATE :2018-12-13 22:25:52 - CLASS : master_anggota - FUNCTION : index - URL : localhost:8080/dpt/index.php/master/master_anggota - USER ID : 340 - USER IP : ::1 - USER ROLE : 1 - BROWSER : Mozilla/5.0 (Windows NT 10.0; Win64; x64) AppleWebKit/537.36 (KHTML, like Gecko) Chrome/71.0.3578.98 Safari/537.36 - USERNAME : safari
SYSTEM LOG -- DATE :2018-12-13 22:25:52 - CLASS : master_anggota - FUNCTION : ajax_list - URL : localhost:8080/dpt/index.php/master/master_anggota/ajax_list - USER ID : 340 - USER IP : ::1 - USER ROLE : 1 - BROWSER : Mozilla/5.0 (Windows NT 10.0; Win64; x64) AppleWebKit/537.36 (KHTML, like Gecko) Chrome/71.0.3578.98 Safari/537.36 - USERNAME : safari
