SYSTEM LOG -- DATE :2017-09-25 01:33:22 - CLASS : me - FUNCTION : index - URL : localhost:8080/golkar/index.php/meme/me - USER ID : 340 - USER IP : ::1 - USER ROLE : 1 - BROWSER : Mozilla/5.0 (Windows NT 10.0; WOW64; rv:55.0) Gecko/20100101 Firefox/55.0 - USERNAME : safari
SYSTEM LOG -- DATE :2017-09-25 01:33:24 - CLASS : data - FUNCTION : check_login - URL : localhost:8080/golkar/index.php/ajax/data/check_login - USER ID : 340 - USER IP : ::1 - USER ROLE : 1 - BROWSER : Mozilla/5.0 (Windows NT 10.0; WOW64; rv:55.0) Gecko/20100101 Firefox/55.0 - USERNAME : safari
SYSTEM LOG -- DATE :2017-09-25 01:33:31 - CLASS : report_data_sipol_perwilayah - FUNCTION : index - URL : localhost:8080/golkar/index.php/report/report_data_sipol_perwilayah - USER ID : 340 - USER IP : ::1 - USER ROLE : 1 - BROWSER : Mozilla/5.0 (Windows NT 10.0; WOW64; rv:55.0) Gecko/20100101 Firefox/55.0 - USERNAME : safari
SYSTEM LOG -- DATE :2017-09-25 01:33:32 - CLASS : data - FUNCTION : check_login - URL : localhost:8080/golkar/index.php/ajax/data/check_login - USER ID : 340 - USER IP : ::1 - USER ROLE : 1 - BROWSER : Mozilla/5.0 (Windows NT 10.0; WOW64; rv:55.0) Gecko/20100101 Firefox/55.0 - USERNAME : safari
SYSTEM LOG -- DATE :2017-09-25 01:33:33 - CLASS : data - FUNCTION : kabupaten - URL : localhost:8080/golkar/index.php/ajax/data/kabupaten - USER ID : 340 - USER IP : ::1 - USER ROLE : 1 - BROWSER : Mozilla/5.0 (Windows NT 10.0; WOW64; rv:55.0) Gecko/20100101 Firefox/55.0 - USERNAME : safari
SYSTEM LOG -- DATE :2017-09-25 01:33:34 - CLASS : data - FUNCTION : kecamatan - URL : localhost:8080/golkar/index.php/ajax/data/kecamatan - USER ID : 340 - USER IP : ::1 - USER ROLE : 1 - BROWSER : Mozilla/5.0 (Windows NT 10.0; WOW64; rv:55.0) Gecko/20100101 Firefox/55.0 - USERNAME : safari
SYSTEM LOG -- DATE :2017-09-25 01:33:35 - CLASS : report_data_sipol_perwilayah - FUNCTION : search - URL : localhost:8080/golkar/index.php/report/report_data_sipol_perwilayah/search - USER ID : 340 - USER IP : ::1 - USER ROLE : 1 - BROWSER : Mozilla/5.0 (Windows NT 10.0; WOW64; rv:55.0) Gecko/20100101 Firefox/55.0 - USERNAME : safari
SYSTEM LOG -- DATE :2017-09-25 01:33:36 - CLASS : data - FUNCTION : kabupaten - URL : localhost:8080/golkar/index.php/ajax/data/kabupaten - USER ID : 340 - USER IP : ::1 - USER ROLE : 1 - BROWSER : Mozilla/5.0 (Windows NT 10.0; WOW64; rv:55.0) Gecko/20100101 Firefox/55.0 - USERNAME : safari
SYSTEM LOG -- DATE :2017-09-25 01:33:36 - CLASS : data - FUNCTION : kecamatan - URL : localhost:8080/golkar/index.php/ajax/data/kecamatan - USER ID : 340 - USER IP : ::1 - USER ROLE : 1 - BROWSER : Mozilla/5.0 (Windows NT 10.0; WOW64; rv:55.0) Gecko/20100101 Firefox/55.0 - USERNAME : safari
SYSTEM LOG -- DATE :2017-09-25 01:33:36 - CLASS : data - FUNCTION : check_login - URL : localhost:8080/golkar/index.php/ajax/data/check_login - USER ID : 340 - USER IP : ::1 - USER ROLE : 1 - BROWSER : Mozilla/5.0 (Windows NT 10.0; WOW64; rv:55.0) Gecko/20100101 Firefox/55.0 - USERNAME : safari
SYSTEM LOG -- DATE :2017-09-25 01:33:38 - CLASS : data - FUNCTION : kecamatan - URL : localhost:8080/golkar/index.php/ajax/data/kecamatan - USER ID : 340 - USER IP : ::1 - USER ROLE : 1 - BROWSER : Mozilla/5.0 (Windows NT 10.0; WOW64; rv:55.0) Gecko/20100101 Firefox/55.0 - USERNAME : safari
SYSTEM LOG -- DATE :2017-09-25 01:33:38 - CLASS : report_data_sipol_perwilayah - FUNCTION : search - URL : localhost:8080/golkar/index.php/report/report_data_sipol_perwilayah/search - USER ID : 340 - USER IP : ::1 - USER ROLE : 1 - BROWSER : Mozilla/5.0 (Windows NT 10.0; WOW64; rv:55.0) Gecko/20100101 Firefox/55.0 - USERNAME : safari
SYSTEM LOG -- DATE :2017-09-25 01:33:39 - CLASS : data - FUNCTION : kabupaten - URL : localhost:8080/golkar/index.php/ajax/data/kabupaten - USER ID : 340 - USER IP : ::1 - USER ROLE : 1 - BROWSER : Mozilla/5.0 (Windows NT 10.0; WOW64; rv:55.0) Gecko/20100101 Firefox/55.0 - USERNAME : safari
SYSTEM LOG -- DATE :2017-09-25 01:33:39 - CLASS : data - FUNCTION : kecamatan - URL : localhost:8080/golkar/index.php/ajax/data/kecamatan - USER ID : 340 - USER IP : ::1 - USER ROLE : 1 - BROWSER : Mozilla/5.0 (Windows NT 10.0; WOW64; rv:55.0) Gecko/20100101 Firefox/55.0 - USERNAME : safari
SYSTEM LOG -- DATE :2017-09-25 01:33:39 - CLASS : data - FUNCTION : check_login - URL : localhost:8080/golkar/index.php/ajax/data/check_login - USER ID : 340 - USER IP : ::1 - USER ROLE : 1 - BROWSER : Mozilla/5.0 (Windows NT 10.0; WOW64; rv:55.0) Gecko/20100101 Firefox/55.0 - USERNAME : safari
SYSTEM LOG -- DATE :2017-09-25 01:33:49 - CLASS : data - FUNCTION : kabupaten - URL : localhost:8080/golkar/index.php/ajax/data/kabupaten - USER ID : 340 - USER IP : ::1 - USER ROLE : 1 - BROWSER : Mozilla/5.0 (Windows NT 10.0; WOW64; rv:55.0) Gecko/20100101 Firefox/55.0 - USERNAME : safari
SYSTEM LOG -- DATE :2017-09-25 01:33:49 - CLASS : data - FUNCTION : check_login - URL : localhost:8080/golkar/index.php/ajax/data/check_login - USER ID : 340 - USER IP : ::1 - USER ROLE : 1 - BROWSER : Mozilla/5.0 (Windows NT 10.0; WOW64; rv:55.0) Gecko/20100101 Firefox/55.0 - USERNAME : safari
SYSTEM LOG -- DATE :2017-09-25 01:33:50 - CLASS : data - FUNCTION : kecamatan - URL : localhost:8080/golkar/index.php/ajax/data/kecamatan - USER ID : 340 - USER IP : ::1 - USER ROLE : 1 - BROWSER : Mozilla/5.0 (Windows NT 10.0; WOW64; rv:55.0) Gecko/20100101 Firefox/55.0 - USERNAME : safari
SYSTEM LOG -- DATE :2017-09-25 01:33:52 - CLASS : report_data_sipol_perwilayah - FUNCTION : search - URL : localhost:8080/golkar/index.php/report/report_data_sipol_perwilayah/search - USER ID : 340 - USER IP : ::1 - USER ROLE : 1 - BROWSER : Mozilla/5.0 (Windows NT 10.0; WOW64; rv:55.0) Gecko/20100101 Firefox/55.0 - USERNAME : safari
SYSTEM LOG -- DATE :2017-09-25 01:33:56 - CLASS : data - FUNCTION : kabupaten - URL : localhost:8080/golkar/index.php/ajax/data/kabupaten - USER ID : 340 - USER IP : ::1 - USER ROLE : 1 - BROWSER : Mozilla/5.0 (Windows NT 10.0; WOW64; rv:55.0) Gecko/20100101 Firefox/55.0 - USERNAME : safari
SYSTEM LOG -- DATE :2017-09-25 01:33:56 - CLASS : data - FUNCTION : kecamatan - URL : localhost:8080/golkar/index.php/ajax/data/kecamatan - USER ID : 340 - USER IP : ::1 - USER ROLE : 1 - BROWSER : Mozilla/5.0 (Windows NT 10.0; WOW64; rv:55.0) Gecko/20100101 Firefox/55.0 - USERNAME : safari
SYSTEM LOG -- DATE :2017-09-25 01:33:56 - CLASS : data - FUNCTION : check_login - URL : localhost:8080/golkar/index.php/ajax/data/check_login - USER ID : 340 - USER IP : ::1 - USER ROLE : 1 - BROWSER : Mozilla/5.0 (Windows NT 10.0; WOW64; rv:55.0) Gecko/20100101 Firefox/55.0 - USERNAME : safari
SYSTEM LOG -- DATE :2017-09-25 01:33:57 - CLASS : report_data_sipol_perwilayah - FUNCTION : search - URL : localhost:8080/golkar/index.php/report/report_data_sipol_perwilayah/search - USER ID : 340 - USER IP : ::1 - USER ROLE : 1 - BROWSER : Mozilla/5.0 (Windows NT 10.0; WOW64; rv:55.0) Gecko/20100101 Firefox/55.0 - USERNAME : safari
SYSTEM LOG -- DATE :2017-09-25 01:34:02 - CLASS : data - FUNCTION : check_login - URL : localhost:8080/golkar/index.php/ajax/data/check_login - USER ID : 340 - USER IP : ::1 - USER ROLE : 1 - BROWSER : Mozilla/5.0 (Windows NT 10.0; WOW64; rv:55.0) Gecko/20100101 Firefox/55.0 - USERNAME : safari
SYSTEM LOG -- DATE :2017-09-25 01:34:06 - CLASS : report_data_sipol_perwilayah - FUNCTION : search - URL : localhost:8080/golkar/index.php/report/report_data_sipol_perwilayah/search - USER ID : 340 - USER IP : ::1 - USER ROLE : 1 - BROWSER : Mozilla/5.0 (Windows NT 10.0; WOW64; rv:55.0) Gecko/20100101 Firefox/55.0 - USERNAME : safari
SYSTEM LOG -- DATE :2017-09-25 01:34:07 - CLASS : data - FUNCTION : kabupaten - URL : localhost:8080/golkar/index.php/ajax/data/kabupaten - USER ID : 340 - USER IP : ::1 - USER ROLE : 1 - BROWSER : Mozilla/5.0 (Windows NT 10.0; WOW64; rv:55.0) Gecko/20100101 Firefox/55.0 - USERNAME : safari
SYSTEM LOG -- DATE :2017-09-25 01:34:07 - CLASS : data - FUNCTION : kecamatan - URL : localhost:8080/golkar/index.php/ajax/data/kecamatan - USER ID : 340 - USER IP : ::1 - USER ROLE : 1 - BROWSER : Mozilla/5.0 (Windows NT 10.0; WOW64; rv:55.0) Gecko/20100101 Firefox/55.0 - USERNAME : safari
SYSTEM LOG -- DATE :2017-09-25 01:34:07 - CLASS : data - FUNCTION : check_login - URL : localhost:8080/golkar/index.php/ajax/data/check_login - USER ID : 340 - USER IP : ::1 - USER ROLE : 1 - BROWSER : Mozilla/5.0 (Windows NT 10.0; WOW64; rv:55.0) Gecko/20100101 Firefox/55.0 - USERNAME : safari
SYSTEM LOG -- DATE :2017-09-25 01:34:08 - CLASS : report_data_sipol_perwilayah - FUNCTION : search - URL : localhost:8080/golkar/index.php/report/report_data_sipol_perwilayah/search - USER ID : 340 - USER IP : ::1 - USER ROLE : 1 - BROWSER : Mozilla/5.0 (Windows NT 10.0; WOW64; rv:55.0) Gecko/20100101 Firefox/55.0 - USERNAME : safari
SYSTEM LOG -- DATE :2017-09-25 01:34:09 - CLASS : data - FUNCTION : kabupaten - URL : localhost:8080/golkar/index.php/ajax/data/kabupaten - USER ID : 340 - USER IP : ::1 - USER ROLE : 1 - BROWSER : Mozilla/5.0 (Windows NT 10.0; WOW64; rv:55.0) Gecko/20100101 Firefox/55.0 - USERNAME : safari
SYSTEM LOG -- DATE :2017-09-25 01:34:09 - CLASS : data - FUNCTION : kecamatan - URL : localhost:8080/golkar/index.php/ajax/data/kecamatan - USER ID : 340 - USER IP : ::1 - USER ROLE : 1 - BROWSER : Mozilla/5.0 (Windows NT 10.0; WOW64; rv:55.0) Gecko/20100101 Firefox/55.0 - USERNAME : safari
SYSTEM LOG -- DATE :2017-09-25 01:34:09 - CLASS : data - FUNCTION : check_login - URL : localhost:8080/golkar/index.php/ajax/data/check_login - USER ID : 340 - USER IP : ::1 - USER ROLE : 1 - BROWSER : Mozilla/5.0 (Windows NT 10.0; WOW64; rv:55.0) Gecko/20100101 Firefox/55.0 - USERNAME : safari
SYSTEM LOG -- DATE :2017-09-25 01:36:13 - CLASS : report_data_sipol_perwilayah - FUNCTION : search - URL : localhost:8080/golkar/index.php/report/report_data_sipol_perwilayah/search - USER ID : 340 - USER IP : ::1 - USER ROLE : 1 - BROWSER : Mozilla/5.0 (Windows NT 10.0; WOW64; rv:55.0) Gecko/20100101 Firefox/55.0 - USERNAME : safari
SYSTEM LOG -- DATE :2017-09-25 01:36:15 - CLASS : data - FUNCTION : check_login - URL : localhost:8080/golkar/index.php/ajax/data/check_login - USER ID : 340 - USER IP : ::1 - USER ROLE : 1 - BROWSER : Mozilla/5.0 (Windows NT 10.0; WOW64; rv:55.0) Gecko/20100101 Firefox/55.0 - USERNAME : safari
SYSTEM LOG -- DATE :2017-09-25 01:37:20 - CLASS : report_data_sipol_perwilayah - FUNCTION : index - URL : localhost:8080/golkar/index.php/report/report_data_sipol_perwilayah - USER ID : 340 - USER IP : ::1 - USER ROLE : 1 - BROWSER : Mozilla/5.0 (Windows NT 10.0; WOW64; rv:55.0) Gecko/20100101 Firefox/55.0 - USERNAME : safari
SYSTEM LOG -- DATE :2017-09-25 01:37:21 - CLASS : data - FUNCTION : check_login - URL : localhost:8080/golkar/index.php/ajax/data/check_login - USER ID : 340 - USER IP : ::1 - USER ROLE : 1 - BROWSER : Mozilla/5.0 (Windows NT 10.0; WOW64; rv:55.0) Gecko/20100101 Firefox/55.0 - USERNAME : safari
SYSTEM LOG -- DATE :2017-09-25 01:37:22 - CLASS : data - FUNCTION : kabupaten - URL : localhost:8080/golkar/index.php/ajax/data/kabupaten - USER ID : 340 - USER IP : ::1 - USER ROLE : 1 - BROWSER : Mozilla/5.0 (Windows NT 10.0; WOW64; rv:55.0) Gecko/20100101 Firefox/55.0 - USERNAME : safari
SYSTEM LOG -- DATE :2017-09-25 01:37:25 - CLASS : data - FUNCTION : kecamatan - URL : localhost:8080/golkar/index.php/ajax/data/kecamatan - USER ID : 340 - USER IP : ::1 - USER ROLE : 1 - BROWSER : Mozilla/5.0 (Windows NT 10.0; WOW64; rv:55.0) Gecko/20100101 Firefox/55.0 - USERNAME : safari
SYSTEM LOG -- DATE :2017-09-25 01:37:26 - CLASS : data - FUNCTION : check_login - URL : localhost:8080/golkar/index.php/ajax/data/check_login - USER ID : 340 - USER IP : ::1 - USER ROLE : 1 - BROWSER : Mozilla/5.0 (Windows NT 10.0; WOW64; rv:55.0) Gecko/20100101 Firefox/55.0 - USERNAME : safari
SYSTEM LOG -- DATE :2017-09-25 01:37:26 - CLASS : report_data_sipol_perwilayah - FUNCTION : search - URL : localhost:8080/golkar/index.php/report/report_data_sipol_perwilayah/search - USER ID : 340 - USER IP : ::1 - USER ROLE : 1 - BROWSER : Mozilla/5.0 (Windows NT 10.0; WOW64; rv:55.0) Gecko/20100101 Firefox/55.0 - USERNAME : safari
SYSTEM LOG -- DATE :2017-09-25 01:37:27 - CLASS : data - FUNCTION : kabupaten - URL : localhost:8080/golkar/index.php/ajax/data/kabupaten - USER ID : 340 - USER IP : ::1 - USER ROLE : 1 - BROWSER : Mozilla/5.0 (Windows NT 10.0; WOW64; rv:55.0) Gecko/20100101 Firefox/55.0 - USERNAME : safari
SYSTEM LOG -- DATE :2017-09-25 01:37:27 - CLASS : data - FUNCTION : kecamatan - URL : localhost:8080/golkar/index.php/ajax/data/kecamatan - USER ID : 340 - USER IP : ::1 - USER ROLE : 1 - BROWSER : Mozilla/5.0 (Windows NT 10.0; WOW64; rv:55.0) Gecko/20100101 Firefox/55.0 - USERNAME : safari
SYSTEM LOG -- DATE :2017-09-25 01:37:27 - CLASS : data - FUNCTION : check_login - URL : localhost:8080/golkar/index.php/ajax/data/check_login - USER ID : 340 - USER IP : ::1 - USER ROLE : 1 - BROWSER : Mozilla/5.0 (Windows NT 10.0; WOW64; rv:55.0) Gecko/20100101 Firefox/55.0 - USERNAME : safari
SYSTEM LOG -- DATE :2017-09-25 01:37:28 - CLASS : report_data_sipol_perwilayah - FUNCTION : search - URL : localhost:8080/golkar/index.php/report/report_data_sipol_perwilayah/search - USER ID : 340 - USER IP : ::1 - USER ROLE : 1 - BROWSER : Mozilla/5.0 (Windows NT 10.0; WOW64; rv:55.0) Gecko/20100101 Firefox/55.0 - USERNAME : safari
SYSTEM LOG -- DATE :2017-09-25 01:37:50 - CLASS : report_data_sipol_perwilayah - FUNCTION : index - URL : localhost:8080/golkar/index.php/report/report_data_sipol_perwilayah - USER ID : 340 - USER IP : ::1 - USER ROLE : 1 - BROWSER : Mozilla/5.0 (Windows NT 10.0; WOW64; rv:55.0) Gecko/20100101 Firefox/55.0 - USERNAME : safari
SYSTEM LOG -- DATE :2017-09-25 01:37:51 - CLASS : data - FUNCTION : check_login - URL : localhost:8080/golkar/index.php/ajax/data/check_login - USER ID : 340 - USER IP : ::1 - USER ROLE : 1 - BROWSER : Mozilla/5.0 (Windows NT 10.0; WOW64; rv:55.0) Gecko/20100101 Firefox/55.0 - USERNAME : safari
SYSTEM LOG -- DATE :2017-09-25 01:37:52 - CLASS : data - FUNCTION : kabupaten - URL : localhost:8080/golkar/index.php/ajax/data/kabupaten - USER ID : 340 - USER IP : ::1 - USER ROLE : 1 - BROWSER : Mozilla/5.0 (Windows NT 10.0; WOW64; rv:55.0) Gecko/20100101 Firefox/55.0 - USERNAME : safari
SYSTEM LOG -- DATE :2017-09-25 01:37:53 - CLASS : data - FUNCTION : kecamatan - URL : localhost:8080/golkar/index.php/ajax/data/kecamatan - USER ID : 340 - USER IP : ::1 - USER ROLE : 1 - BROWSER : Mozilla/5.0 (Windows NT 10.0; WOW64; rv:55.0) Gecko/20100101 Firefox/55.0 - USERNAME : safari
SYSTEM LOG -- DATE :2017-09-25 01:37:54 - CLASS : report_data_sipol_perwilayah - FUNCTION : search - URL : localhost:8080/golkar/index.php/report/report_data_sipol_perwilayah/search - USER ID : 340 - USER IP : ::1 - USER ROLE : 1 - BROWSER : Mozilla/5.0 (Windows NT 10.0; WOW64; rv:55.0) Gecko/20100101 Firefox/55.0 - USERNAME : safari
SYSTEM LOG -- DATE :2017-09-25 01:37:55 - CLASS : data - FUNCTION : kabupaten - URL : localhost:8080/golkar/index.php/ajax/data/kabupaten - USER ID : 340 - USER IP : ::1 - USER ROLE : 1 - BROWSER : Mozilla/5.0 (Windows NT 10.0; WOW64; rv:55.0) Gecko/20100101 Firefox/55.0 - USERNAME : safari
SYSTEM LOG -- DATE :2017-09-25 01:37:55 - CLASS : data - FUNCTION : kecamatan - URL : localhost:8080/golkar/index.php/ajax/data/kecamatan - USER ID : 340 - USER IP : ::1 - USER ROLE : 1 - BROWSER : Mozilla/5.0 (Windows NT 10.0; WOW64; rv:55.0) Gecko/20100101 Firefox/55.0 - USERNAME : safari
SYSTEM LOG -- DATE :2017-09-25 01:37:55 - CLASS : data - FUNCTION : check_login - URL : localhost:8080/golkar/index.php/ajax/data/check_login - USER ID : 340 - USER IP : ::1 - USER ROLE : 1 - BROWSER : Mozilla/5.0 (Windows NT 10.0; WOW64; rv:55.0) Gecko/20100101 Firefox/55.0 - USERNAME : safari
SYSTEM LOG -- DATE :2017-09-25 01:37:59 - CLASS : report_data_sipol_perwilayah - FUNCTION : search - URL : localhost:8080/golkar/index.php/report/report_data_sipol_perwilayah/search - USER ID : 340 - USER IP : ::1 - USER ROLE : 1 - BROWSER : Mozilla/5.0 (Windows NT 10.0; WOW64; rv:55.0) Gecko/20100101 Firefox/55.0 - USERNAME : safari
SYSTEM LOG -- DATE :2017-09-25 01:39:33 - CLASS : report_data_sipol_perwilayah - FUNCTION : index - URL : localhost:8080/golkar/index.php/report/report_data_sipol_perwilayah - USER ID : 340 - USER IP : ::1 - USER ROLE : 1 - BROWSER : Mozilla/5.0 (Windows NT 10.0; WOW64; rv:55.0) Gecko/20100101 Firefox/55.0 - USERNAME : safari
SYSTEM LOG -- DATE :2017-09-25 01:39:34 - CLASS : data - FUNCTION : check_login - URL : localhost:8080/golkar/index.php/ajax/data/check_login - USER ID : 340 - USER IP : ::1 - USER ROLE : 1 - BROWSER : Mozilla/5.0 (Windows NT 10.0; WOW64; rv:55.0) Gecko/20100101 Firefox/55.0 - USERNAME : safari
SYSTEM LOG -- DATE :2017-09-25 01:39:37 - CLASS : data - FUNCTION : kabupaten - URL : localhost:8080/golkar/index.php/ajax/data/kabupaten - USER ID : 340 - USER IP : ::1 - USER ROLE : 1 - BROWSER : Mozilla/5.0 (Windows NT 10.0; WOW64; rv:55.0) Gecko/20100101 Firefox/55.0 - USERNAME : safari
SYSTEM LOG -- DATE :2017-09-25 01:39:39 - CLASS : data - FUNCTION : check_login - URL : localhost:8080/golkar/index.php/ajax/data/check_login - USER ID : 340 - USER IP : ::1 - USER ROLE : 1 - BROWSER : Mozilla/5.0 (Windows NT 10.0; WOW64; rv:55.0) Gecko/20100101 Firefox/55.0 - USERNAME : safari
SYSTEM LOG -- DATE :2017-09-25 01:39:39 - CLASS : data - FUNCTION : kecamatan - URL : localhost:8080/golkar/index.php/ajax/data/kecamatan - USER ID : 340 - USER IP : ::1 - USER ROLE : 1 - BROWSER : Mozilla/5.0 (Windows NT 10.0; WOW64; rv:55.0) Gecko/20100101 Firefox/55.0 - USERNAME : safari
SYSTEM LOG -- DATE :2017-09-25 01:39:40 - CLASS : report_data_sipol_perwilayah - FUNCTION : search - URL : localhost:8080/golkar/index.php/report/report_data_sipol_perwilayah/search - USER ID : 340 - USER IP : ::1 - USER ROLE : 1 - BROWSER : Mozilla/5.0 (Windows NT 10.0; WOW64; rv:55.0) Gecko/20100101 Firefox/55.0 - USERNAME : safari
SYSTEM LOG -- DATE :2017-09-25 01:39:41 - CLASS : data - FUNCTION : kabupaten - URL : localhost:8080/golkar/index.php/ajax/data/kabupaten - USER ID : 340 - USER IP : ::1 - USER ROLE : 1 - BROWSER : Mozilla/5.0 (Windows NT 10.0; WOW64; rv:55.0) Gecko/20100101 Firefox/55.0 - USERNAME : safari
SYSTEM LOG -- DATE :2017-09-25 01:39:41 - CLASS : data - FUNCTION : kecamatan - URL : localhost:8080/golkar/index.php/ajax/data/kecamatan - USER ID : 340 - USER IP : ::1 - USER ROLE : 1 - BROWSER : Mozilla/5.0 (Windows NT 10.0; WOW64; rv:55.0) Gecko/20100101 Firefox/55.0 - USERNAME : safari
SYSTEM LOG -- DATE :2017-09-25 01:39:41 - CLASS : data - FUNCTION : check_login - URL : localhost:8080/golkar/index.php/ajax/data/check_login - USER ID : 340 - USER IP : ::1 - USER ROLE : 1 - BROWSER : Mozilla/5.0 (Windows NT 10.0; WOW64; rv:55.0) Gecko/20100101 Firefox/55.0 - USERNAME : safari
SYSTEM LOG -- DATE :2017-09-25 01:39:43 - CLASS : report_data_sipol_perwilayah - FUNCTION : search - URL : localhost:8080/golkar/index.php/report/report_data_sipol_perwilayah/search - USER ID : 340 - USER IP : ::1 - USER ROLE : 1 - BROWSER : Mozilla/5.0 (Windows NT 10.0; WOW64; rv:55.0) Gecko/20100101 Firefox/55.0 - USERNAME : safari
SYSTEM LOG -- DATE :2017-09-25 01:39:44 - CLASS : report_data_sipol_perwilayah - FUNCTION : index - URL : localhost:8080/golkar/index.php/report/report_data_sipol_perwilayah?msg=Data%20KTA%20telah%20di%20export&type_msg=warning - USER ID : 340 - USER IP : ::1 - USER ROLE : 1 - BROWSER : Mozilla/5.0 (Windows NT 10.0; WOW64; rv:55.0) Gecko/20100101 Firefox/55.0 - USERNAME : safari
SYSTEM LOG -- DATE :2017-09-25 01:39:45 - CLASS : data - FUNCTION : check_login - URL : localhost:8080/golkar/index.php/ajax/data/check_login - USER ID : 340 - USER IP : ::1 - USER ROLE : 1 - BROWSER : Mozilla/5.0 (Windows NT 10.0; WOW64; rv:55.0) Gecko/20100101 Firefox/55.0 - USERNAME : safari
SYSTEM LOG -- DATE :2017-09-25 11:53:37 - CLASS : me - FUNCTION : index - URL : localhost:8080/golkar/index.php/meme/me - USER ID : 340 - USER IP : ::1 - USER ROLE : 1 - BROWSER : Mozilla/5.0 (Windows NT 10.0; WOW64; rv:55.0) Gecko/20100101 Firefox/55.0 - USERNAME : safari
SYSTEM LOG -- DATE :2017-09-25 11:53:39 - CLASS : data - FUNCTION : check_login - URL : localhost:8080/golkar/index.php/ajax/data/check_login - USER ID : 340 - USER IP : ::1 - USER ROLE : 1 - BROWSER : Mozilla/5.0 (Windows NT 10.0; WOW64; rv:55.0) Gecko/20100101 Firefox/55.0 - USERNAME : safari
SYSTEM LOG -- DATE :2017-09-25 11:53:45 - CLASS : report_pencapaian - FUNCTION : index - URL : localhost:8080/golkar/index.php/report/report_pencapaian - USER ID : 340 - USER IP : ::1 - USER ROLE : 1 - BROWSER : Mozilla/5.0 (Windows NT 10.0; WOW64; rv:55.0) Gecko/20100101 Firefox/55.0 - USERNAME : safari
SYSTEM LOG -- DATE :2017-09-25 11:53:46 - CLASS : data - FUNCTION : check_login - URL : localhost:8080/golkar/index.php/ajax/data/check_login - USER ID : 340 - USER IP : ::1 - USER ROLE : 1 - BROWSER : Mozilla/5.0 (Windows NT 10.0; WOW64; rv:55.0) Gecko/20100101 Firefox/55.0 - USERNAME : safari
SYSTEM LOG -- DATE :2017-09-25 11:54:12 - CLASS : report_pencapaian - FUNCTION : search - URL : localhost:8080/golkar/index.php/report/report_pencapaian/search - USER ID : 340 - USER IP : ::1 - USER ROLE : 1 - BROWSER : Mozilla/5.0 (Windows NT 10.0; WOW64; rv:55.0) Gecko/20100101 Firefox/55.0 - USERNAME : safari
SYSTEM LOG -- DATE :2017-09-25 11:57:36 - CLASS : data - FUNCTION : check_login - URL : localhost:8080/golkar/index.php/ajax/data/check_login - USER ID : 340 - USER IP : ::1 - USER ROLE : 1 - BROWSER : Mozilla/5.0 (Windows NT 10.0; WOW64; rv:55.0) Gecko/20100101 Firefox/55.0 - USERNAME : safari
SYSTEM LOG -- DATE :2017-09-25 11:59:25 - CLASS : report_pencapaian - FUNCTION : search - URL : localhost:8080/golkar/index.php/report/report_pencapaian/search - USER ID : 340 - USER IP : ::1 - USER ROLE : 1 - BROWSER : Mozilla/5.0 (Windows NT 10.0; WOW64; rv:55.0) Gecko/20100101 Firefox/55.0 - USERNAME : safari
SYSTEM LOG -- DATE :2017-09-25 11:59:37 - CLASS : data - FUNCTION : check_login - URL : localhost:8080/golkar/index.php/ajax/data/check_login - USER ID : 340 - USER IP : ::1 - USER ROLE : 1 - BROWSER : Mozilla/5.0 (Windows NT 10.0; WOW64; rv:55.0) Gecko/20100101 Firefox/55.0 - USERNAME : safari
SYSTEM LOG -- DATE :2017-09-25 11:59:48 - CLASS : report_pencapaian - FUNCTION : search - URL : localhost:8080/golkar/index.php/report/report_pencapaian/search - USER ID : 340 - USER IP : ::1 - USER ROLE : 1 - BROWSER : Mozilla/5.0 (Windows NT 10.0; WOW64; rv:55.0) Gecko/20100101 Firefox/55.0 - USERNAME : safari
SYSTEM LOG -- DATE :2017-09-25 12:00:04 - CLASS : data - FUNCTION : check_login - URL : localhost:8080/golkar/index.php/ajax/data/check_login - USER ID : 340 - USER IP : ::1 - USER ROLE : 1 - BROWSER : Mozilla/5.0 (Windows NT 10.0; WOW64; rv:55.0) Gecko/20100101 Firefox/55.0 - USERNAME : safari
SYSTEM LOG -- DATE :2017-09-25 12:00:55 - CLASS : report_pencapaian - FUNCTION : index - URL : localhost:8080/golkar/index.php/report/report_pencapaian - USER ID : 340 - USER IP : ::1 - USER ROLE : 1 - BROWSER : Mozilla/5.0 (Windows NT 10.0; WOW64; rv:55.0) Gecko/20100101 Firefox/55.0 - USERNAME : safari
SYSTEM LOG -- DATE :2017-09-25 12:00:56 - CLASS : data - FUNCTION : check_login - URL : localhost:8080/golkar/index.php/ajax/data/check_login - USER ID : 340 - USER IP : ::1 - USER ROLE : 1 - BROWSER : Mozilla/5.0 (Windows NT 10.0; WOW64; rv:55.0) Gecko/20100101 Firefox/55.0 - USERNAME : safari
SYSTEM LOG -- DATE :2017-09-25 12:01:00 - CLASS : excel_report - FUNCTION : index - URL : localhost:8080/golkar/index.php/report/excel_report - USER ID : 340 - USER IP : ::1 - USER ROLE : 1 - BROWSER : Mozilla/5.0 (Windows NT 10.0; WOW64; rv:55.0) Gecko/20100101 Firefox/55.0 - USERNAME : safari
SYSTEM LOG -- DATE :2017-09-25 12:01:01 - CLASS : data - FUNCTION : check_login - URL : localhost:8080/golkar/index.php/ajax/data/check_login - USER ID : 340 - USER IP : ::1 - USER ROLE : 1 - BROWSER : Mozilla/5.0 (Windows NT 10.0; WOW64; rv:55.0) Gecko/20100101 Firefox/55.0 - USERNAME : safari
SYSTEM LOG -- DATE :2017-09-25 12:01:05 - CLASS : excel_report - FUNCTION : search - URL : localhost:8080/golkar/index.php/report/excel_report/search - USER ID : 340 - USER IP : ::1 - USER ROLE : 1 - BROWSER : Mozilla/5.0 (Windows NT 10.0; WOW64; rv:55.0) Gecko/20100101 Firefox/55.0 - USERNAME : safari
SYSTEM LOG -- DATE :2017-09-25 12:01:16 - CLASS : data - FUNCTION : check_login - URL : localhost:8080/golkar/index.php/ajax/data/check_login - USER ID : 340 - USER IP : ::1 - USER ROLE : 1 - BROWSER : Mozilla/5.0 (Windows NT 10.0; WOW64; rv:55.0) Gecko/20100101 Firefox/55.0 - USERNAME : safari
SYSTEM LOG -- DATE :2017-09-25 12:53:02 - CLASS : data_kabupaten - FUNCTION : index - URL : localhost:8080/golkar/index.php/master/data_kabupaten - USER ID : 340 - USER IP : ::1 - USER ROLE : 1 - BROWSER : Mozilla/5.0 (Windows NT 10.0; WOW64; rv:55.0) Gecko/20100101 Firefox/55.0 - USERNAME : safari
SYSTEM LOG -- DATE :2017-09-25 12:53:03 - CLASS : data - FUNCTION : check_login - URL : localhost:8080/golkar/index.php/ajax/data/check_login - USER ID : 340 - USER IP : ::1 - USER ROLE : 1 - BROWSER : Mozilla/5.0 (Windows NT 10.0; WOW64; rv:55.0) Gecko/20100101 Firefox/55.0 - USERNAME : safari
SYSTEM LOG -- DATE :2017-09-25 12:53:05 - CLASS : data_kabupaten - FUNCTION : search - URL : localhost:8080/golkar/index.php/master/data_kabupaten/search - USER ID : 340 - USER IP : ::1 - USER ROLE : 1 - BROWSER : Mozilla/5.0 (Windows NT 10.0; WOW64; rv:55.0) Gecko/20100101 Firefox/55.0 - USERNAME : safari
SYSTEM LOG -- DATE :2017-09-25 12:53:06 - CLASS : data - FUNCTION : check_login - URL : localhost:8080/golkar/index.php/ajax/data/check_login - USER ID : 340 - USER IP : ::1 - USER ROLE : 1 - BROWSER : Mozilla/5.0 (Windows NT 10.0; WOW64; rv:55.0) Gecko/20100101 Firefox/55.0 - USERNAME : safari
SYSTEM LOG -- DATE :2017-09-25 14:40:46 - CLASS : data_propinsi - FUNCTION : index - URL : localhost:8080/golkar/index.php/master/data_propinsi - USER ID : 340 - USER IP : ::1 - USER ROLE : 1 - BROWSER : Mozilla/5.0 (Windows NT 10.0; WOW64; rv:55.0) Gecko/20100101 Firefox/55.0 - USERNAME : safari
SYSTEM LOG -- DATE :2017-09-25 14:40:50 - CLASS : data - FUNCTION : check_login - URL : localhost:8080/golkar/index.php/ajax/data/check_login - USER ID : 340 - USER IP : ::1 - USER ROLE : 1 - BROWSER : Mozilla/5.0 (Windows NT 10.0; WOW64; rv:55.0) Gecko/20100101 Firefox/55.0 - USERNAME : safari
SYSTEM LOG -- DATE :2017-09-25 16:04:57 - CLASS : data_propinsi - FUNCTION : index - URL : localhost:8080/golkar/index.php/master/data_propinsi - USER ID : 340 - USER IP : ::1 - USER ROLE : 1 - BROWSER : Mozilla/5.0 (Windows NT 10.0; WOW64; rv:55.0) Gecko/20100101 Firefox/55.0 - USERNAME : safari
SYSTEM LOG -- DATE :2017-09-25 16:04:59 - CLASS : data - FUNCTION : check_login - URL : localhost:8080/golkar/index.php/ajax/data/check_login - USER ID : 340 - USER IP : ::1 - USER ROLE : 1 - BROWSER : Mozilla/5.0 (Windows NT 10.0; WOW64; rv:55.0) Gecko/20100101 Firefox/55.0 - USERNAME : safari
SYSTEM LOG -- DATE :2017-09-25 17:37:10 - CLASS : report_perbandingan_kta - FUNCTION : index - URL : localhost:8080/golkar/index.php/report/report_perbandingan_kta - USER ID : 340 - USER IP : ::1 - USER ROLE : 1 - BROWSER : Mozilla/5.0 (Windows NT 10.0; WOW64; rv:55.0) Gecko/20100101 Firefox/55.0 - USERNAME : safari
SYSTEM LOG -- DATE :2017-09-25 17:37:10 - CLASS : data - FUNCTION : check_login - URL : localhost:8080/golkar/index.php/ajax/data/check_login - USER ID : 340 - USER IP : ::1 - USER ROLE : 1 - BROWSER : Mozilla/5.0 (Windows NT 10.0; WOW64; rv:55.0) Gecko/20100101 Firefox/55.0 - USERNAME : safari
SYSTEM LOG -- DATE :2017-09-25 17:37:15 - CLASS : data - FUNCTION : kabupaten - URL : localhost:8080/golkar/index.php/ajax/data/kabupaten - USER ID : 340 - USER IP : ::1 - USER ROLE : 1 - BROWSER : Mozilla/5.0 (Windows NT 10.0; WOW64; rv:55.0) Gecko/20100101 Firefox/55.0 - USERNAME : safari
SYSTEM LOG -- DATE :2017-09-25 17:37:16 - CLASS : data - FUNCTION : check_login - URL : localhost:8080/golkar/index.php/ajax/data/check_login - USER ID : 340 - USER IP : ::1 - USER ROLE : 1 - BROWSER : Mozilla/5.0 (Windows NT 10.0; WOW64; rv:55.0) Gecko/20100101 Firefox/55.0 - USERNAME : safari
SYSTEM LOG -- DATE :2017-09-25 17:37:17 - CLASS : data - FUNCTION : kecamatan - URL : localhost:8080/golkar/index.php/ajax/data/kecamatan - USER ID : 340 - USER IP : ::1 - USER ROLE : 1 - BROWSER : Mozilla/5.0 (Windows NT 10.0; WOW64; rv:55.0) Gecko/20100101 Firefox/55.0 - USERNAME : safari
SYSTEM LOG -- DATE :2017-09-25 17:37:21 - CLASS : data - FUNCTION : check_login - URL : localhost:8080/golkar/index.php/ajax/data/check_login - USER ID : 340 - USER IP : ::1 - USER ROLE : 1 - BROWSER : Mozilla/5.0 (Windows NT 10.0; WOW64; rv:55.0) Gecko/20100101 Firefox/55.0 - USERNAME : safari
SYSTEM LOG -- DATE :2017-09-25 17:37:31 - CLASS : data - FUNCTION : kelurahan - URL : localhost:8080/golkar/index.php/ajax/data/kelurahan - USER ID : 340 - USER IP : ::1 - USER ROLE : 1 - BROWSER : Mozilla/5.0 (Windows NT 10.0; WOW64; rv:55.0) Gecko/20100101 Firefox/55.0 - USERNAME : safari
SYSTEM LOG -- DATE :2017-09-25 17:37:31 - CLASS : data - FUNCTION : check_login - URL : localhost:8080/golkar/index.php/ajax/data/check_login - USER ID : 340 - USER IP : ::1 - USER ROLE : 1 - BROWSER : Mozilla/5.0 (Windows NT 10.0; WOW64; rv:55.0) Gecko/20100101 Firefox/55.0 - USERNAME : safari
SYSTEM LOG -- DATE :2017-09-25 17:44:49 - CLASS : report_perbandingan_kta - FUNCTION : index - URL : localhost:8080/golkar/index.php/report/report_perbandingan_kta - USER ID : 340 - USER IP : ::1 - USER ROLE : 1 - BROWSER : Mozilla/5.0 (Windows NT 10.0; WOW64; rv:55.0) Gecko/20100101 Firefox/55.0 - USERNAME : safari
SYSTEM LOG -- DATE :2017-09-25 17:44:50 - CLASS : data - FUNCTION : check_login - URL : localhost:8080/golkar/index.php/ajax/data/check_login - USER ID : 340 - USER IP : ::1 - USER ROLE : 1 - BROWSER : Mozilla/5.0 (Windows NT 10.0; WOW64; rv:55.0) Gecko/20100101 Firefox/55.0 - USERNAME : safari
SYSTEM LOG -- DATE :2017-09-25 17:45:04 - CLASS : report_perbandingan_kta - FUNCTION : index - URL : localhost:8080/golkar/index.php/report/report_perbandingan_kta - USER ID : 340 - USER IP : ::1 - USER ROLE : 1 - BROWSER : Mozilla/5.0 (Windows NT 10.0; WOW64; rv:55.0) Gecko/20100101 Firefox/55.0 - USERNAME : safari
SYSTEM LOG -- DATE :2017-09-25 17:45:05 - CLASS : data - FUNCTION : check_login - URL : localhost:8080/golkar/index.php/ajax/data/check_login - USER ID : 340 - USER IP : ::1 - USER ROLE : 1 - BROWSER : Mozilla/5.0 (Windows NT 10.0; WOW64; rv:55.0) Gecko/20100101 Firefox/55.0 - USERNAME : safari
SYSTEM LOG -- DATE :2017-09-25 17:45:08 - CLASS : data - FUNCTION : kabupaten - URL : localhost:8080/golkar/index.php/ajax/data/kabupaten - USER ID : 340 - USER IP : ::1 - USER ROLE : 1 - BROWSER : Mozilla/5.0 (Windows NT 10.0; WOW64; rv:55.0) Gecko/20100101 Firefox/55.0 - USERNAME : safari
SYSTEM LOG -- DATE :2017-09-25 17:45:09 - CLASS : data - FUNCTION : kecamatan - URL : localhost:8080/golkar/index.php/ajax/data/kecamatan - USER ID : 340 - USER IP : ::1 - USER ROLE : 1 - BROWSER : Mozilla/5.0 (Windows NT 10.0; WOW64; rv:55.0) Gecko/20100101 Firefox/55.0 - USERNAME : safari
SYSTEM LOG -- DATE :2017-09-25 17:45:10 - CLASS : data - FUNCTION : check_login - URL : localhost:8080/golkar/index.php/ajax/data/check_login - USER ID : 340 - USER IP : ::1 - USER ROLE : 1 - BROWSER : Mozilla/5.0 (Windows NT 10.0; WOW64; rv:55.0) Gecko/20100101 Firefox/55.0 - USERNAME : safari
SYSTEM LOG -- DATE :2017-09-25 17:45:10 - CLASS : report_perbandingan_kta - FUNCTION : search - URL : localhost:8080/golkar/index.php/report/report_perbandingan_kta/search - USER ID : 340 - USER IP : ::1 - USER ROLE : 1 - BROWSER : Mozilla/5.0 (Windows NT 10.0; WOW64; rv:55.0) Gecko/20100101 Firefox/55.0 - USERNAME : safari
SYSTEM LOG -- DATE :2017-09-25 17:45:27 - CLASS : data - FUNCTION : check_login - URL : localhost:8080/golkar/index.php/ajax/data/check_login - USER ID : 340 - USER IP : ::1 - USER ROLE : 1 - BROWSER : Mozilla/5.0 (Windows NT 10.0; WOW64; rv:55.0) Gecko/20100101 Firefox/55.0 - USERNAME : safari
SYSTEM LOG -- DATE :2017-09-25 17:45:33 - CLASS : data - FUNCTION : kecamatan - URL : localhost:8080/golkar/index.php/ajax/data/kecamatan - USER ID : 340 - USER IP : ::1 - USER ROLE : 1 - BROWSER : Mozilla/5.0 (Windows NT 10.0; WOW64; rv:55.0) Gecko/20100101 Firefox/55.0 - USERNAME : safari
SYSTEM LOG -- DATE :2017-09-25 17:45:33 - CLASS : data - FUNCTION : kabupaten - URL : localhost:8080/golkar/index.php/ajax/data/kabupaten - USER ID : 340 - USER IP : ::1 - USER ROLE : 1 - BROWSER : Mozilla/5.0 (Windows NT 10.0; WOW64; rv:55.0) Gecko/20100101 Firefox/55.0 - USERNAME : safari
SYSTEM LOG -- DATE :2017-09-25 17:45:33 - CLASS : data - FUNCTION : check_login - URL : localhost:8080/golkar/index.php/ajax/data/check_login - USER ID : 340 - USER IP : ::1 - USER ROLE : 1 - BROWSER : Mozilla/5.0 (Windows NT 10.0; WOW64; rv:55.0) Gecko/20100101 Firefox/55.0 - USERNAME : safari
SYSTEM LOG -- DATE :2017-09-25 17:46:25 - CLASS : report_perbandingan_kta - FUNCTION : search - URL : localhost:8080/golkar/index.php/report/report_perbandingan_kta/search - USER ID : 340 - USER IP : ::1 - USER ROLE : 1 - BROWSER : Mozilla/5.0 (Windows NT 10.0; WOW64; rv:55.0) Gecko/20100101 Firefox/55.0 - USERNAME : safari
SYSTEM LOG -- DATE :2017-09-25 17:47:37 - CLASS : data - FUNCTION : check_login - URL : localhost:8080/golkar/index.php/ajax/data/check_login - USER ID : 340 - USER IP : ::1 - USER ROLE : 1 - BROWSER : Mozilla/5.0 (Windows NT 10.0; WOW64; rv:55.0) Gecko/20100101 Firefox/55.0 - USERNAME : safari
SYSTEM LOG -- DATE :2017-09-25 18:09:05 - CLASS : report_perbandingan_kta - FUNCTION : index - URL : localhost:8080/golkar/index.php/report/report_perbandingan_kta - USER ID : 340 - USER IP : ::1 - USER ROLE : 1 - BROWSER : Mozilla/5.0 (Windows NT 10.0; WOW64; rv:55.0) Gecko/20100101 Firefox/55.0 - USERNAME : safari
SYSTEM LOG -- DATE :2017-09-25 18:09:06 - CLASS : data - FUNCTION : check_login - URL : localhost:8080/golkar/index.php/ajax/data/check_login - USER ID : 340 - USER IP : ::1 - USER ROLE : 1 - BROWSER : Mozilla/5.0 (Windows NT 10.0; WOW64; rv:55.0) Gecko/20100101 Firefox/55.0 - USERNAME : safari
SYSTEM LOG -- DATE :2017-09-25 18:09:09 - CLASS : data - FUNCTION : kabupaten - URL : localhost:8080/golkar/index.php/ajax/data/kabupaten - USER ID : 340 - USER IP : ::1 - USER ROLE : 1 - BROWSER : Mozilla/5.0 (Windows NT 10.0; WOW64; rv:55.0) Gecko/20100101 Firefox/55.0 - USERNAME : safari
SYSTEM LOG -- DATE :2017-09-25 18:09:11 - CLASS : data - FUNCTION : kecamatan - URL : localhost:8080/golkar/index.php/ajax/data/kecamatan - USER ID : 340 - USER IP : ::1 - USER ROLE : 1 - BROWSER : Mozilla/5.0 (Windows NT 10.0; WOW64; rv:55.0) Gecko/20100101 Firefox/55.0 - USERNAME : safari
SYSTEM LOG -- DATE :2017-09-25 18:09:11 - CLASS : data - FUNCTION : check_login - URL : localhost:8080/golkar/index.php/ajax/data/check_login - USER ID : 340 - USER IP : ::1 - USER ROLE : 1 - BROWSER : Mozilla/5.0 (Windows NT 10.0; WOW64; rv:55.0) Gecko/20100101 Firefox/55.0 - USERNAME : safari
SYSTEM LOG -- DATE :2017-09-25 18:09:12 - CLASS : report_perbandingan_kta - FUNCTION : search - URL : localhost:8080/golkar/index.php/report/report_perbandingan_kta/search - USER ID : 340 - USER IP : ::1 - USER ROLE : 1 - BROWSER : Mozilla/5.0 (Windows NT 10.0; WOW64; rv:55.0) Gecko/20100101 Firefox/55.0 - USERNAME : safari
SYSTEM LOG -- DATE :2017-09-25 18:09:29 - CLASS : data - FUNCTION : check_login - URL : localhost:8080/golkar/index.php/ajax/data/check_login - USER ID : 340 - USER IP : ::1 - USER ROLE : 1 - BROWSER : Mozilla/5.0 (Windows NT 10.0; WOW64; rv:55.0) Gecko/20100101 Firefox/55.0 - USERNAME : safari
SYSTEM LOG -- DATE :2017-09-25 18:09:34 - CLASS : data - FUNCTION : kabupaten - URL : localhost:8080/golkar/index.php/ajax/data/kabupaten - USER ID : 340 - USER IP : ::1 - USER ROLE : 1 - BROWSER : Mozilla/5.0 (Windows NT 10.0; WOW64; rv:55.0) Gecko/20100101 Firefox/55.0 - USERNAME : safari
SYSTEM LOG -- DATE :2017-09-25 18:09:34 - CLASS : data - FUNCTION : kecamatan - URL : localhost:8080/golkar/index.php/ajax/data/kecamatan - USER ID : 340 - USER IP : ::1 - USER ROLE : 1 - BROWSER : Mozilla/5.0 (Windows NT 10.0; WOW64; rv:55.0) Gecko/20100101 Firefox/55.0 - USERNAME : safari
SYSTEM LOG -- DATE :2017-09-25 18:09:35 - CLASS : data - FUNCTION : check_login - URL : localhost:8080/golkar/index.php/ajax/data/check_login - USER ID : 340 - USER IP : ::1 - USER ROLE : 1 - BROWSER : Mozilla/5.0 (Windows NT 10.0; WOW64; rv:55.0) Gecko/20100101 Firefox/55.0 - USERNAME : safari
SYSTEM LOG -- DATE :2017-09-25 18:09:40 - CLASS : report_perbandingan_kta - FUNCTION : search - URL : localhost:8080/golkar/index.php/report/report_perbandingan_kta/search - USER ID : 340 - USER IP : ::1 - USER ROLE : 1 - BROWSER : Mozilla/5.0 (Windows NT 10.0; WOW64; rv:55.0) Gecko/20100101 Firefox/55.0 - USERNAME : safari
SYSTEM LOG -- DATE :2017-09-25 18:10:59 - CLASS : data - FUNCTION : check_login - URL : localhost:8080/golkar/index.php/ajax/data/check_login - USER ID : 340 - USER IP : ::1 - USER ROLE : 1 - BROWSER : Mozilla/5.0 (Windows NT 10.0; WOW64; rv:55.0) Gecko/20100101 Firefox/55.0 - USERNAME : safari
SYSTEM LOG -- DATE :2017-09-25 18:12:12 - CLASS : report_perbandingan_kta - FUNCTION : search - URL : localhost:8080/golkar/index.php/report/report_perbandingan_kta/search - USER ID : 340 - USER IP : ::1 - USER ROLE : 1 - BROWSER : Mozilla/5.0 (Windows NT 10.0; WOW64; rv:55.0) Gecko/20100101 Firefox/55.0 - USERNAME : safari
SYSTEM LOG -- DATE :2017-09-25 18:12:32 - CLASS : data - FUNCTION : check_login - URL : localhost:8080/golkar/index.php/ajax/data/check_login - USER ID : 340 - USER IP : ::1 - USER ROLE : 1 - BROWSER : Mozilla/5.0 (Windows NT 10.0; WOW64; rv:55.0) Gecko/20100101 Firefox/55.0 - USERNAME : safari
SYSTEM LOG -- DATE :2017-09-25 18:12:37 - CLASS : data - FUNCTION : kabupaten - URL : localhost:8080/golkar/index.php/ajax/data/kabupaten - USER ID : 340 - USER IP : ::1 - USER ROLE : 1 - BROWSER : Mozilla/5.0 (Windows NT 10.0; WOW64; rv:55.0) Gecko/20100101 Firefox/55.0 - USERNAME : safari
SYSTEM LOG -- DATE :2017-09-25 18:12:37 - CLASS : data - FUNCTION : kecamatan - URL : localhost:8080/golkar/index.php/ajax/data/kecamatan - USER ID : 340 - USER IP : ::1 - USER ROLE : 1 - BROWSER : Mozilla/5.0 (Windows NT 10.0; WOW64; rv:55.0) Gecko/20100101 Firefox/55.0 - USERNAME : safari
SYSTEM LOG -- DATE :2017-09-25 18:12:37 - CLASS : data - FUNCTION : check_login - URL : localhost:8080/golkar/index.php/ajax/data/check_login - USER ID : 340 - USER IP : ::1 - USER ROLE : 1 - BROWSER : Mozilla/5.0 (Windows NT 10.0; WOW64; rv:55.0) Gecko/20100101 Firefox/55.0 - USERNAME : safari
SYSTEM LOG -- DATE :2017-09-25 18:13:19 - CLASS : data - FUNCTION : kelurahan - URL : localhost:8080/golkar/index.php/ajax/data/kelurahan - USER ID : 340 - USER IP : ::1 - USER ROLE : 1 - BROWSER : Mozilla/5.0 (Windows NT 10.0; WOW64; rv:55.0) Gecko/20100101 Firefox/55.0 - USERNAME : safari
SYSTEM LOG -- DATE :2017-09-25 18:13:20 - CLASS : report_perbandingan_kta - FUNCTION : search - URL : localhost:8080/golkar/index.php/report/report_perbandingan_kta/search - USER ID : 340 - USER IP : ::1 - USER ROLE : 1 - BROWSER : Mozilla/5.0 (Windows NT 10.0; WOW64; rv:55.0) Gecko/20100101 Firefox/55.0 - USERNAME : safari
SYSTEM LOG -- DATE :2017-09-25 18:13:22 - CLASS : data - FUNCTION : kabupaten - URL : localhost:8080/golkar/index.php/ajax/data/kabupaten - USER ID : 340 - USER IP : ::1 - USER ROLE : 1 - BROWSER : Mozilla/5.0 (Windows NT 10.0; WOW64; rv:55.0) Gecko/20100101 Firefox/55.0 - USERNAME : safari
SYSTEM LOG -- DATE :2017-09-25 18:13:22 - CLASS : data - FUNCTION : kelurahan - URL : localhost:8080/golkar/index.php/ajax/data/kelurahan - USER ID : 340 - USER IP : ::1 - USER ROLE : 1 - BROWSER : Mozilla/5.0 (Windows NT 10.0; WOW64; rv:55.0) Gecko/20100101 Firefox/55.0 - USERNAME : safari
SYSTEM LOG -- DATE :2017-09-25 18:13:22 - CLASS : data - FUNCTION : kecamatan - URL : localhost:8080/golkar/index.php/ajax/data/kecamatan - USER ID : 340 - USER IP : ::1 - USER ROLE : 1 - BROWSER : Mozilla/5.0 (Windows NT 10.0; WOW64; rv:55.0) Gecko/20100101 Firefox/55.0 - USERNAME : safari
SYSTEM LOG -- DATE :2017-09-25 18:13:22 - CLASS : data - FUNCTION : check_login - URL : localhost:8080/golkar/index.php/ajax/data/check_login - USER ID : 340 - USER IP : ::1 - USER ROLE : 1 - BROWSER : Mozilla/5.0 (Windows NT 10.0; WOW64; rv:55.0) Gecko/20100101 Firefox/55.0 - USERNAME : safari
SYSTEM LOG -- DATE :2017-09-25 18:13:27 - CLASS : report_perbandingan_kta - FUNCTION : search - URL : localhost:8080/golkar/index.php/report/report_perbandingan_kta/search - USER ID : 340 - USER IP : ::1 - USER ROLE : 1 - BROWSER : Mozilla/5.0 (Windows NT 10.0; WOW64; rv:55.0) Gecko/20100101 Firefox/55.0 - USERNAME : safari
SYSTEM LOG -- DATE :2017-09-25 18:13:28 - CLASS : data - FUNCTION : check_login - URL : localhost:8080/golkar/index.php/ajax/data/check_login - USER ID : 340 - USER IP : ::1 - USER ROLE : 1 - BROWSER : Mozilla/5.0 (Windows NT 10.0; WOW64; rv:55.0) Gecko/20100101 Firefox/55.0 - USERNAME : safari
SYSTEM LOG -- DATE :2017-09-25 18:14:11 - CLASS : report_perbandingan_kta - FUNCTION : search - URL : localhost:8080/golkar/index.php/report/report_perbandingan_kta/search - USER ID : 340 - USER IP : ::1 - USER ROLE : 1 - BROWSER : Mozilla/5.0 (Windows NT 10.0; WOW64; rv:55.0) Gecko/20100101 Firefox/55.0 - USERNAME : safari
SYSTEM LOG -- DATE :2017-09-25 18:15:33 - CLASS : report_perbandingan_kta - FUNCTION : index - URL : localhost:8080/golkar/index.php/report/report_perbandingan_kta - USER ID : 340 - USER IP : ::1 - USER ROLE : 1 - BROWSER : Mozilla/5.0 (Windows NT 10.0; WOW64; rv:55.0) Gecko/20100101 Firefox/55.0 - USERNAME : safari
SYSTEM LOG -- DATE :2017-09-25 18:15:34 - CLASS : data - FUNCTION : check_login - URL : localhost:8080/golkar/index.php/ajax/data/check_login - USER ID : 340 - USER IP : ::1 - USER ROLE : 1 - BROWSER : Mozilla/5.0 (Windows NT 10.0; WOW64; rv:55.0) Gecko/20100101 Firefox/55.0 - USERNAME : safari
