SYSTEM LOG -- DATE :2018-03-17 12:34:18 - CLASS : me - FUNCTION : index - URL : localhost:8080/kaderisasi/index.php/meme/me - USER ID : 340 - USER IP : ::1 - USER ROLE : 1 - BROWSER : Mozilla/5.0 (Windows NT 10.0; Win64; x64; rv:59.0) Gecko/20100101 Firefox/59.0 - USERNAME : safari
SYSTEM LOG -- DATE :2018-03-17 12:34:19 - CLASS : data - FUNCTION : check_login - URL : localhost:8080/kaderisasi/index.php/ajax/data/check_login - USER ID : 340 - USER IP : ::1 - USER ROLE : 1 - BROWSER : Mozilla/5.0 (Windows NT 10.0; Win64; x64; rv:59.0) Gecko/20100101 Firefox/59.0 - USERNAME : safari
SYSTEM LOG -- DATE :2018-03-17 12:34:22 - CLASS : master_anggota - FUNCTION : index - URL : localhost:8080/kaderisasi/index.php/master/master_anggota - USER ID : 340 - USER IP : ::1 - USER ROLE : 1 - BROWSER : Mozilla/5.0 (Windows NT 10.0; Win64; x64; rv:59.0) Gecko/20100101 Firefox/59.0 - USERNAME : safari
SYSTEM LOG -- DATE :2018-03-17 12:34:23 - CLASS : data - FUNCTION : check_login - URL : localhost:8080/kaderisasi/index.php/ajax/data/check_login - USER ID : 340 - USER IP : ::1 - USER ROLE : 1 - BROWSER : Mozilla/5.0 (Windows NT 10.0; Win64; x64; rv:59.0) Gecko/20100101 Firefox/59.0 - USERNAME : safari
SYSTEM LOG -- DATE :2018-03-17 12:59:15 - CLASS : me - FUNCTION : index - URL : localhost:8080/kaderisasi/ - USER ID : 340 - USER IP : ::1 - USER ROLE : 1 - BROWSER : Mozilla/5.0 (Windows NT 10.0; Win64; x64; rv:59.0) Gecko/20100101 Firefox/59.0 - USERNAME : safari
SYSTEM LOG -- DATE :2018-03-17 12:59:16 - CLASS : data - FUNCTION : check_login - URL : localhost:8080/kaderisasi/index.php/ajax/data/check_login - USER ID : 340 - USER IP : ::1 - USER ROLE : 1 - BROWSER : Mozilla/5.0 (Windows NT 10.0; Win64; x64; rv:59.0) Gecko/20100101 Firefox/59.0 - USERNAME : safari
SYSTEM LOG -- DATE :2018-03-17 13:03:55 - CLASS : master_anggota - FUNCTION : index - URL : localhost:8080/kaderisasi/index.php/master/master_anggota - USER ID : 340 - USER IP : ::1 - USER ROLE : 1 - BROWSER : Mozilla/5.0 (Windows NT 10.0; Win64; x64; rv:59.0) Gecko/20100101 Firefox/59.0 - USERNAME : safari
SYSTEM LOG -- DATE :2018-03-17 13:03:56 - CLASS : data - FUNCTION : check_login - URL : localhost:8080/kaderisasi/index.php/ajax/data/check_login - USER ID : 340 - USER IP : ::1 - USER ROLE : 1 - BROWSER : Mozilla/5.0 (Windows NT 10.0; Win64; x64; rv:59.0) Gecko/20100101 Firefox/59.0 - USERNAME : safari
SYSTEM LOG -- DATE :2018-03-17 13:04:58 - CLASS : master_anggota - FUNCTION : add - URL : localhost:8080/kaderisasi/index.php/master/master_anggota/add - USER ID : 340 - USER IP : ::1 - USER ROLE : 1 - BROWSER : Mozilla/5.0 (Windows NT 10.0; Win64; x64; rv:59.0) Gecko/20100101 Firefox/59.0 - USERNAME : safari
SYSTEM LOG -- DATE :2018-03-17 13:04:59 - CLASS : data - FUNCTION : check_login - URL : localhost:8080/kaderisasi/index.php/ajax/data/check_login - USER ID : 340 - USER IP : ::1 - USER ROLE : 1 - BROWSER : Mozilla/5.0 (Windows NT 10.0; Win64; x64; rv:59.0) Gecko/20100101 Firefox/59.0 - USERNAME : safari
SYSTEM LOG -- DATE :2018-03-17 13:06:21 - CLASS : data - FUNCTION : ktp - URL : localhost:8080/kaderisasi/index.php/ajax/data/ktp - USER ID : 340 - USER IP : ::1 - USER ROLE : 1 - BROWSER : Mozilla/5.0 (Windows NT 10.0; Win64; x64; rv:59.0) Gecko/20100101 Firefox/59.0 - USERNAME : safari
SYSTEM LOG -- DATE :2018-03-17 13:06:24 - CLASS : data - FUNCTION : check_login - URL : localhost:8080/kaderisasi/index.php/ajax/data/check_login - USER ID : 340 - USER IP : ::1 - USER ROLE : 1 - BROWSER : Mozilla/5.0 (Windows NT 10.0; Win64; x64; rv:59.0) Gecko/20100101 Firefox/59.0 - USERNAME : safari
SYSTEM LOG -- DATE :2018-03-17 13:07:19 - CLASS : master_anggota - FUNCTION : save_upload - URL : localhost:8080/kaderisasi/index.php/master/master_anggota/save_upload - USER ID : 340 - USER IP : ::1 - USER ROLE : 1 - BROWSER : Mozilla/5.0 (Windows NT 10.0; Win64; x64; rv:59.0) Gecko/20100101 Firefox/59.0 - USERNAME : safari
SYSTEM LOG -- DATE :2018-03-17 13:07:19 - CLASS : master_anggota - FUNCTION : crop - URL : localhost:8080/kaderisasi/index.php/master/master_anggota/crop/?_id=F%2FDBkO19bIWvPshxh%2Baqpx08xGvz9oUEL23JlKewBOvmg0f2%2BDh30cBnX0x8bwvR7%2BjWk3HZdOGGvpqjOq0m0A%3D%3D - USER ID : 340 - USER IP : ::1 - USER ROLE : 1 - BROWSER : Mozilla/5.0 (Windows NT 10.0; Win64; x64; rv:59.0) Gecko/20100101 Firefox/59.0 - USERNAME : safari
SYSTEM LOG -- DATE :2018-03-17 13:07:20 - CLASS : data - FUNCTION : kabupaten - URL : localhost:8080/kaderisasi/index.php/ajax/data/kabupaten - USER ID : 340 - USER IP : ::1 - USER ROLE : 1 - BROWSER : Mozilla/5.0 (Windows NT 10.0; Win64; x64; rv:59.0) Gecko/20100101 Firefox/59.0 - USERNAME : safari
SYSTEM LOG -- DATE :2018-03-17 13:07:20 - CLASS : data - FUNCTION : kecamatan - URL : localhost:8080/kaderisasi/index.php/ajax/data/kecamatan - USER ID : 340 - USER IP : ::1 - USER ROLE : 1 - BROWSER : Mozilla/5.0 (Windows NT 10.0; Win64; x64; rv:59.0) Gecko/20100101 Firefox/59.0 - USERNAME : safari
SYSTEM LOG -- DATE :2018-03-17 13:07:20 - CLASS : data - FUNCTION : kelurahan - URL : localhost:8080/kaderisasi/index.php/ajax/data/kelurahan - USER ID : 340 - USER IP : ::1 - USER ROLE : 1 - BROWSER : Mozilla/5.0 (Windows NT 10.0; Win64; x64; rv:59.0) Gecko/20100101 Firefox/59.0 - USERNAME : safari
SYSTEM LOG -- DATE :2018-03-17 13:07:21 - CLASS : data - FUNCTION : check_login - URL : localhost:8080/kaderisasi/index.php/ajax/data/check_login - USER ID : 340 - USER IP : ::1 - USER ROLE : 1 - BROWSER : Mozilla/5.0 (Windows NT 10.0; Win64; x64; rv:59.0) Gecko/20100101 Firefox/59.0 - USERNAME : safari
SYSTEM LOG -- DATE :2018-03-17 13:09:11 - CLASS : master_anggota - FUNCTION : save_crop - URL : localhost:8080/kaderisasi/index.php/master/master_anggota/save_crop - USER ID : 340 - USER IP : ::1 - USER ROLE : 1 - BROWSER : Mozilla/5.0 (Windows NT 10.0; Win64; x64; rv:59.0) Gecko/20100101 Firefox/59.0 - USERNAME : safari
SYSTEM LOG -- DATE :2018-03-17 13:09:11 - CLASS : master_anggota - FUNCTION : Lampiran%20Surat%20Keterangan - URL : localhost:8080/kaderisasi/index.php/master/master_anggota/Lampiran%20Surat%20Keterangan - USER ID : 340 - USER IP : ::1 - USER ROLE : 1 - BROWSER : Mozilla/5.0 (Windows NT 10.0; Win64; x64; rv:59.0) Gecko/20100101 Firefox/59.0 - USERNAME : safari
SYSTEM LOG -- DATE :2018-03-17 13:09:12 - CLASS : data - FUNCTION : kabupaten - URL : localhost:8080/kaderisasi/index.php/ajax/data/kabupaten - USER ID : 340 - USER IP : ::1 - USER ROLE : 1 - BROWSER : Mozilla/5.0 (Windows NT 10.0; Win64; x64; rv:59.0) Gecko/20100101 Firefox/59.0 - USERNAME : safari
SYSTEM LOG -- DATE :2018-03-17 13:09:12 - CLASS : data - FUNCTION : kecamatan - URL : localhost:8080/kaderisasi/index.php/ajax/data/kecamatan - USER ID : 340 - USER IP : ::1 - USER ROLE : 1 - BROWSER : Mozilla/5.0 (Windows NT 10.0; Win64; x64; rv:59.0) Gecko/20100101 Firefox/59.0 - USERNAME : safari
SYSTEM LOG -- DATE :2018-03-17 13:09:12 - CLASS : data - FUNCTION : kelurahan - URL : localhost:8080/kaderisasi/index.php/ajax/data/kelurahan - USER ID : 340 - USER IP : ::1 - USER ROLE : 1 - BROWSER : Mozilla/5.0 (Windows NT 10.0; Win64; x64; rv:59.0) Gecko/20100101 Firefox/59.0 - USERNAME : safari
SYSTEM LOG -- DATE :2018-03-17 13:09:12 - CLASS : data - FUNCTION : check_login - URL : localhost:8080/kaderisasi/index.php/ajax/data/check_login - USER ID : 340 - USER IP : ::1 - USER ROLE : 1 - BROWSER : Mozilla/5.0 (Windows NT 10.0; Win64; x64; rv:59.0) Gecko/20100101 Firefox/59.0 - USERNAME : safari
SYSTEM LOG -- DATE :2018-03-17 13:10:55 - CLASS : master_anggota - FUNCTION : index - URL : localhost:8080/kaderisasi/index.php/master/master_anggota/index - USER ID : 340 - USER IP : ::1 - USER ROLE : 1 - BROWSER : Mozilla/5.0 (Windows NT 10.0; Win64; x64; rv:59.0) Gecko/20100101 Firefox/59.0 - USERNAME : safari
SYSTEM LOG -- DATE :2018-03-17 13:10:56 - CLASS : data - FUNCTION : check_login - URL : localhost:8080/kaderisasi/index.php/ajax/data/check_login - USER ID : 340 - USER IP : ::1 - USER ROLE : 1 - BROWSER : Mozilla/5.0 (Windows NT 10.0; Win64; x64; rv:59.0) Gecko/20100101 Firefox/59.0 - USERNAME : safari
SYSTEM LOG -- DATE :2018-03-17 13:11:00 - CLASS : master_anggota - FUNCTION : index - URL : localhost:8080/kaderisasi/index.php/master/master_anggota - USER ID : 340 - USER IP : ::1 - USER ROLE : 1 - BROWSER : Mozilla/5.0 (Windows NT 10.0; Win64; x64; rv:59.0) Gecko/20100101 Firefox/59.0 - USERNAME : safari
SYSTEM LOG -- DATE :2018-03-17 13:11:01 - CLASS : data - FUNCTION : check_login - URL : localhost:8080/kaderisasi/index.php/ajax/data/check_login - USER ID : 340 - USER IP : ::1 - USER ROLE : 1 - BROWSER : Mozilla/5.0 (Windows NT 10.0; Win64; x64; rv:59.0) Gecko/20100101 Firefox/59.0 - USERNAME : safari
SYSTEM LOG -- DATE :2018-03-17 13:11:03 - CLASS : master_anggota - FUNCTION : add - URL : localhost:8080/kaderisasi/index.php/master/master_anggota/add - USER ID : 340 - USER IP : ::1 - USER ROLE : 1 - BROWSER : Mozilla/5.0 (Windows NT 10.0; Win64; x64; rv:59.0) Gecko/20100101 Firefox/59.0 - USERNAME : safari
SYSTEM LOG -- DATE :2018-03-17 13:11:03 - CLASS : data - FUNCTION : check_login - URL : localhost:8080/kaderisasi/index.php/ajax/data/check_login - USER ID : 340 - USER IP : ::1 - USER ROLE : 1 - BROWSER : Mozilla/5.0 (Windows NT 10.0; Win64; x64; rv:59.0) Gecko/20100101 Firefox/59.0 - USERNAME : safari
SYSTEM LOG -- DATE :2018-03-17 13:11:10 - CLASS : data - FUNCTION : ktp - URL : localhost:8080/kaderisasi/index.php/ajax/data/ktp - USER ID : 340 - USER IP : ::1 - USER ROLE : 1 - BROWSER : Mozilla/5.0 (Windows NT 10.0; Win64; x64; rv:59.0) Gecko/20100101 Firefox/59.0 - USERNAME : safari
SYSTEM LOG -- DATE :2018-03-17 13:11:14 - CLASS : data - FUNCTION : check_login - URL : localhost:8080/kaderisasi/index.php/ajax/data/check_login - USER ID : 340 - USER IP : ::1 - USER ROLE : 1 - BROWSER : Mozilla/5.0 (Windows NT 10.0; Win64; x64; rv:59.0) Gecko/20100101 Firefox/59.0 - USERNAME : safari
SYSTEM LOG -- DATE :2018-03-17 13:11:17 - CLASS : data - FUNCTION : ktp - URL : localhost:8080/kaderisasi/index.php/ajax/data/ktp - USER ID : 340 - USER IP : ::1 - USER ROLE : 1 - BROWSER : Mozilla/5.0 (Windows NT 10.0; Win64; x64; rv:59.0) Gecko/20100101 Firefox/59.0 - USERNAME : safari
SYSTEM LOG -- DATE :2018-03-17 13:11:19 - CLASS : data - FUNCTION : check_login - URL : localhost:8080/kaderisasi/index.php/ajax/data/check_login - USER ID : 340 - USER IP : ::1 - USER ROLE : 1 - BROWSER : Mozilla/5.0 (Windows NT 10.0; Win64; x64; rv:59.0) Gecko/20100101 Firefox/59.0 - USERNAME : safari
SYSTEM LOG -- DATE :2018-03-17 13:12:02 - CLASS : master_anggota - FUNCTION : index - URL : localhost:8080/kaderisasi/index.php/master/master_anggota - USER ID : 340 - USER IP : ::1 - USER ROLE : 1 - BROWSER : Mozilla/5.0 (Windows NT 10.0; Win64; x64; rv:59.0) Gecko/20100101 Firefox/59.0 - USERNAME : safari
SYSTEM LOG -- DATE :2018-03-17 13:12:03 - CLASS : data - FUNCTION : check_login - URL : localhost:8080/kaderisasi/index.php/ajax/data/check_login - USER ID : 340 - USER IP : ::1 - USER ROLE : 1 - BROWSER : Mozilla/5.0 (Windows NT 10.0; Win64; x64; rv:59.0) Gecko/20100101 Firefox/59.0 - USERNAME : safari
SYSTEM LOG -- DATE :2018-03-17 13:12:06 - CLASS : master_anggota - FUNCTION : index - URL : localhost:8080/kaderisasi/index.php/master/master_anggota - USER ID : 340 - USER IP : ::1 - USER ROLE : 1 - BROWSER : Mozilla/5.0 (Windows NT 10.0; Win64; x64; rv:59.0) Gecko/20100101 Firefox/59.0 - USERNAME : safari
SYSTEM LOG -- DATE :2018-03-17 13:12:07 - CLASS : data - FUNCTION : check_login - URL : localhost:8080/kaderisasi/index.php/ajax/data/check_login - USER ID : 340 - USER IP : ::1 - USER ROLE : 1 - BROWSER : Mozilla/5.0 (Windows NT 10.0; Win64; x64; rv:59.0) Gecko/20100101 Firefox/59.0 - USERNAME : safari
SYSTEM LOG -- DATE :2018-03-17 14:02:34 - CLASS : master_anggota - FUNCTION : index - URL : localhost:8080/kaderisasi/index.php/master/master_anggota - USER ID : 340 - USER IP : ::1 - USER ROLE : 1 - BROWSER : Mozilla/5.0 (Windows NT 10.0; Win64; x64; rv:59.0) Gecko/20100101 Firefox/59.0 - USERNAME : safari
SYSTEM LOG -- DATE :2018-03-17 14:02:35 - CLASS : data - FUNCTION : check_login - URL : localhost:8080/kaderisasi/index.php/ajax/data/check_login - USER ID : 340 - USER IP : ::1 - USER ROLE : 1 - BROWSER : Mozilla/5.0 (Windows NT 10.0; Win64; x64; rv:59.0) Gecko/20100101 Firefox/59.0 - USERNAME : safari
SYSTEM LOG -- DATE :2018-03-17 14:02:40 - CLASS : master_anggota - FUNCTION : index - URL : localhost:8080/kaderisasi/index.php/master/master_anggota - USER ID : 340 - USER IP : ::1 - USER ROLE : 1 - BROWSER : Mozilla/5.0 (Windows NT 10.0; Win64; x64; rv:59.0) Gecko/20100101 Firefox/59.0 - USERNAME : safari
SYSTEM LOG -- DATE :2018-03-17 14:02:41 - CLASS : data - FUNCTION : check_login - URL : localhost:8080/kaderisasi/index.php/ajax/data/check_login - USER ID : 340 - USER IP : ::1 - USER ROLE : 1 - BROWSER : Mozilla/5.0 (Windows NT 10.0; Win64; x64; rv:59.0) Gecko/20100101 Firefox/59.0 - USERNAME : safari
SYSTEM LOG -- DATE :2018-03-17 14:02:42 - CLASS : master_anggota - FUNCTION : add - URL : localhost:8080/kaderisasi/index.php/master/master_anggota/add - USER ID : 340 - USER IP : ::1 - USER ROLE : 1 - BROWSER : Mozilla/5.0 (Windows NT 10.0; Win64; x64; rv:59.0) Gecko/20100101 Firefox/59.0 - USERNAME : safari
SYSTEM LOG -- DATE :2018-03-17 14:02:43 - CLASS : data - FUNCTION : check_login - URL : localhost:8080/kaderisasi/index.php/ajax/data/check_login - USER ID : 340 - USER IP : ::1 - USER ROLE : 1 - BROWSER : Mozilla/5.0 (Windows NT 10.0; Win64; x64; rv:59.0) Gecko/20100101 Firefox/59.0 - USERNAME : safari
SYSTEM LOG -- DATE :2018-03-17 14:19:27 - CLASS : master_anggota - FUNCTION : index - URL : localhost:8080/kaderisasi/index.php/master/master_anggota - USER ID : 340 - USER IP : ::1 - USER ROLE : 1 - BROWSER : Mozilla/5.0 (Windows NT 10.0; Win64; x64; rv:59.0) Gecko/20100101 Firefox/59.0 - USERNAME : safari
SYSTEM LOG -- DATE :2018-03-17 14:19:28 - CLASS : data - FUNCTION : check_login - URL : localhost:8080/kaderisasi/index.php/ajax/data/check_login - USER ID : 340 - USER IP : ::1 - USER ROLE : 1 - BROWSER : Mozilla/5.0 (Windows NT 10.0; Win64; x64; rv:59.0) Gecko/20100101 Firefox/59.0 - USERNAME : safari
SYSTEM LOG -- DATE :2018-03-17 14:20:33 - CLASS : master_anggota - FUNCTION : index - URL : localhost:8080/kaderisasi/index.php/master/master_anggota - USER ID : 340 - USER IP : ::1 - USER ROLE : 1 - BROWSER : Mozilla/5.0 (Windows NT 10.0; Win64; x64; rv:59.0) Gecko/20100101 Firefox/59.0 - USERNAME : safari
SYSTEM LOG -- DATE :2018-03-17 14:20:34 - CLASS : data - FUNCTION : check_login - URL : localhost:8080/kaderisasi/index.php/ajax/data/check_login - USER ID : 340 - USER IP : ::1 - USER ROLE : 1 - BROWSER : Mozilla/5.0 (Windows NT 10.0; Win64; x64; rv:59.0) Gecko/20100101 Firefox/59.0 - USERNAME : safari
SYSTEM LOG -- DATE :2018-03-17 14:26:44 - CLASS : master_anggota - FUNCTION : index - URL : localhost:8080/kaderisasi/index.php/master/master_anggota - USER ID : 340 - USER IP : ::1 - USER ROLE : 1 - BROWSER : Mozilla/5.0 (Windows NT 10.0; Win64; x64; rv:59.0) Gecko/20100101 Firefox/59.0 - USERNAME : safari
SYSTEM LOG -- DATE :2018-03-17 14:26:45 - CLASS : data - FUNCTION : check_login - URL : localhost:8080/kaderisasi/index.php/ajax/data/check_login - USER ID : 340 - USER IP : ::1 - USER ROLE : 1 - BROWSER : Mozilla/5.0 (Windows NT 10.0; Win64; x64; rv:59.0) Gecko/20100101 Firefox/59.0 - USERNAME : safari
SYSTEM LOG -- DATE :2018-03-17 14:26:47 - CLASS : master_anggota - FUNCTION : add - URL : localhost:8080/kaderisasi/index.php/master/master_anggota/add - USER ID : 340 - USER IP : ::1 - USER ROLE : 1 - BROWSER : Mozilla/5.0 (Windows NT 10.0; Win64; x64; rv:59.0) Gecko/20100101 Firefox/59.0 - USERNAME : safari
SYSTEM LOG -- DATE :2018-03-17 14:26:48 - CLASS : data - FUNCTION : check_login - URL : localhost:8080/kaderisasi/index.php/ajax/data/check_login - USER ID : 340 - USER IP : ::1 - USER ROLE : 1 - BROWSER : Mozilla/5.0 (Windows NT 10.0; Win64; x64; rv:59.0) Gecko/20100101 Firefox/59.0 - USERNAME : safari
SYSTEM LOG -- DATE :2018-03-17 14:27:07 - CLASS : data - FUNCTION : ktp - URL : localhost:8080/kaderisasi/index.php/ajax/data/ktp - USER ID : 340 - USER IP : ::1 - USER ROLE : 1 - BROWSER : Mozilla/5.0 (Windows NT 10.0; Win64; x64; rv:59.0) Gecko/20100101 Firefox/59.0 - USERNAME : safari
SYSTEM LOG -- DATE :2018-03-17 14:27:08 - CLASS : data - FUNCTION : check_login - URL : localhost:8080/kaderisasi/index.php/ajax/data/check_login - USER ID : 340 - USER IP : ::1 - USER ROLE : 1 - BROWSER : Mozilla/5.0 (Windows NT 10.0; Win64; x64; rv:59.0) Gecko/20100101 Firefox/59.0 - USERNAME : safari
SYSTEM LOG -- DATE :2018-03-17 14:28:25 - CLASS : master_anggota - FUNCTION : save_upload - URL : localhost:8080/kaderisasi/index.php/master/master_anggota/save_upload - USER ID : 340 - USER IP : ::1 - USER ROLE : 1 - BROWSER : Mozilla/5.0 (Windows NT 10.0; Win64; x64; rv:59.0) Gecko/20100101 Firefox/59.0 - USERNAME : safari
SYSTEM LOG -- DATE :2018-03-17 14:28:25 - CLASS : master_anggota - FUNCTION : crop - URL : localhost:8080/kaderisasi/index.php/master/master_anggota/crop/?_id=amjHoMy8gKbOSoAHXIJY19rrfRiN%2FRzUWtDT6tYz1epcYZQ6QUiFTOfzyNo2E2ojcmUM56N90%2FNgXBgXjv9eKA%3D%3D - USER ID : 340 - USER IP : ::1 - USER ROLE : 1 - BROWSER : Mozilla/5.0 (Windows NT 10.0; Win64; x64; rv:59.0) Gecko/20100101 Firefox/59.0 - USERNAME : safari
SYSTEM LOG -- DATE :2018-03-17 14:28:25 - CLASS : data - FUNCTION : kabupaten - URL : localhost:8080/kaderisasi/index.php/ajax/data/kabupaten - USER ID : 340 - USER IP : ::1 - USER ROLE : 1 - BROWSER : Mozilla/5.0 (Windows NT 10.0; Win64; x64; rv:59.0) Gecko/20100101 Firefox/59.0 - USERNAME : safari
SYSTEM LOG -- DATE :2018-03-17 14:28:25 - CLASS : data - FUNCTION : kecamatan - URL : localhost:8080/kaderisasi/index.php/ajax/data/kecamatan - USER ID : 340 - USER IP : ::1 - USER ROLE : 1 - BROWSER : Mozilla/5.0 (Windows NT 10.0; Win64; x64; rv:59.0) Gecko/20100101 Firefox/59.0 - USERNAME : safari
SYSTEM LOG -- DATE :2018-03-17 14:28:26 - CLASS : data - FUNCTION : kelurahan - URL : localhost:8080/kaderisasi/index.php/ajax/data/kelurahan - USER ID : 340 - USER IP : ::1 - USER ROLE : 1 - BROWSER : Mozilla/5.0 (Windows NT 10.0; Win64; x64; rv:59.0) Gecko/20100101 Firefox/59.0 - USERNAME : safari
SYSTEM LOG -- DATE :2018-03-17 14:28:26 - CLASS : data - FUNCTION : check_login - URL : localhost:8080/kaderisasi/index.php/ajax/data/check_login - USER ID : 340 - USER IP : ::1 - USER ROLE : 1 - BROWSER : Mozilla/5.0 (Windows NT 10.0; Win64; x64; rv:59.0) Gecko/20100101 Firefox/59.0 - USERNAME : safari
SYSTEM LOG -- DATE :2018-03-17 14:39:35 - CLASS : master_anggota - FUNCTION : save_crop - URL : localhost:8080/kaderisasi/index.php/master/master_anggota/save_crop - USER ID : 340 - USER IP : ::1 - USER ROLE : 1 - BROWSER : Mozilla/5.0 (Windows NT 10.0; Win64; x64; rv:59.0) Gecko/20100101 Firefox/59.0 - USERNAME : safari
SYSTEM LOG -- DATE :2018-03-17 14:39:35 - CLASS : master_anggota - FUNCTION : Lampiran%20Surat%20Keterangan - URL : localhost:8080/kaderisasi/index.php/master/master_anggota/Lampiran%20Surat%20Keterangan - USER ID : 340 - USER IP : ::1 - USER ROLE : 1 - BROWSER : Mozilla/5.0 (Windows NT 10.0; Win64; x64; rv:59.0) Gecko/20100101 Firefox/59.0 - USERNAME : safari
SYSTEM LOG -- DATE :2018-03-17 14:39:36 - CLASS : data - FUNCTION : kabupaten - URL : localhost:8080/kaderisasi/index.php/ajax/data/kabupaten - USER ID : 340 - USER IP : ::1 - USER ROLE : 1 - BROWSER : Mozilla/5.0 (Windows NT 10.0; Win64; x64; rv:59.0) Gecko/20100101 Firefox/59.0 - USERNAME : safari
SYSTEM LOG -- DATE :2018-03-17 14:39:36 - CLASS : data - FUNCTION : kecamatan - URL : localhost:8080/kaderisasi/index.php/ajax/data/kecamatan - USER ID : 340 - USER IP : ::1 - USER ROLE : 1 - BROWSER : Mozilla/5.0 (Windows NT 10.0; Win64; x64; rv:59.0) Gecko/20100101 Firefox/59.0 - USERNAME : safari
SYSTEM LOG -- DATE :2018-03-17 14:39:36 - CLASS : data - FUNCTION : kelurahan - URL : localhost:8080/kaderisasi/index.php/ajax/data/kelurahan - USER ID : 340 - USER IP : ::1 - USER ROLE : 1 - BROWSER : Mozilla/5.0 (Windows NT 10.0; Win64; x64; rv:59.0) Gecko/20100101 Firefox/59.0 - USERNAME : safari
SYSTEM LOG -- DATE :2018-03-17 14:39:36 - CLASS : data - FUNCTION : check_login - URL : localhost:8080/kaderisasi/index.php/ajax/data/check_login - USER ID : 340 - USER IP : ::1 - USER ROLE : 1 - BROWSER : Mozilla/5.0 (Windows NT 10.0; Win64; x64; rv:59.0) Gecko/20100101 Firefox/59.0 - USERNAME : safari
SYSTEM LOG -- DATE :2018-03-17 19:47:55 - CLASS : master_anggota - FUNCTION : index - URL : localhost:8080/kaderisasi/index.php/master/master_anggota/index - USER ID : 340 - USER IP : ::1 - USER ROLE : 1 - BROWSER : Mozilla/5.0 (Windows NT 10.0; Win64; x64; rv:59.0) Gecko/20100101 Firefox/59.0 - USERNAME : safari
SYSTEM LOG -- DATE :2018-03-17 19:47:56 - CLASS : data - FUNCTION : check_login - URL : localhost:8080/kaderisasi/index.php/ajax/data/check_login - USER ID : 340 - USER IP : ::1 - USER ROLE : 1 - BROWSER : Mozilla/5.0 (Windows NT 10.0; Win64; x64; rv:59.0) Gecko/20100101 Firefox/59.0 - USERNAME : safari
SYSTEM LOG -- DATE :2018-03-17 19:47:57 - CLASS : master_anggota - FUNCTION : add - URL : localhost:8080/kaderisasi/index.php/master/master_anggota/add - USER ID : 340 - USER IP : ::1 - USER ROLE : 1 - BROWSER : Mozilla/5.0 (Windows NT 10.0; Win64; x64; rv:59.0) Gecko/20100101 Firefox/59.0 - USERNAME : safari
SYSTEM LOG -- DATE :2018-03-17 19:47:58 - CLASS : data - FUNCTION : check_login - URL : localhost:8080/kaderisasi/index.php/ajax/data/check_login - USER ID : 340 - USER IP : ::1 - USER ROLE : 1 - BROWSER : Mozilla/5.0 (Windows NT 10.0; Win64; x64; rv:59.0) Gecko/20100101 Firefox/59.0 - USERNAME : safari
SYSTEM LOG -- DATE :2018-03-17 19:48:01 - CLASS : data - FUNCTION : ktp - URL : localhost:8080/kaderisasi/index.php/ajax/data/ktp - USER ID : 340 - USER IP : ::1 - USER ROLE : 1 - BROWSER : Mozilla/5.0 (Windows NT 10.0; Win64; x64; rv:59.0) Gecko/20100101 Firefox/59.0 - USERNAME : safari
SYSTEM LOG -- DATE :2018-03-17 19:48:03 - CLASS : data - FUNCTION : check_login - URL : localhost:8080/kaderisasi/index.php/ajax/data/check_login - USER ID : 340 - USER IP : ::1 - USER ROLE : 1 - BROWSER : Mozilla/5.0 (Windows NT 10.0; Win64; x64; rv:59.0) Gecko/20100101 Firefox/59.0 - USERNAME : safari
SYSTEM LOG -- DATE :2018-03-17 19:48:19 - CLASS : master_anggota - FUNCTION : save_upload - URL : localhost:8080/kaderisasi/index.php/master/master_anggota/save_upload - USER ID : 340 - USER IP : ::1 - USER ROLE : 1 - BROWSER : Mozilla/5.0 (Windows NT 10.0; Win64; x64; rv:59.0) Gecko/20100101 Firefox/59.0 - USERNAME : safari
SYSTEM LOG -- DATE :2018-03-17 19:48:19 - CLASS : master_anggota - FUNCTION : crop - URL : localhost:8080/kaderisasi/index.php/master/master_anggota/crop/?_id=3AjeORiF64vYLoILxzj2jgzmfNaocf6sQ7DdsDE0CjPOjnufe13Ph%2BHkcsp4%2FfUUZmB59NwseKqGZRkvaXKPOA%3D%3D - USER ID : 340 - USER IP : ::1 - USER ROLE : 1 - BROWSER : Mozilla/5.0 (Windows NT 10.0; Win64; x64; rv:59.0) Gecko/20100101 Firefox/59.0 - USERNAME : safari
SYSTEM LOG -- DATE :2018-03-17 19:48:20 - CLASS : data - FUNCTION : kabupaten - URL : localhost:8080/kaderisasi/index.php/ajax/data/kabupaten - USER ID : 340 - USER IP : ::1 - USER ROLE : 1 - BROWSER : Mozilla/5.0 (Windows NT 10.0; Win64; x64; rv:59.0) Gecko/20100101 Firefox/59.0 - USERNAME : safari
SYSTEM LOG -- DATE :2018-03-17 19:48:20 - CLASS : data - FUNCTION : kecamatan - URL : localhost:8080/kaderisasi/index.php/ajax/data/kecamatan - USER ID : 340 - USER IP : ::1 - USER ROLE : 1 - BROWSER : Mozilla/5.0 (Windows NT 10.0; Win64; x64; rv:59.0) Gecko/20100101 Firefox/59.0 - USERNAME : safari
SYSTEM LOG -- DATE :2018-03-17 19:48:20 - CLASS : data - FUNCTION : kelurahan - URL : localhost:8080/kaderisasi/index.php/ajax/data/kelurahan - USER ID : 340 - USER IP : ::1 - USER ROLE : 1 - BROWSER : Mozilla/5.0 (Windows NT 10.0; Win64; x64; rv:59.0) Gecko/20100101 Firefox/59.0 - USERNAME : safari
SYSTEM LOG -- DATE :2018-03-17 19:48:20 - CLASS : data - FUNCTION : check_login - URL : localhost:8080/kaderisasi/index.php/ajax/data/check_login - USER ID : 340 - USER IP : ::1 - USER ROLE : 1 - BROWSER : Mozilla/5.0 (Windows NT 10.0; Win64; x64; rv:59.0) Gecko/20100101 Firefox/59.0 - USERNAME : safari
SYSTEM LOG -- DATE :2018-03-17 19:48:31 - CLASS : master_anggota - FUNCTION : save_crop - URL : localhost:8080/kaderisasi/index.php/master/master_anggota/save_crop - USER ID : 340 - USER IP : ::1 - USER ROLE : 1 - BROWSER : Mozilla/5.0 (Windows NT 10.0; Win64; x64; rv:59.0) Gecko/20100101 Firefox/59.0 - USERNAME : safari
SYSTEM LOG -- DATE :2018-03-17 19:48:31 - CLASS : master_anggota - FUNCTION : Lampiran%20Surat%20Keterangan - URL : localhost:8080/kaderisasi/index.php/master/master_anggota/Lampiran%20Surat%20Keterangan - USER ID : 340 - USER IP : ::1 - USER ROLE : 1 - BROWSER : Mozilla/5.0 (Windows NT 10.0; Win64; x64; rv:59.0) Gecko/20100101 Firefox/59.0 - USERNAME : safari
SYSTEM LOG -- DATE :2018-03-17 19:48:32 - CLASS : data - FUNCTION : kabupaten - URL : localhost:8080/kaderisasi/index.php/ajax/data/kabupaten - USER ID : 340 - USER IP : ::1 - USER ROLE : 1 - BROWSER : Mozilla/5.0 (Windows NT 10.0; Win64; x64; rv:59.0) Gecko/20100101 Firefox/59.0 - USERNAME : safari
SYSTEM LOG -- DATE :2018-03-17 19:48:32 - CLASS : data - FUNCTION : kecamatan - URL : localhost:8080/kaderisasi/index.php/ajax/data/kecamatan - USER ID : 340 - USER IP : ::1 - USER ROLE : 1 - BROWSER : Mozilla/5.0 (Windows NT 10.0; Win64; x64; rv:59.0) Gecko/20100101 Firefox/59.0 - USERNAME : safari
SYSTEM LOG -- DATE :2018-03-17 19:48:32 - CLASS : data - FUNCTION : kelurahan - URL : localhost:8080/kaderisasi/index.php/ajax/data/kelurahan - USER ID : 340 - USER IP : ::1 - USER ROLE : 1 - BROWSER : Mozilla/5.0 (Windows NT 10.0; Win64; x64; rv:59.0) Gecko/20100101 Firefox/59.0 - USERNAME : safari
SYSTEM LOG -- DATE :2018-03-17 19:48:32 - CLASS : data - FUNCTION : check_login - URL : localhost:8080/kaderisasi/index.php/ajax/data/check_login - USER ID : 340 - USER IP : ::1 - USER ROLE : 1 - BROWSER : Mozilla/5.0 (Windows NT 10.0; Win64; x64; rv:59.0) Gecko/20100101 Firefox/59.0 - USERNAME : safari
