SYSTEM LOG -- DATE :2019-01-03 15:13:13 - CLASS : me - FUNCTION : index - URL : localhost:8080/cv-atp/ - USER ID : 340 - USER IP : ::1 - USER ROLE : 1 - BROWSER : Mozilla/5.0 (Windows NT 10.0; Win64; x64) AppleWebKit/537.36 (KHTML, like Gecko) Chrome/71.0.3578.98 Safari/537.36 - USERNAME : safari
SYSTEM LOG -- DATE :2019-01-03 15:13:22 - CLASS : armada - FUNCTION : index - URL : localhost:8080/cv-atp/index.php/master/armada - USER ID : 340 - USER IP : ::1 - USER ROLE : 1 - BROWSER : Mozilla/5.0 (Windows NT 10.0; Win64; x64) AppleWebKit/537.36 (KHTML, like Gecko) Chrome/71.0.3578.98 Safari/537.36 - USERNAME : safari
SYSTEM LOG -- DATE :2019-01-03 15:13:23 - CLASS : armada - FUNCTION : ajax_list - URL : localhost:8080/cv-atp/index.php/master/armada/ajax_list - USER ID : 340 - USER IP : ::1 - USER ROLE : 1 - BROWSER : Mozilla/5.0 (Windows NT 10.0; Win64; x64) AppleWebKit/537.36 (KHTML, like Gecko) Chrome/71.0.3578.98 Safari/537.36 - USERNAME : safari
SYSTEM LOG -- DATE :2019-01-03 15:13:36 - CLASS : tujuan - FUNCTION : index - URL : localhost:8080/cv-atp/index.php/master/tujuan - USER ID : 340 - USER IP : ::1 - USER ROLE : 1 - BROWSER : Mozilla/5.0 (Windows NT 10.0; Win64; x64) AppleWebKit/537.36 (KHTML, like Gecko) Chrome/71.0.3578.98 Safari/537.36 - USERNAME : safari
SYSTEM LOG -- DATE :2019-01-03 15:13:37 - CLASS : tujuan - FUNCTION : ajax_list - URL : localhost:8080/cv-atp/index.php/master/tujuan/ajax_list - USER ID : 340 - USER IP : ::1 - USER ROLE : 1 - BROWSER : Mozilla/5.0 (Windows NT 10.0; Win64; x64) AppleWebKit/537.36 (KHTML, like Gecko) Chrome/71.0.3578.98 Safari/537.36 - USERNAME : safari
SYSTEM LOG -- DATE :2019-01-03 15:14:17 - CLASS : tujuan - FUNCTION : edit - URL : localhost:8080/cv-atp/index.php/master/tujuan/edit/?_id=KAxQqXx2Un1eyArbvXUM1%2F0EynZh63O%2FzkOikdzajn%2BPlXAnUOE%2BUki02ym51rqz%2B%2FToTgb5H%2FcQnd2mKbmPHQ%3D%3D - USER ID : 340 - USER IP : ::1 - USER ROLE : 1 - BROWSER : Mozilla/5.0 (Windows NT 10.0; Win64; x64) AppleWebKit/537.36 (KHTML, like Gecko) Chrome/71.0.3578.98 Safari/537.36 - USERNAME : safari
SYSTEM LOG -- DATE :2019-01-03 15:14:22 - CLASS : tujuan - FUNCTION : save - URL : localhost:8080/cv-atp/index.php/master/tujuan/save - USER ID : 340 - USER IP : ::1 - USER ROLE : 1 - BROWSER : Mozilla/5.0 (Windows NT 10.0; Win64; x64) AppleWebKit/537.36 (KHTML, like Gecko) Chrome/71.0.3578.98 Safari/537.36 - USERNAME : safari
SYSTEM LOG -- DATE :2019-01-03 15:14:22 - CLASS : tujuan - FUNCTION : index - URL : localhost:8080/cv-atp/index.php/master/tujuan?msg=Success&type_msg=success - USER ID : 340 - USER IP : ::1 - USER ROLE : 1 - BROWSER : Mozilla/5.0 (Windows NT 10.0; Win64; x64) AppleWebKit/537.36 (KHTML, like Gecko) Chrome/71.0.3578.98 Safari/537.36 - USERNAME : safari
SYSTEM LOG -- DATE :2019-01-03 15:14:22 - CLASS : tujuan - FUNCTION : ajax_list - URL : localhost:8080/cv-atp/index.php/master/tujuan/ajax_list - USER ID : 340 - USER IP : ::1 - USER ROLE : 1 - BROWSER : Mozilla/5.0 (Windows NT 10.0; Win64; x64) AppleWebKit/537.36 (KHTML, like Gecko) Chrome/71.0.3578.98 Safari/537.36 - USERNAME : safari
SYSTEM LOG -- DATE :2019-01-03 15:14:24 - CLASS : tujuan - FUNCTION : edit - URL : localhost:8080/cv-atp/index.php/master/tujuan/edit/?_id=7ixMnjB0KtHUfsFYpR2Cqeo4wyTEpo81%2B95kGAMQWMLv3B1i9MUZ0UTcFkyy28glrfH%2BnI%2FZ23Ypto6WDchbrA%3D%3D - USER ID : 340 - USER IP : ::1 - USER ROLE : 1 - BROWSER : Mozilla/5.0 (Windows NT 10.0; Win64; x64) AppleWebKit/537.36 (KHTML, like Gecko) Chrome/71.0.3578.98 Safari/537.36 - USERNAME : safari
SYSTEM LOG -- DATE :2019-01-03 15:14:28 - CLASS : tujuan - FUNCTION : save - URL : localhost:8080/cv-atp/index.php/master/tujuan/save - USER ID : 340 - USER IP : ::1 - USER ROLE : 1 - BROWSER : Mozilla/5.0 (Windows NT 10.0; Win64; x64) AppleWebKit/537.36 (KHTML, like Gecko) Chrome/71.0.3578.98 Safari/537.36 - USERNAME : safari
SYSTEM LOG -- DATE :2019-01-03 15:14:28 - CLASS : tujuan - FUNCTION : index - URL : localhost:8080/cv-atp/index.php/master/tujuan?msg=Success&type_msg=success - USER ID : 340 - USER IP : ::1 - USER ROLE : 1 - BROWSER : Mozilla/5.0 (Windows NT 10.0; Win64; x64) AppleWebKit/537.36 (KHTML, like Gecko) Chrome/71.0.3578.98 Safari/537.36 - USERNAME : safari
SYSTEM LOG -- DATE :2019-01-03 15:14:28 - CLASS : tujuan - FUNCTION : ajax_list - URL : localhost:8080/cv-atp/index.php/master/tujuan/ajax_list - USER ID : 340 - USER IP : ::1 - USER ROLE : 1 - BROWSER : Mozilla/5.0 (Windows NT 10.0; Win64; x64) AppleWebKit/537.36 (KHTML, like Gecko) Chrome/71.0.3578.98 Safari/537.36 - USERNAME : safari
SYSTEM LOG -- DATE :2019-01-03 15:23:14 - CLASS : jenis_order - FUNCTION : index - URL : localhost:8080/cv-atp/index.php/master/jenis_order - USER ID : 340 - USER IP : ::1 - USER ROLE : 1 - BROWSER : Mozilla/5.0 (Windows NT 10.0; Win64; x64) AppleWebKit/537.36 (KHTML, like Gecko) Chrome/71.0.3578.98 Safari/537.36 - USERNAME : safari
SYSTEM LOG -- DATE :2019-01-03 15:24:15 - CLASS : me - FUNCTION : index - URL : localhost:8080/cv-atp/index.php/meme/me - USER ID : 340 - USER IP : ::1 - USER ROLE : 1 - BROWSER : Mozilla/5.0 (Windows NT 10.0; Win64; x64; rv:64.0) Gecko/20100101 Firefox/64.0 - USERNAME : safari
SYSTEM LOG -- DATE :2019-01-03 15:24:20 - CLASS : jenis_order - FUNCTION : index - URL : localhost:8080/cv-atp/index.php/master/jenis_order - USER ID : 340 - USER IP : ::1 - USER ROLE : 1 - BROWSER : Mozilla/5.0 (Windows NT 10.0; Win64; x64; rv:64.0) Gecko/20100101 Firefox/64.0 - USERNAME : safari
SYSTEM LOG -- DATE :2019-01-03 15:24:22 - CLASS : jenis_order - FUNCTION : ajax_list - URL : localhost:8080/cv-atp/index.php/master/jenis_order/ajax_list - USER ID : 340 - USER IP : ::1 - USER ROLE : 1 - BROWSER : Mozilla/5.0 (Windows NT 10.0; Win64; x64; rv:64.0) Gecko/20100101 Firefox/64.0 - USERNAME : safari
SYSTEM LOG -- DATE :2019-01-03 15:24:28 - CLASS : jenis_order - FUNCTION : add - URL : localhost:8080/cv-atp/index.php/master/jenis_order/add - USER ID : 340 - USER IP : ::1 - USER ROLE : 1 - BROWSER : Mozilla/5.0 (Windows NT 10.0; Win64; x64; rv:64.0) Gecko/20100101 Firefox/64.0 - USERNAME : safari
SYSTEM LOG -- DATE :2019-01-03 15:29:44 - CLASS : jenis_order - FUNCTION : save - URL : localhost:8080/cv-atp/index.php/master/jenis_order/save - USER ID : 340 - USER IP : ::1 - USER ROLE : 1 - BROWSER : Mozilla/5.0 (Windows NT 10.0; Win64; x64; rv:64.0) Gecko/20100101 Firefox/64.0 - USERNAME : safari
SYSTEM LOG -- DATE :2019-01-03 15:29:44 - CLASS : jenis_order - FUNCTION : index - URL : localhost:8080/cv-atp/index.php/master/jenis_order?msg=Success&type_msg=success - USER ID : 340 - USER IP : ::1 - USER ROLE : 1 - BROWSER : Mozilla/5.0 (Windows NT 10.0; Win64; x64; rv:64.0) Gecko/20100101 Firefox/64.0 - USERNAME : safari
SYSTEM LOG -- DATE :2019-01-03 15:29:45 - CLASS : jenis_order - FUNCTION : ajax_list - URL : localhost:8080/cv-atp/index.php/master/jenis_order/ajax_list - USER ID : 340 - USER IP : ::1 - USER ROLE : 1 - BROWSER : Mozilla/5.0 (Windows NT 10.0; Win64; x64; rv:64.0) Gecko/20100101 Firefox/64.0 - USERNAME : safari
SYSTEM LOG -- DATE :2019-01-03 15:29:58 - CLASS : jenis_order - FUNCTION : edit - URL : localhost:8080/cv-atp/index.php/master/jenis_order/edit/?_id=g9FaKsoZVwVwW1v6YQb3HgSkoXSaqoQDCzA%2FrOwHBQFNrDrPKKrapbgJTUO6Z9zVlvv8ysPZ16gPpKMx2pjaFw%3D%3D - USER ID : 340 - USER IP : ::1 - USER ROLE : 1 - BROWSER : Mozilla/5.0 (Windows NT 10.0; Win64; x64; rv:64.0) Gecko/20100101 Firefox/64.0 - USERNAME : safari
SYSTEM LOG -- DATE :2019-01-03 15:30:07 - CLASS : jenis_order - FUNCTION : save - URL : localhost:8080/cv-atp/index.php/master/jenis_order/save - USER ID : 340 - USER IP : ::1 - USER ROLE : 1 - BROWSER : Mozilla/5.0 (Windows NT 10.0; Win64; x64; rv:64.0) Gecko/20100101 Firefox/64.0 - USERNAME : safari
SYSTEM LOG -- DATE :2019-01-03 15:30:08 - CLASS : jenis_order - FUNCTION : index - URL : localhost:8080/cv-atp/index.php/master/jenis_order?msg=Success&type_msg=success - USER ID : 340 - USER IP : ::1 - USER ROLE : 1 - BROWSER : Mozilla/5.0 (Windows NT 10.0; Win64; x64; rv:64.0) Gecko/20100101 Firefox/64.0 - USERNAME : safari
SYSTEM LOG -- DATE :2019-01-03 15:30:08 - CLASS : jenis_order - FUNCTION : ajax_list - URL : localhost:8080/cv-atp/index.php/master/jenis_order/ajax_list - USER ID : 340 - USER IP : ::1 - USER ROLE : 1 - BROWSER : Mozilla/5.0 (Windows NT 10.0; Win64; x64; rv:64.0) Gecko/20100101 Firefox/64.0 - USERNAME : safari
SYSTEM LOG -- DATE :2019-01-03 15:30:12 - CLASS : jenis_order - FUNCTION : add - URL : localhost:8080/cv-atp/index.php/master/jenis_order/add - USER ID : 340 - USER IP : ::1 - USER ROLE : 1 - BROWSER : Mozilla/5.0 (Windows NT 10.0; Win64; x64; rv:64.0) Gecko/20100101 Firefox/64.0 - USERNAME : safari
SYSTEM LOG -- DATE :2019-01-03 15:30:21 - CLASS : jenis_order - FUNCTION : save - URL : localhost:8080/cv-atp/index.php/master/jenis_order/save - USER ID : 340 - USER IP : ::1 - USER ROLE : 1 - BROWSER : Mozilla/5.0 (Windows NT 10.0; Win64; x64; rv:64.0) Gecko/20100101 Firefox/64.0 - USERNAME : safari
SYSTEM LOG -- DATE :2019-01-03 15:30:21 - CLASS : jenis_order - FUNCTION : index - URL : localhost:8080/cv-atp/index.php/master/jenis_order?msg=Success&type_msg=success - USER ID : 340 - USER IP : ::1 - USER ROLE : 1 - BROWSER : Mozilla/5.0 (Windows NT 10.0; Win64; x64; rv:64.0) Gecko/20100101 Firefox/64.0 - USERNAME : safari
SYSTEM LOG -- DATE :2019-01-03 15:30:22 - CLASS : jenis_order - FUNCTION : ajax_list - URL : localhost:8080/cv-atp/index.php/master/jenis_order/ajax_list - USER ID : 340 - USER IP : ::1 - USER ROLE : 1 - BROWSER : Mozilla/5.0 (Windows NT 10.0; Win64; x64; rv:64.0) Gecko/20100101 Firefox/64.0 - USERNAME : safari
SYSTEM LOG -- DATE :2019-01-03 15:30:26 - CLASS : jenis_order - FUNCTION : add - URL : localhost:8080/cv-atp/index.php/master/jenis_order/add - USER ID : 340 - USER IP : ::1 - USER ROLE : 1 - BROWSER : Mozilla/5.0 (Windows NT 10.0; Win64; x64; rv:64.0) Gecko/20100101 Firefox/64.0 - USERNAME : safari
SYSTEM LOG -- DATE :2019-01-03 15:30:34 - CLASS : jenis_order - FUNCTION : save - URL : localhost:8080/cv-atp/index.php/master/jenis_order/save - USER ID : 340 - USER IP : ::1 - USER ROLE : 1 - BROWSER : Mozilla/5.0 (Windows NT 10.0; Win64; x64; rv:64.0) Gecko/20100101 Firefox/64.0 - USERNAME : safari
SYSTEM LOG -- DATE :2019-01-03 15:30:34 - CLASS : jenis_order - FUNCTION : index - URL : localhost:8080/cv-atp/index.php/master/jenis_order?msg=Success&type_msg=success - USER ID : 340 - USER IP : ::1 - USER ROLE : 1 - BROWSER : Mozilla/5.0 (Windows NT 10.0; Win64; x64; rv:64.0) Gecko/20100101 Firefox/64.0 - USERNAME : safari
SYSTEM LOG -- DATE :2019-01-03 15:30:36 - CLASS : jenis_order - FUNCTION : ajax_list - URL : localhost:8080/cv-atp/index.php/master/jenis_order/ajax_list - USER ID : 340 - USER IP : ::1 - USER ROLE : 1 - BROWSER : Mozilla/5.0 (Windows NT 10.0; Win64; x64; rv:64.0) Gecko/20100101 Firefox/64.0 - USERNAME : safari
SYSTEM LOG -- DATE :2019-01-03 15:30:38 - CLASS : jenis_order - FUNCTION : add - URL : localhost:8080/cv-atp/index.php/master/jenis_order/add - USER ID : 340 - USER IP : ::1 - USER ROLE : 1 - BROWSER : Mozilla/5.0 (Windows NT 10.0; Win64; x64; rv:64.0) Gecko/20100101 Firefox/64.0 - USERNAME : safari
SYSTEM LOG -- DATE :2019-01-03 15:30:56 - CLASS : jenis_order - FUNCTION : save - URL : localhost:8080/cv-atp/index.php/master/jenis_order/save - USER ID : 340 - USER IP : ::1 - USER ROLE : 1 - BROWSER : Mozilla/5.0 (Windows NT 10.0; Win64; x64; rv:64.0) Gecko/20100101 Firefox/64.0 - USERNAME : safari
SYSTEM LOG -- DATE :2019-01-03 15:30:56 - CLASS : jenis_order - FUNCTION : index - URL : localhost:8080/cv-atp/index.php/master/jenis_order?msg=Success&type_msg=success - USER ID : 340 - USER IP : ::1 - USER ROLE : 1 - BROWSER : Mozilla/5.0 (Windows NT 10.0; Win64; x64; rv:64.0) Gecko/20100101 Firefox/64.0 - USERNAME : safari
SYSTEM LOG -- DATE :2019-01-03 15:30:58 - CLASS : jenis_order - FUNCTION : ajax_list - URL : localhost:8080/cv-atp/index.php/master/jenis_order/ajax_list - USER ID : 340 - USER IP : ::1 - USER ROLE : 1 - BROWSER : Mozilla/5.0 (Windows NT 10.0; Win64; x64; rv:64.0) Gecko/20100101 Firefox/64.0 - USERNAME : safari
SYSTEM LOG -- DATE :2019-01-03 15:31:33 - CLASS : jenis_order - FUNCTION : delete - URL : localhost:8080/cv-atp/index.php/master/jenis_order/delete/?_id=EOnrb3Xor60hM9OIZRlK9AIE59OfSTkOf%2BA8Zpl7hUt79iCe%2FaDWljRA18VycNi1CYYA4pQIUZ2lbSbbEnZA5Q%3D%3D - USER ID : 340 - USER IP : ::1 - USER ROLE : 1 - BROWSER : Mozilla/5.0 (Windows NT 10.0; Win64; x64; rv:64.0) Gecko/20100101 Firefox/64.0 - USERNAME : safari
SYSTEM LOG -- DATE :2019-01-03 15:31:33 - CLASS : jenis_order - FUNCTION : index - URL : localhost:8080/cv-atp/index.php/master/jenis_order?msg=Delete%20data%20KTA%20succes&type_msg=success - USER ID : 340 - USER IP : ::1 - USER ROLE : 1 - BROWSER : Mozilla/5.0 (Windows NT 10.0; Win64; x64; rv:64.0) Gecko/20100101 Firefox/64.0 - USERNAME : safari
SYSTEM LOG -- DATE :2019-01-03 15:31:34 - CLASS : jenis_order - FUNCTION : ajax_list - URL : localhost:8080/cv-atp/index.php/master/jenis_order/ajax_list - USER ID : 340 - USER IP : ::1 - USER ROLE : 1 - BROWSER : Mozilla/5.0 (Windows NT 10.0; Win64; x64; rv:64.0) Gecko/20100101 Firefox/64.0 - USERNAME : safari
SYSTEM LOG -- DATE :2019-01-03 15:31:37 - CLASS : jenis_order - FUNCTION : add - URL : localhost:8080/cv-atp/index.php/master/jenis_order/add - USER ID : 340 - USER IP : ::1 - USER ROLE : 1 - BROWSER : Mozilla/5.0 (Windows NT 10.0; Win64; x64; rv:64.0) Gecko/20100101 Firefox/64.0 - USERNAME : safari
SYSTEM LOG -- DATE :2019-01-03 15:31:44 - CLASS : jenis_order - FUNCTION : save - URL : localhost:8080/cv-atp/index.php/master/jenis_order/save - USER ID : 340 - USER IP : ::1 - USER ROLE : 1 - BROWSER : Mozilla/5.0 (Windows NT 10.0; Win64; x64; rv:64.0) Gecko/20100101 Firefox/64.0 - USERNAME : safari
SYSTEM LOG -- DATE :2019-01-03 15:31:44 - CLASS : jenis_order - FUNCTION : index - URL : localhost:8080/cv-atp/index.php/master/jenis_order?msg=Success&type_msg=success - USER ID : 340 - USER IP : ::1 - USER ROLE : 1 - BROWSER : Mozilla/5.0 (Windows NT 10.0; Win64; x64; rv:64.0) Gecko/20100101 Firefox/64.0 - USERNAME : safari
SYSTEM LOG -- DATE :2019-01-03 15:31:45 - CLASS : jenis_order - FUNCTION : ajax_list - URL : localhost:8080/cv-atp/index.php/master/jenis_order/ajax_list - USER ID : 340 - USER IP : ::1 - USER ROLE : 1 - BROWSER : Mozilla/5.0 (Windows NT 10.0; Win64; x64; rv:64.0) Gecko/20100101 Firefox/64.0 - USERNAME : safari
SYSTEM LOG -- DATE :2019-01-03 15:31:50 - CLASS : jenis_order - FUNCTION : edit - URL : localhost:8080/cv-atp/index.php/master/jenis_order/edit/?_id=Uuz9nA1dJzjYOIjen%2Byxo8YDGIqS8uia6NLAtF1y02qYt0VWjJ8PODFeInzMxswewJiKYeLutUJOIEVBbmHjdA%3D%3D - USER ID : 340 - USER IP : ::1 - USER ROLE : 1 - BROWSER : Mozilla/5.0 (Windows NT 10.0; Win64; x64; rv:64.0) Gecko/20100101 Firefox/64.0 - USERNAME : safari
SYSTEM LOG -- DATE :2019-01-03 15:31:54 - CLASS : jenis_order - FUNCTION : save - URL : localhost:8080/cv-atp/index.php/master/jenis_order/save - USER ID : 340 - USER IP : ::1 - USER ROLE : 1 - BROWSER : Mozilla/5.0 (Windows NT 10.0; Win64; x64; rv:64.0) Gecko/20100101 Firefox/64.0 - USERNAME : safari
SYSTEM LOG -- DATE :2019-01-03 15:31:54 - CLASS : jenis_order - FUNCTION : index - URL : localhost:8080/cv-atp/index.php/master/jenis_order?msg=Success&type_msg=success - USER ID : 340 - USER IP : ::1 - USER ROLE : 1 - BROWSER : Mozilla/5.0 (Windows NT 10.0; Win64; x64; rv:64.0) Gecko/20100101 Firefox/64.0 - USERNAME : safari
SYSTEM LOG -- DATE :2019-01-03 15:31:55 - CLASS : jenis_order - FUNCTION : ajax_list - URL : localhost:8080/cv-atp/index.php/master/jenis_order/ajax_list - USER ID : 340 - USER IP : ::1 - USER ROLE : 1 - BROWSER : Mozilla/5.0 (Windows NT 10.0; Win64; x64; rv:64.0) Gecko/20100101 Firefox/64.0 - USERNAME : safari
SYSTEM LOG -- DATE :2019-01-03 15:32:40 - CLASS : tujuan - FUNCTION : index - URL : localhost:8080/cv-atp/index.php/master/tujuan - USER ID : 340 - USER IP : ::1 - USER ROLE : 1 - BROWSER : Mozilla/5.0 (Windows NT 10.0; Win64; x64; rv:64.0) Gecko/20100101 Firefox/64.0 - USERNAME : safari
SYSTEM LOG -- DATE :2019-01-03 15:32:41 - CLASS : tujuan - FUNCTION : ajax_list - URL : localhost:8080/cv-atp/index.php/master/tujuan/ajax_list - USER ID : 340 - USER IP : ::1 - USER ROLE : 1 - BROWSER : Mozilla/5.0 (Windows NT 10.0; Win64; x64; rv:64.0) Gecko/20100101 Firefox/64.0 - USERNAME : safari
SYSTEM LOG -- DATE :2019-01-03 15:35:21 - CLASS : customer - FUNCTION : index - URL : localhost:8080/cv-atp/index.php/master/customer - USER ID : 340 - USER IP : ::1 - USER ROLE : 1 - BROWSER : Mozilla/5.0 (Windows NT 10.0; Win64; x64; rv:64.0) Gecko/20100101 Firefox/64.0 - USERNAME : safari
SYSTEM LOG -- DATE :2019-01-03 15:35:49 - CLASS : customer - FUNCTION : ajax_list - URL : localhost:8080/cv-atp/index.php/master/customer/ajax_list - USER ID : 340 - USER IP : ::1 - USER ROLE : 1 - BROWSER : Mozilla/5.0 (Windows NT 10.0; Win64; x64; rv:64.0) Gecko/20100101 Firefox/64.0 - USERNAME : safari
SYSTEM LOG -- DATE :2019-01-03 15:35:53 - CLASS : jenis_order - FUNCTION : index - URL : localhost:8080/cv-atp/index.php/master/jenis_order - USER ID : 340 - USER IP : ::1 - USER ROLE : 1 - BROWSER : Mozilla/5.0 (Windows NT 10.0; Win64; x64; rv:64.0) Gecko/20100101 Firefox/64.0 - USERNAME : safari
SYSTEM LOG -- DATE :2019-01-03 15:35:53 - CLASS : jenis_order - FUNCTION : ajax_list - URL : localhost:8080/cv-atp/index.php/master/jenis_order/ajax_list - USER ID : 340 - USER IP : ::1 - USER ROLE : 1 - BROWSER : Mozilla/5.0 (Windows NT 10.0; Win64; x64; rv:64.0) Gecko/20100101 Firefox/64.0 - USERNAME : safari
SYSTEM LOG -- DATE :2019-01-03 15:35:57 - CLASS : customer - FUNCTION : index - URL : localhost:8080/cv-atp/index.php/master/customer - USER ID : 340 - USER IP : ::1 - USER ROLE : 1 - BROWSER : Mozilla/5.0 (Windows NT 10.0; Win64; x64; rv:64.0) Gecko/20100101 Firefox/64.0 - USERNAME : safari
SYSTEM LOG -- DATE :2019-01-03 15:35:58 - CLASS : customer - FUNCTION : ajax_list - URL : localhost:8080/cv-atp/index.php/master/customer/ajax_list - USER ID : 340 - USER IP : ::1 - USER ROLE : 1 - BROWSER : Mozilla/5.0 (Windows NT 10.0; Win64; x64; rv:64.0) Gecko/20100101 Firefox/64.0 - USERNAME : safari
SYSTEM LOG -- DATE :2019-01-03 15:36:50 - CLASS : customer - FUNCTION : index - URL : localhost:8080/cv-atp/index.php/master/customer - USER ID : 340 - USER IP : ::1 - USER ROLE : 1 - BROWSER : Mozilla/5.0 (Windows NT 10.0; Win64; x64; rv:64.0) Gecko/20100101 Firefox/64.0 - USERNAME : safari
SYSTEM LOG -- DATE :2019-01-03 15:36:51 - CLASS : customer - FUNCTION : ajax_list - URL : localhost:8080/cv-atp/index.php/master/customer/ajax_list - USER ID : 340 - USER IP : ::1 - USER ROLE : 1 - BROWSER : Mozilla/5.0 (Windows NT 10.0; Win64; x64; rv:64.0) Gecko/20100101 Firefox/64.0 - USERNAME : safari
SYSTEM LOG -- DATE :2019-01-03 15:47:21 - CLASS : customer - FUNCTION : index - URL : localhost:8080/cv-atp/index.php/master/customer - USER ID : 340 - USER IP : ::1 - USER ROLE : 1 - BROWSER : Mozilla/5.0 (Windows NT 10.0; Win64; x64; rv:64.0) Gecko/20100101 Firefox/64.0 - USERNAME : safari
SYSTEM LOG -- DATE :2019-01-03 15:47:22 - CLASS : customer - FUNCTION : ajax_list - URL : localhost:8080/cv-atp/index.php/master/customer/ajax_list - USER ID : 340 - USER IP : ::1 - USER ROLE : 1 - BROWSER : Mozilla/5.0 (Windows NT 10.0; Win64; x64; rv:64.0) Gecko/20100101 Firefox/64.0 - USERNAME : safari
SYSTEM LOG -- DATE :2019-01-03 15:50:41 - CLASS : customer - FUNCTION : index - URL : localhost:8080/cv-atp/index.php/master/customer - USER ID : 340 - USER IP : ::1 - USER ROLE : 1 - BROWSER : Mozilla/5.0 (Windows NT 10.0; Win64; x64; rv:64.0) Gecko/20100101 Firefox/64.0 - USERNAME : safari
SYSTEM LOG -- DATE :2019-01-03 15:50:42 - CLASS : customer - FUNCTION : ajax_list - URL : localhost:8080/cv-atp/index.php/master/customer/ajax_list - USER ID : 340 - USER IP : ::1 - USER ROLE : 1 - BROWSER : Mozilla/5.0 (Windows NT 10.0; Win64; x64; rv:64.0) Gecko/20100101 Firefox/64.0 - USERNAME : safari
SYSTEM LOG -- DATE :2019-01-03 15:52:46 - CLASS : customer - FUNCTION : index - URL : localhost:8080/cv-atp/index.php/master/customer - USER ID : 340 - USER IP : ::1 - USER ROLE : 1 - BROWSER : Mozilla/5.0 (Windows NT 10.0; Win64; x64; rv:64.0) Gecko/20100101 Firefox/64.0 - USERNAME : safari
SYSTEM LOG -- DATE :2019-01-03 15:52:46 - CLASS : customer - FUNCTION : ajax_list - URL : localhost:8080/cv-atp/index.php/master/customer/ajax_list - USER ID : 340 - USER IP : ::1 - USER ROLE : 1 - BROWSER : Mozilla/5.0 (Windows NT 10.0; Win64; x64; rv:64.0) Gecko/20100101 Firefox/64.0 - USERNAME : safari
SYSTEM LOG -- DATE :2019-01-03 15:52:52 - CLASS : customer - FUNCTION : index - URL : localhost:8080/cv-atp/index.php/master/customer - USER ID : 340 - USER IP : ::1 - USER ROLE : 1 - BROWSER : Mozilla/5.0 (Windows NT 10.0; Win64; x64; rv:64.0) Gecko/20100101 Firefox/64.0 - USERNAME : safari
SYSTEM LOG -- DATE :2019-01-03 15:52:53 - CLASS : customer - FUNCTION : ajax_list - URL : localhost:8080/cv-atp/index.php/master/customer/ajax_list - USER ID : 340 - USER IP : ::1 - USER ROLE : 1 - BROWSER : Mozilla/5.0 (Windows NT 10.0; Win64; x64; rv:64.0) Gecko/20100101 Firefox/64.0 - USERNAME : safari
SYSTEM LOG -- DATE :2019-01-03 15:53:49 - CLASS : customer - FUNCTION : index - URL : localhost:8080/cv-atp/index.php/master/customer - USER ID : 340 - USER IP : ::1 - USER ROLE : 1 - BROWSER : Mozilla/5.0 (Windows NT 10.0; Win64; x64; rv:64.0) Gecko/20100101 Firefox/64.0 - USERNAME : safari
SYSTEM LOG -- DATE :2019-01-03 15:53:50 - CLASS : customer - FUNCTION : ajax_list - URL : localhost:8080/cv-atp/index.php/master/customer/ajax_list - USER ID : 340 - USER IP : ::1 - USER ROLE : 1 - BROWSER : Mozilla/5.0 (Windows NT 10.0; Win64; x64; rv:64.0) Gecko/20100101 Firefox/64.0 - USERNAME : safari
SYSTEM LOG -- DATE :2019-01-03 15:53:56 - CLASS : customer - FUNCTION : add - URL : localhost:8080/cv-atp/index.php/master/customer/add - USER ID : 340 - USER IP : ::1 - USER ROLE : 1 - BROWSER : Mozilla/5.0 (Windows NT 10.0; Win64; x64; rv:64.0) Gecko/20100101 Firefox/64.0 - USERNAME : safari
SYSTEM LOG -- DATE :2019-01-03 15:57:57 - CLASS : customer - FUNCTION : index - URL : localhost:8080/cv-atp/index.php/master/customer/index - USER ID : 340 - USER IP : ::1 - USER ROLE : 1 - BROWSER : Mozilla/5.0 (Windows NT 10.0; Win64; x64; rv:64.0) Gecko/20100101 Firefox/64.0 - USERNAME : safari
SYSTEM LOG -- DATE :2019-01-03 15:57:57 - CLASS : customer - FUNCTION : ajax_list - URL : localhost:8080/cv-atp/index.php/master/customer/ajax_list - USER ID : 340 - USER IP : ::1 - USER ROLE : 1 - BROWSER : Mozilla/5.0 (Windows NT 10.0; Win64; x64; rv:64.0) Gecko/20100101 Firefox/64.0 - USERNAME : safari
SYSTEM LOG -- DATE :2019-01-03 15:59:35 - CLASS : customer - FUNCTION : index - URL : localhost:8080/cv-atp/index.php/master/customer/index - USER ID : 340 - USER IP : ::1 - USER ROLE : 1 - BROWSER : Mozilla/5.0 (Windows NT 10.0; Win64; x64; rv:64.0) Gecko/20100101 Firefox/64.0 - USERNAME : safari
SYSTEM LOG -- DATE :2019-01-03 15:59:35 - CLASS : customer - FUNCTION : ajax_list - URL : localhost:8080/cv-atp/index.php/master/customer/ajax_list - USER ID : 340 - USER IP : ::1 - USER ROLE : 1 - BROWSER : Mozilla/5.0 (Windows NT 10.0; Win64; x64; rv:64.0) Gecko/20100101 Firefox/64.0 - USERNAME : safari
SYSTEM LOG -- DATE :2019-01-03 15:59:37 - CLASS : customer - FUNCTION : add - URL : localhost:8080/cv-atp/index.php/master/customer/add - USER ID : 340 - USER IP : ::1 - USER ROLE : 1 - BROWSER : Mozilla/5.0 (Windows NT 10.0; Win64; x64; rv:64.0) Gecko/20100101 Firefox/64.0 - USERNAME : safari
SYSTEM LOG -- DATE :2019-01-03 16:00:01 - CLASS : customer - FUNCTION : save - URL : localhost:8080/cv-atp/index.php/master/customer/save - USER ID : 340 - USER IP : ::1 - USER ROLE : 1 - BROWSER : Mozilla/5.0 (Windows NT 10.0; Win64; x64; rv:64.0) Gecko/20100101 Firefox/64.0 - USERNAME : safari
SYSTEM LOG -- DATE :2019-01-03 16:00:11 - CLASS : customer - FUNCTION : index - URL : localhost:8080/cv-atp/index.php/master/customer?msg=Success&type_msg=success - USER ID : 340 - USER IP : ::1 - USER ROLE : 1 - BROWSER : Mozilla/5.0 (Windows NT 10.0; Win64; x64; rv:64.0) Gecko/20100101 Firefox/64.0 - USERNAME : safari
SYSTEM LOG -- DATE :2019-01-03 16:00:12 - CLASS : customer - FUNCTION : ajax_list - URL : localhost:8080/cv-atp/index.php/master/customer/ajax_list - USER ID : 340 - USER IP : ::1 - USER ROLE : 1 - BROWSER : Mozilla/5.0 (Windows NT 10.0; Win64; x64; rv:64.0) Gecko/20100101 Firefox/64.0 - USERNAME : safari
SYSTEM LOG -- DATE :2019-01-03 16:00:17 - CLASS : customer - FUNCTION : index - URL : localhost:8080/cv-atp/index.php/master/customer?msg=Success&type_msg=success - USER ID : 340 - USER IP : ::1 - USER ROLE : 1 - BROWSER : Mozilla/5.0 (Windows NT 10.0; Win64; x64; rv:64.0) Gecko/20100101 Firefox/64.0 - USERNAME : safari
SYSTEM LOG -- DATE :2019-01-03 16:00:18 - CLASS : customer - FUNCTION : ajax_list - URL : localhost:8080/cv-atp/index.php/master/customer/ajax_list - USER ID : 340 - USER IP : ::1 - USER ROLE : 1 - BROWSER : Mozilla/5.0 (Windows NT 10.0; Win64; x64; rv:64.0) Gecko/20100101 Firefox/64.0 - USERNAME : safari
SYSTEM LOG -- DATE :2019-01-03 16:01:03 - CLASS : customer - FUNCTION : index - URL : localhost:8080/cv-atp/index.php/master/customer?msg=Success&type_msg=success - USER ID : 340 - USER IP : ::1 - USER ROLE : 1 - BROWSER : Mozilla/5.0 (Windows NT 10.0; Win64; x64; rv:64.0) Gecko/20100101 Firefox/64.0 - USERNAME : safari
SYSTEM LOG -- DATE :2019-01-03 16:01:04 - CLASS : customer - FUNCTION : ajax_list - URL : localhost:8080/cv-atp/index.php/master/customer/ajax_list - USER ID : 340 - USER IP : ::1 - USER ROLE : 1 - BROWSER : Mozilla/5.0 (Windows NT 10.0; Win64; x64; rv:64.0) Gecko/20100101 Firefox/64.0 - USERNAME : safari
SYSTEM LOG -- DATE :2019-01-03 16:01:11 - CLASS : customer - FUNCTION : edit - URL : localhost:8080/cv-atp/index.php/master/customer/edit/?_id=is4qeWz3WMhCSbQvmlJu43q6mwbCGQfC%2FKfyFVtTLbP%2BhnN%2BAeO4VPuvrrZEIWVJFypKrj1F%2B7P4NEuirWpF4A%3D%3D - USER ID : 340 - USER IP : ::1 - USER ROLE : 1 - BROWSER : Mozilla/5.0 (Windows NT 10.0; Win64; x64; rv:64.0) Gecko/20100101 Firefox/64.0 - USERNAME : safari
SYSTEM LOG -- DATE :2019-01-03 16:01:15 - CLASS : customer - FUNCTION : save - URL : localhost:8080/cv-atp/index.php/master/customer/save - USER ID : 340 - USER IP : ::1 - USER ROLE : 1 - BROWSER : Mozilla/5.0 (Windows NT 10.0; Win64; x64; rv:64.0) Gecko/20100101 Firefox/64.0 - USERNAME : safari
SYSTEM LOG -- DATE :2019-01-03 16:01:15 - CLASS : customer - FUNCTION : index - URL : localhost:8080/cv-atp/index.php/master/customer?msg=Success&type_msg=success - USER ID : 340 - USER IP : ::1 - USER ROLE : 1 - BROWSER : Mozilla/5.0 (Windows NT 10.0; Win64; x64; rv:64.0) Gecko/20100101 Firefox/64.0 - USERNAME : safari
SYSTEM LOG -- DATE :2019-01-03 16:01:16 - CLASS : customer - FUNCTION : ajax_list - URL : localhost:8080/cv-atp/index.php/master/customer/ajax_list - USER ID : 340 - USER IP : ::1 - USER ROLE : 1 - BROWSER : Mozilla/5.0 (Windows NT 10.0; Win64; x64; rv:64.0) Gecko/20100101 Firefox/64.0 - USERNAME : safari
SYSTEM LOG -- DATE :2019-01-03 16:01:25 - CLASS : customer - FUNCTION : index - URL : localhost:8080/cv-atp/index.php/master/customer?msg=Success&type_msg=success - USER ID : 340 - USER IP : ::1 - USER ROLE : 1 - BROWSER : Mozilla/5.0 (Windows NT 10.0; Win64; x64; rv:64.0) Gecko/20100101 Firefox/64.0 - USERNAME : safari
SYSTEM LOG -- DATE :2019-01-03 16:01:25 - CLASS : customer - FUNCTION : ajax_list - URL : localhost:8080/cv-atp/index.php/master/customer/ajax_list - USER ID : 340 - USER IP : ::1 - USER ROLE : 1 - BROWSER : Mozilla/5.0 (Windows NT 10.0; Win64; x64; rv:64.0) Gecko/20100101 Firefox/64.0 - USERNAME : safari
SYSTEM LOG -- DATE :2019-01-03 16:01:28 - CLASS : customer - FUNCTION : edit - URL : localhost:8080/cv-atp/index.php/master/customer/edit/?_id=ASt649j2dN0GkqsI%2BPA0%2BpQYAjabAcJFdEORhTUrIwhjGaT%2Fvae5VdgIPhacNAZmzyoOpg29Tm9UDjLdffxEmg%3D%3D - USER ID : 340 - USER IP : ::1 - USER ROLE : 1 - BROWSER : Mozilla/5.0 (Windows NT 10.0; Win64; x64; rv:64.0) Gecko/20100101 Firefox/64.0 - USERNAME : safari
SYSTEM LOG -- DATE :2019-01-03 16:01:32 - CLASS : customer - FUNCTION : save - URL : localhost:8080/cv-atp/index.php/master/customer/save - USER ID : 340 - USER IP : ::1 - USER ROLE : 1 - BROWSER : Mozilla/5.0 (Windows NT 10.0; Win64; x64; rv:64.0) Gecko/20100101 Firefox/64.0 - USERNAME : safari
SYSTEM LOG -- DATE :2019-01-03 16:01:32 - CLASS : customer - FUNCTION : index - URL : localhost:8080/cv-atp/index.php/master/customer?msg=Success&type_msg=success - USER ID : 340 - USER IP : ::1 - USER ROLE : 1 - BROWSER : Mozilla/5.0 (Windows NT 10.0; Win64; x64; rv:64.0) Gecko/20100101 Firefox/64.0 - USERNAME : safari
SYSTEM LOG -- DATE :2019-01-03 16:01:32 - CLASS : customer - FUNCTION : ajax_list - URL : localhost:8080/cv-atp/index.php/master/customer/ajax_list - USER ID : 340 - USER IP : ::1 - USER ROLE : 1 - BROWSER : Mozilla/5.0 (Windows NT 10.0; Win64; x64; rv:64.0) Gecko/20100101 Firefox/64.0 - USERNAME : safari
SYSTEM LOG -- DATE :2019-01-03 16:01:45 - CLASS : me - FUNCTION : index - URL : localhost:8080/cv-atp/index.php/meme/me - USER ID : 340 - USER IP : ::1 - USER ROLE : 1 - BROWSER : Mozilla/5.0 (Windows NT 10.0; Win64; x64; rv:64.0) Gecko/20100101 Firefox/64.0 - USERNAME : safari
SYSTEM LOG -- DATE :2019-01-03 16:07:45 - CLASS : order - FUNCTION : index - URL : localhost:8080/cv-atp/index.php/order/order - USER ID : 340 - USER IP : ::1 - USER ROLE : 1 - BROWSER : Mozilla/5.0 (Windows NT 10.0; Win64; x64; rv:64.0) Gecko/20100101 Firefox/64.0 - USERNAME : safari
SYSTEM LOG -- DATE :2019-01-03 16:08:12 - CLASS : order - FUNCTION : ajax_list - URL : localhost:8080/cv-atp/index.php/order/order/ajax_list - USER ID : 340 - USER IP : ::1 - USER ROLE : 1 - BROWSER : Mozilla/5.0 (Windows NT 10.0; Win64; x64; rv:64.0) Gecko/20100101 Firefox/64.0 - USERNAME : safari
SYSTEM LOG -- DATE :2019-01-03 16:09:28 - CLASS : order - FUNCTION : add - URL : localhost:8080/cv-atp/index.php/order/order/add - USER ID : 340 - USER IP : ::1 - USER ROLE : 1 - BROWSER : Mozilla/5.0 (Windows NT 10.0; Win64; x64; rv:64.0) Gecko/20100101 Firefox/64.0 - USERNAME : safari
SYSTEM LOG -- DATE :2019-01-03 17:09:48 - CLASS : order - FUNCTION : index - URL : localhost:8080/cv-atp/index.php/order/order/index - USER ID : 340 - USER IP : ::1 - USER ROLE : 1 - BROWSER : Mozilla/5.0 (Windows NT 10.0; Win64; x64; rv:64.0) Gecko/20100101 Firefox/64.0 - USERNAME : safari
SYSTEM LOG -- DATE :2019-01-03 17:09:49 - CLASS : order - FUNCTION : ajax_list - URL : localhost:8080/cv-atp/index.php/order/order/ajax_list - USER ID : 340 - USER IP : ::1 - USER ROLE : 1 - BROWSER : Mozilla/5.0 (Windows NT 10.0; Win64; x64; rv:64.0) Gecko/20100101 Firefox/64.0 - USERNAME : safari
SYSTEM LOG -- DATE :2019-01-03 17:09:55 - CLASS : order - FUNCTION : add - URL : localhost:8080/cv-atp/index.php/order/order/add - USER ID : 340 - USER IP : ::1 - USER ROLE : 1 - BROWSER : Mozilla/5.0 (Windows NT 10.0; Win64; x64; rv:64.0) Gecko/20100101 Firefox/64.0 - USERNAME : safari
SYSTEM LOG -- DATE :2019-01-03 17:19:15 - CLASS : order - FUNCTION : save - URL : localhost:8080/cv-atp/index.php/order/order/save - USER ID : 340 - USER IP : ::1 - USER ROLE : 1 - BROWSER : Mozilla/5.0 (Windows NT 10.0; Win64; x64; rv:64.0) Gecko/20100101 Firefox/64.0 - USERNAME : safari
SYSTEM LOG -- DATE :2019-01-03 17:19:15 - CLASS : order - FUNCTION : index - URL : localhost:8080/cv-atp/index.php/order/order?msg=Success&type_msg=success - USER ID : 340 - USER IP : ::1 - USER ROLE : 1 - BROWSER : Mozilla/5.0 (Windows NT 10.0; Win64; x64; rv:64.0) Gecko/20100101 Firefox/64.0 - USERNAME : safari
SYSTEM LOG -- DATE :2019-01-03 17:19:15 - CLASS : order - FUNCTION : ajax_list - URL : localhost:8080/cv-atp/index.php/order/order/ajax_list - USER ID : 340 - USER IP : ::1 - USER ROLE : 1 - BROWSER : Mozilla/5.0 (Windows NT 10.0; Win64; x64; rv:64.0) Gecko/20100101 Firefox/64.0 - USERNAME : safari
SYSTEM LOG -- DATE :2019-01-03 17:21:12 - CLASS : order - FUNCTION : add - URL : localhost:8080/cv-atp/index.php/order/order/add - USER ID : 340 - USER IP : ::1 - USER ROLE : 1 - BROWSER : Mozilla/5.0 (Windows NT 10.0; Win64; x64; rv:64.0) Gecko/20100101 Firefox/64.0 - USERNAME : safari
SYSTEM LOG -- DATE :2019-01-03 17:21:42 - CLASS : order - FUNCTION : save - URL : localhost:8080/cv-atp/index.php/order/order/save - USER ID : 340 - USER IP : ::1 - USER ROLE : 1 - BROWSER : Mozilla/5.0 (Windows NT 10.0; Win64; x64; rv:64.0) Gecko/20100101 Firefox/64.0 - USERNAME : safari
SYSTEM LOG -- DATE :2019-01-03 17:23:57 - CLASS : order - FUNCTION : orderconfirm - URL : localhost:8080/cv-atp/index.php/order/orderconfirm/?_id=U2vFd%2Fqq6J3pa7kljZ5LpclLkp5haTuZu49j9e0NvsYGgrJwoJj97qucSsllzOpoxVA1pke2wsMUmLmDyIkyoQ%3D%3D - USER ID : 340 - USER IP : ::1 - USER ROLE : 1 - BROWSER : Mozilla/5.0 (Windows NT 10.0; Win64; x64; rv:64.0) Gecko/20100101 Firefox/64.0 - USERNAME : safari
SYSTEM LOG -- DATE :2019-01-03 17:24:06 - CLASS : order - FUNCTION : add - URL : localhost:8080/cv-atp/index.php/order/order/add - USER ID : 340 - USER IP : ::1 - USER ROLE : 1 - BROWSER : Mozilla/5.0 (Windows NT 10.0; Win64; x64; rv:64.0) Gecko/20100101 Firefox/64.0 - USERNAME : safari
SYSTEM LOG -- DATE :2019-01-03 17:24:12 - CLASS : order - FUNCTION : save - URL : localhost:8080/cv-atp/index.php/order/order/save - USER ID : 340 - USER IP : ::1 - USER ROLE : 1 - BROWSER : Mozilla/5.0 (Windows NT 10.0; Win64; x64; rv:64.0) Gecko/20100101 Firefox/64.0 - USERNAME : safari
SYSTEM LOG -- DATE :2019-01-03 17:24:12 - CLASS : order - FUNCTION : confirm - URL : localhost:8080/cv-atp/index.php/order/order/confirm?_id=XtH%2BVbU7H9CbxEWdGX4hbbePSeXWDgitf7UdRWXx297snjI1njj%2Fv5XLTgMJtyO%2BIJnz2CdtiJz1vYYyOiEeZA%3D%3D - USER ID : 340 - USER IP : ::1 - USER ROLE : 1 - BROWSER : Mozilla/5.0 (Windows NT 10.0; Win64; x64; rv:64.0) Gecko/20100101 Firefox/64.0 - USERNAME : safari
SYSTEM LOG -- DATE :2019-01-03 17:51:30 - CLASS : order - FUNCTION : edit - URL : localhost:8080/cv-atp/index.php/order/order/edit?_id=YrkxCoASvMT60eok%2B6eNgCpZWRgJobo3v9SP%2Bx8ETDhbHvLbbmpw8vYzk3tDV1eEorLhnjSOAeDC1Wl%2BMSDAuw%3D%3D - USER ID : 340 - USER IP : ::1 - USER ROLE : 1 - BROWSER : Mozilla/5.0 (Windows NT 10.0; Win64; x64; rv:64.0) Gecko/20100101 Firefox/64.0 - USERNAME : safari
SYSTEM LOG -- DATE :2019-01-03 17:56:53 - CLASS : order - FUNCTION : save - URL : localhost:8080/cv-atp/index.php/order/order/save - USER ID : 340 - USER IP : ::1 - USER ROLE : 1 - BROWSER : Mozilla/5.0 (Windows NT 10.0; Win64; x64; rv:64.0) Gecko/20100101 Firefox/64.0 - USERNAME : safari
SYSTEM LOG -- DATE :2019-01-03 17:56:54 - CLASS : order - FUNCTION : confirm - URL : localhost:8080/cv-atp/index.php/order/order/confirm?_id=HPIEdXqalJzONQIVhrFhdogXpT%2BUXnv8Exz%2FCRqk6HsTReuNIMaGS96R8qF9Lh9gG6gLoFnYup2i9jV8y52gqw%3D%3D - USER ID : 340 - USER IP : ::1 - USER ROLE : 1 - BROWSER : Mozilla/5.0 (Windows NT 10.0; Win64; x64; rv:64.0) Gecko/20100101 Firefox/64.0 - USERNAME : safari
SYSTEM LOG -- DATE :2019-01-03 17:57:22 - CLASS : order - FUNCTION : edit - URL : localhost:8080/cv-atp/index.php/order/order/edit?_id=LhoIYULXD8GnBz%2BmKXwIgw4bwrx6vne5MdqmuquiYrBKw7jZzVKl0rQ6frtFez6K9Tc%2Bk8tZZA9x2wlPRYgItg%3D%3D - USER ID : 340 - USER IP : ::1 - USER ROLE : 1 - BROWSER : Mozilla/5.0 (Windows NT 10.0; Win64; x64; rv:64.0) Gecko/20100101 Firefox/64.0 - USERNAME : safari
SYSTEM LOG -- DATE :2019-01-03 17:57:43 - CLASS : order - FUNCTION : save - URL : localhost:8080/cv-atp/index.php/order/order/save - USER ID : 340 - USER IP : ::1 - USER ROLE : 1 - BROWSER : Mozilla/5.0 (Windows NT 10.0; Win64; x64; rv:64.0) Gecko/20100101 Firefox/64.0 - USERNAME : safari
SYSTEM LOG -- DATE :2019-01-03 17:58:21 - CLASS : order - FUNCTION : edit - URL : localhost:8080/cv-atp/index.php/order/order/edit?_id=LhoIYULXD8GnBz%2BmKXwIgw4bwrx6vne5MdqmuquiYrBKw7jZzVKl0rQ6frtFez6K9Tc%2Bk8tZZA9x2wlPRYgItg%3D%3D - USER ID : 340 - USER IP : ::1 - USER ROLE : 1 - BROWSER : Mozilla/5.0 (Windows NT 10.0; Win64; x64; rv:64.0) Gecko/20100101 Firefox/64.0 - USERNAME : safari
SYSTEM LOG -- DATE :2019-01-03 17:58:31 - CLASS : order - FUNCTION : save - URL : localhost:8080/cv-atp/index.php/order/order/save - USER ID : 340 - USER IP : ::1 - USER ROLE : 1 - BROWSER : Mozilla/5.0 (Windows NT 10.0; Win64; x64; rv:64.0) Gecko/20100101 Firefox/64.0 - USERNAME : safari
SYSTEM LOG -- DATE :2019-01-03 17:58:43 - CLASS : order - FUNCTION : confirm - URL : localhost:8080/cv-atp/index.php/order/order/confirm?_id=yJGlKYPDgMDgxAUmjsKHL7AHO51Lxws6A91YpC%2FWEy2Ov0A%2Bx2YKQcXoJNOvDijj0JGgk5FCYVlHop9rlXlwBg%3D%3D - USER ID : 340 - USER IP : ::1 - USER ROLE : 1 - BROWSER : Mozilla/5.0 (Windows NT 10.0; Win64; x64; rv:64.0) Gecko/20100101 Firefox/64.0 - USERNAME : safari
SYSTEM LOG -- DATE :2019-01-03 17:58:54 - CLASS : order - FUNCTION : edit - URL : localhost:8080/cv-atp/index.php/order/order/edit?_id=aQHHfI3n1BJ%2BLCY6SeJvp3MvQ%2FteKu3fEY0u00PGWQhjkSb48%2FZYJ4Pk13qwDf%2FDfQhiTLxthnLDDMpU4c4mFw%3D%3D - USER ID : 340 - USER IP : ::1 - USER ROLE : 1 - BROWSER : Mozilla/5.0 (Windows NT 10.0; Win64; x64; rv:64.0) Gecko/20100101 Firefox/64.0 - USERNAME : safari
SYSTEM LOG -- DATE :2019-01-03 17:59:01 - CLASS : order - FUNCTION : save - URL : localhost:8080/cv-atp/index.php/order/order/save - USER ID : 340 - USER IP : ::1 - USER ROLE : 1 - BROWSER : Mozilla/5.0 (Windows NT 10.0; Win64; x64; rv:64.0) Gecko/20100101 Firefox/64.0 - USERNAME : safari
SYSTEM LOG -- DATE :2019-01-03 17:59:02 - CLASS : order - FUNCTION : confirm - URL : localhost:8080/cv-atp/index.php/order/order/confirm?_id=CXPpzpcLKGUblUdOAwFWHjVXSlhyjs%2BFID4EAle1neTNzVpbcyurcNq2YIo1sEQt45GlEq9zJRAEDuIAZLvWnw%3D%3D - USER ID : 340 - USER IP : ::1 - USER ROLE : 1 - BROWSER : Mozilla/5.0 (Windows NT 10.0; Win64; x64; rv:64.0) Gecko/20100101 Firefox/64.0 - USERNAME : safari
SYSTEM LOG -- DATE :2019-01-03 18:03:09 - CLASS : order - FUNCTION : proceed - URL : localhost:8080/cv-atp/index.php/order/order/proceed?_id=D4mEHKo65hYeB7n8uELuwz5PXE1Rh4yEOOF%2BJugOxaZ81RC8q6fVLiMx0t%2F9ZHfnEu%2BxQrc2%2FV3GDJwXpViRFA%3D%3D - USER ID : 340 - USER IP : ::1 - USER ROLE : 1 - BROWSER : Mozilla/5.0 (Windows NT 10.0; Win64; x64; rv:64.0) Gecko/20100101 Firefox/64.0 - USERNAME : safari
SYSTEM LOG -- DATE :2019-01-03 18:03:22 - CLASS : order - FUNCTION : detail - URL : localhost:8080/cv-atp/index.php/order/order/detail?_id=PkHGH7odu7Pwdf%2BTK5mHszPwJvio0mlJ0TdNZaTNZ74zM1ztMgnz6SsvSoDFHK4aQvUQ5JCTvYTuWr6zGVQaXA%3D%3D - USER ID : 340 - USER IP : ::1 - USER ROLE : 1 - BROWSER : Mozilla/5.0 (Windows NT 10.0; Win64; x64; rv:64.0) Gecko/20100101 Firefox/64.0 - USERNAME : safari
SYSTEM LOG -- DATE :2019-01-03 18:12:05 - CLASS : order - FUNCTION : index - URL : localhost:8080/cv-atp/index.php/order/order/index - USER ID : 340 - USER IP : ::1 - USER ROLE : 1 - BROWSER : Mozilla/5.0 (Windows NT 10.0; Win64; x64; rv:64.0) Gecko/20100101 Firefox/64.0 - USERNAME : safari
SYSTEM LOG -- DATE :2019-01-03 18:12:06 - CLASS : order - FUNCTION : ajax_list - URL : localhost:8080/cv-atp/index.php/order/order/ajax_list - USER ID : 340 - USER IP : ::1 - USER ROLE : 1 - BROWSER : Mozilla/5.0 (Windows NT 10.0; Win64; x64; rv:64.0) Gecko/20100101 Firefox/64.0 - USERNAME : safari
SYSTEM LOG -- DATE :2019-01-03 18:15:47 - CLASS : order - FUNCTION : index - URL : localhost:8080/cv-atp/index.php/order/order/index - USER ID : 340 - USER IP : ::1 - USER ROLE : 1 - BROWSER : Mozilla/5.0 (Windows NT 10.0; Win64; x64; rv:64.0) Gecko/20100101 Firefox/64.0 - USERNAME : safari
SYSTEM LOG -- DATE :2019-01-03 18:15:48 - CLASS : order - FUNCTION : ajax_list - URL : localhost:8080/cv-atp/index.php/order/order/ajax_list - USER ID : 340 - USER IP : ::1 - USER ROLE : 1 - BROWSER : Mozilla/5.0 (Windows NT 10.0; Win64; x64; rv:64.0) Gecko/20100101 Firefox/64.0 - USERNAME : safari
SYSTEM LOG -- DATE :2019-01-03 18:17:13 - CLASS : order - FUNCTION : index - URL : localhost:8080/cv-atp/index.php/order/order/index - USER ID : 340 - USER IP : ::1 - USER ROLE : 1 - BROWSER : Mozilla/5.0 (Windows NT 10.0; Win64; x64; rv:64.0) Gecko/20100101 Firefox/64.0 - USERNAME : safari
SYSTEM LOG -- DATE :2019-01-03 18:17:14 - CLASS : order - FUNCTION : ajax_list - URL : localhost:8080/cv-atp/index.php/order/order/ajax_list - USER ID : 340 - USER IP : ::1 - USER ROLE : 1 - BROWSER : Mozilla/5.0 (Windows NT 10.0; Win64; x64; rv:64.0) Gecko/20100101 Firefox/64.0 - USERNAME : safari
SYSTEM LOG -- DATE :2019-01-03 18:19:24 - CLASS : order - FUNCTION : index - URL : localhost:8080/cv-atp/index.php/order/order/index - USER ID : 340 - USER IP : ::1 - USER ROLE : 1 - BROWSER : Mozilla/5.0 (Windows NT 10.0; Win64; x64; rv:64.0) Gecko/20100101 Firefox/64.0 - USERNAME : safari
SYSTEM LOG -- DATE :2019-01-03 18:19:24 - CLASS : order - FUNCTION : ajax_list - URL : localhost:8080/cv-atp/index.php/order/order/ajax_list - USER ID : 340 - USER IP : ::1 - USER ROLE : 1 - BROWSER : Mozilla/5.0 (Windows NT 10.0; Win64; x64; rv:64.0) Gecko/20100101 Firefox/64.0 - USERNAME : safari
SYSTEM LOG -- DATE :2019-01-03 18:20:12 - CLASS : order - FUNCTION : index - URL : localhost:8080/cv-atp/index.php/order/order/index - USER ID : 340 - USER IP : ::1 - USER ROLE : 1 - BROWSER : Mozilla/5.0 (Windows NT 10.0; Win64; x64; rv:64.0) Gecko/20100101 Firefox/64.0 - USERNAME : safari
SYSTEM LOG -- DATE :2019-01-03 18:20:13 - CLASS : order - FUNCTION : ajax_list - URL : localhost:8080/cv-atp/index.php/order/order/ajax_list - USER ID : 340 - USER IP : ::1 - USER ROLE : 1 - BROWSER : Mozilla/5.0 (Windows NT 10.0; Win64; x64; rv:64.0) Gecko/20100101 Firefox/64.0 - USERNAME : safari
SYSTEM LOG -- DATE :2019-01-03 18:20:17 - CLASS : order - FUNCTION : index - URL : localhost:8080/cv-atp/index.php/order/order/index - USER ID : 340 - USER IP : ::1 - USER ROLE : 1 - BROWSER : Mozilla/5.0 (Windows NT 10.0; Win64; x64; rv:64.0) Gecko/20100101 Firefox/64.0 - USERNAME : safari
SYSTEM LOG -- DATE :2019-01-03 18:20:18 - CLASS : order - FUNCTION : ajax_list - URL : localhost:8080/cv-atp/index.php/order/order/ajax_list - USER ID : 340 - USER IP : ::1 - USER ROLE : 1 - BROWSER : Mozilla/5.0 (Windows NT 10.0; Win64; x64; rv:64.0) Gecko/20100101 Firefox/64.0 - USERNAME : safari
SYSTEM LOG -- DATE :2019-01-03 18:20:35 - CLASS : order - FUNCTION : index - URL : localhost:8080/cv-atp/index.php/order/order/index - USER ID : 340 - USER IP : ::1 - USER ROLE : 1 - BROWSER : Mozilla/5.0 (Windows NT 10.0; Win64; x64; rv:64.0) Gecko/20100101 Firefox/64.0 - USERNAME : safari
SYSTEM LOG -- DATE :2019-01-03 18:20:36 - CLASS : order - FUNCTION : ajax_list - URL : localhost:8080/cv-atp/index.php/order/order/ajax_list - USER ID : 340 - USER IP : ::1 - USER ROLE : 1 - BROWSER : Mozilla/5.0 (Windows NT 10.0; Win64; x64; rv:64.0) Gecko/20100101 Firefox/64.0 - USERNAME : safari
SYSTEM LOG -- DATE :2019-01-03 18:20:55 - CLASS : order - FUNCTION : index - URL : localhost:8080/cv-atp/index.php/order/order/index - USER ID : 340 - USER IP : ::1 - USER ROLE : 1 - BROWSER : Mozilla/5.0 (Windows NT 10.0; Win64; x64; rv:64.0) Gecko/20100101 Firefox/64.0 - USERNAME : safari
SYSTEM LOG -- DATE :2019-01-03 18:20:57 - CLASS : order - FUNCTION : ajax_list - URL : localhost:8080/cv-atp/index.php/order/order/ajax_list - USER ID : 340 - USER IP : ::1 - USER ROLE : 1 - BROWSER : Mozilla/5.0 (Windows NT 10.0; Win64; x64; rv:64.0) Gecko/20100101 Firefox/64.0 - USERNAME : safari
SYSTEM LOG -- DATE :2019-01-03 18:22:01 - CLASS : order - FUNCTION : index - URL : localhost:8080/cv-atp/index.php/order/order/index - USER ID : 340 - USER IP : ::1 - USER ROLE : 1 - BROWSER : Mozilla/5.0 (Windows NT 10.0; Win64; x64; rv:64.0) Gecko/20100101 Firefox/64.0 - USERNAME : safari
SYSTEM LOG -- DATE :2019-01-03 18:22:02 - CLASS : order - FUNCTION : ajax_list - URL : localhost:8080/cv-atp/index.php/order/order/ajax_list - USER ID : 340 - USER IP : ::1 - USER ROLE : 1 - BROWSER : Mozilla/5.0 (Windows NT 10.0; Win64; x64; rv:64.0) Gecko/20100101 Firefox/64.0 - USERNAME : safari
SYSTEM LOG -- DATE :2019-01-03 18:22:48 - CLASS : order - FUNCTION : index - URL : localhost:8080/cv-atp/index.php/order/order/index - USER ID : 340 - USER IP : ::1 - USER ROLE : 1 - BROWSER : Mozilla/5.0 (Windows NT 10.0; Win64; x64; rv:64.0) Gecko/20100101 Firefox/64.0 - USERNAME : safari
SYSTEM LOG -- DATE :2019-01-03 18:22:48 - CLASS : order - FUNCTION : ajax_list - URL : localhost:8080/cv-atp/index.php/order/order/ajax_list - USER ID : 340 - USER IP : ::1 - USER ROLE : 1 - BROWSER : Mozilla/5.0 (Windows NT 10.0; Win64; x64; rv:64.0) Gecko/20100101 Firefox/64.0 - USERNAME : safari
SYSTEM LOG -- DATE :2019-01-03 18:23:07 - CLASS : order - FUNCTION : index - URL : localhost:8080/cv-atp/index.php/order/order/index - USER ID : 340 - USER IP : ::1 - USER ROLE : 1 - BROWSER : Mozilla/5.0 (Windows NT 10.0; Win64; x64; rv:64.0) Gecko/20100101 Firefox/64.0 - USERNAME : safari
SYSTEM LOG -- DATE :2019-01-03 18:23:08 - CLASS : order - FUNCTION : ajax_list - URL : localhost:8080/cv-atp/index.php/order/order/ajax_list - USER ID : 340 - USER IP : ::1 - USER ROLE : 1 - BROWSER : Mozilla/5.0 (Windows NT 10.0; Win64; x64; rv:64.0) Gecko/20100101 Firefox/64.0 - USERNAME : safari
SYSTEM LOG -- DATE :2019-01-03 18:23:20 - CLASS : order - FUNCTION : index - URL : localhost:8080/cv-atp/index.php/order/order/index - USER ID : 340 - USER IP : ::1 - USER ROLE : 1 - BROWSER : Mozilla/5.0 (Windows NT 10.0; Win64; x64; rv:64.0) Gecko/20100101 Firefox/64.0 - USERNAME : safari
SYSTEM LOG -- DATE :2019-01-03 18:23:21 - CLASS : order - FUNCTION : ajax_list - URL : localhost:8080/cv-atp/index.php/order/order/ajax_list - USER ID : 340 - USER IP : ::1 - USER ROLE : 1 - BROWSER : Mozilla/5.0 (Windows NT 10.0; Win64; x64; rv:64.0) Gecko/20100101 Firefox/64.0 - USERNAME : safari
SYSTEM LOG -- DATE :2019-01-03 18:23:24 - CLASS : order - FUNCTION : edit - URL : localhost:8080/cv-atp/index.php/order/order/edit/?_id=Wjfe0vLZXfbL1MOWzpuhw2OybYPLklLc7lPusGDEd4%2FrvUuge0p5tvLuMH%2B1egUIIudyVOOg7tOW4uoistA7rQ%3D%3D - USER ID : 340 - USER IP : ::1 - USER ROLE : 1 - BROWSER : Mozilla/5.0 (Windows NT 10.0; Win64; x64; rv:64.0) Gecko/20100101 Firefox/64.0 - USERNAME : safari
SYSTEM LOG -- DATE :2019-01-03 18:23:29 - CLASS : order - FUNCTION : index - URL : localhost:8080/cv-atp/index.php/order/order/index - USER ID : 340 - USER IP : ::1 - USER ROLE : 1 - BROWSER : Mozilla/5.0 (Windows NT 10.0; Win64; x64; rv:64.0) Gecko/20100101 Firefox/64.0 - USERNAME : safari
SYSTEM LOG -- DATE :2019-01-03 18:23:29 - CLASS : order - FUNCTION : ajax_list - URL : localhost:8080/cv-atp/index.php/order/order/ajax_list - USER ID : 340 - USER IP : ::1 - USER ROLE : 1 - BROWSER : Mozilla/5.0 (Windows NT 10.0; Win64; x64; rv:64.0) Gecko/20100101 Firefox/64.0 - USERNAME : safari
SYSTEM LOG -- DATE :2019-01-03 18:23:31 - CLASS : order - FUNCTION : edit - URL : localhost:8080/cv-atp/index.php/order/order/edit/?_id=Yf4%2BaLDT3MjP0XHyqWuO%2B6UlqeUEeO26r3z4WTj%2FAFLmf5woPO%2Bp1cuOZMmcs1k4Dg6FFhag0z3qJGi%2FGy33Tg%3D%3D - USER ID : 340 - USER IP : ::1 - USER ROLE : 1 - BROWSER : Mozilla/5.0 (Windows NT 10.0; Win64; x64; rv:64.0) Gecko/20100101 Firefox/64.0 - USERNAME : safari
SYSTEM LOG -- DATE :2019-01-03 18:23:39 - CLASS : order - FUNCTION : index - URL : localhost:8080/cv-atp/index.php/order/order/index - USER ID : 340 - USER IP : ::1 - USER ROLE : 1 - BROWSER : Mozilla/5.0 (Windows NT 10.0; Win64; x64; rv:64.0) Gecko/20100101 Firefox/64.0 - USERNAME : safari
SYSTEM LOG -- DATE :2019-01-03 18:23:40 - CLASS : order - FUNCTION : ajax_list - URL : localhost:8080/cv-atp/index.php/order/order/ajax_list - USER ID : 340 - USER IP : ::1 - USER ROLE : 1 - BROWSER : Mozilla/5.0 (Windows NT 10.0; Win64; x64; rv:64.0) Gecko/20100101 Firefox/64.0 - USERNAME : safari
SYSTEM LOG -- DATE :2019-01-03 18:23:42 - CLASS : order - FUNCTION : confirm - URL : localhost:8080/cv-atp/index.php/order/order/confirm/?_id=x9JDh1H1x6xHmS6CuMwsvCe4V%2F75cfjwNLHPEovoL5Z6Ng7TbTPDaIXdsMR4DfbFSAMRPoETeeYCui6xhpeEKw%3D%3D - USER ID : 340 - USER IP : ::1 - USER ROLE : 1 - BROWSER : Mozilla/5.0 (Windows NT 10.0; Win64; x64; rv:64.0) Gecko/20100101 Firefox/64.0 - USERNAME : safari
SYSTEM LOG -- DATE :2019-01-03 18:23:46 - CLASS : order - FUNCTION : index - URL : localhost:8080/cv-atp/index.php/order/order/index - USER ID : 340 - USER IP : ::1 - USER ROLE : 1 - BROWSER : Mozilla/5.0 (Windows NT 10.0; Win64; x64; rv:64.0) Gecko/20100101 Firefox/64.0 - USERNAME : safari
SYSTEM LOG -- DATE :2019-01-03 18:23:46 - CLASS : order - FUNCTION : ajax_list - URL : localhost:8080/cv-atp/index.php/order/order/ajax_list - USER ID : 340 - USER IP : ::1 - USER ROLE : 1 - BROWSER : Mozilla/5.0 (Windows NT 10.0; Win64; x64; rv:64.0) Gecko/20100101 Firefox/64.0 - USERNAME : safari
SYSTEM LOG -- DATE :2019-01-03 18:24:02 - CLASS : order - FUNCTION : detail - URL : localhost:8080/cv-atp/index.php/order/order/detail/?_id=x5GodEecJ95QM0clLqX5PalbEwhhrCFwnZAgMlK2pcTdQhSdgUd8%2Fjr6hfqyk82iRqQU61KQTclwOvigiPoLsA%3D%3D - USER ID : 340 - USER IP : ::1 - USER ROLE : 1 - BROWSER : Mozilla/5.0 (Windows NT 10.0; Win64; x64; rv:64.0) Gecko/20100101 Firefox/64.0 - USERNAME : safari
SYSTEM LOG -- DATE :2019-01-03 18:24:09 - CLASS : order - FUNCTION : index - URL : localhost:8080/cv-atp/index.php/order/order/index - USER ID : 340 - USER IP : ::1 - USER ROLE : 1 - BROWSER : Mozilla/5.0 (Windows NT 10.0; Win64; x64; rv:64.0) Gecko/20100101 Firefox/64.0 - USERNAME : safari
SYSTEM LOG -- DATE :2019-01-03 18:24:10 - CLASS : order - FUNCTION : ajax_list - URL : localhost:8080/cv-atp/index.php/order/order/ajax_list - USER ID : 340 - USER IP : ::1 - USER ROLE : 1 - BROWSER : Mozilla/5.0 (Windows NT 10.0; Win64; x64; rv:64.0) Gecko/20100101 Firefox/64.0 - USERNAME : safari
SYSTEM LOG -- DATE :2019-01-03 18:24:59 - CLASS : order - FUNCTION : index - URL : localhost:8080/cv-atp/index.php/order/order/index - USER ID : 340 - USER IP : ::1 - USER ROLE : 1 - BROWSER : Mozilla/5.0 (Windows NT 10.0; Win64; x64; rv:64.0) Gecko/20100101 Firefox/64.0 - USERNAME : safari
SYSTEM LOG -- DATE :2019-01-03 18:25:01 - CLASS : order - FUNCTION : ajax_list - URL : localhost:8080/cv-atp/index.php/order/order/ajax_list - USER ID : 340 - USER IP : ::1 - USER ROLE : 1 - BROWSER : Mozilla/5.0 (Windows NT 10.0; Win64; x64; rv:64.0) Gecko/20100101 Firefox/64.0 - USERNAME : safari
SYSTEM LOG -- DATE :2019-01-03 18:25:22 - CLASS : order - FUNCTION : index - URL : localhost:8080/cv-atp/index.php/order/order/index - USER ID : 340 - USER IP : ::1 - USER ROLE : 1 - BROWSER : Mozilla/5.0 (Windows NT 10.0; Win64; x64; rv:64.0) Gecko/20100101 Firefox/64.0 - USERNAME : safari
SYSTEM LOG -- DATE :2019-01-03 18:25:23 - CLASS : order - FUNCTION : ajax_list - URL : localhost:8080/cv-atp/index.php/order/order/ajax_list - USER ID : 340 - USER IP : ::1 - USER ROLE : 1 - BROWSER : Mozilla/5.0 (Windows NT 10.0; Win64; x64; rv:64.0) Gecko/20100101 Firefox/64.0 - USERNAME : safari
SYSTEM LOG -- DATE :2019-01-03 18:25:39 - CLASS : order - FUNCTION : index - URL : localhost:8080/cv-atp/index.php/order/order/index - USER ID : 340 - USER IP : ::1 - USER ROLE : 1 - BROWSER : Mozilla/5.0 (Windows NT 10.0; Win64; x64; rv:64.0) Gecko/20100101 Firefox/64.0 - USERNAME : safari
SYSTEM LOG -- DATE :2019-01-03 18:25:40 - CLASS : order - FUNCTION : ajax_list - URL : localhost:8080/cv-atp/index.php/order/order/ajax_list - USER ID : 340 - USER IP : ::1 - USER ROLE : 1 - BROWSER : Mozilla/5.0 (Windows NT 10.0; Win64; x64; rv:64.0) Gecko/20100101 Firefox/64.0 - USERNAME : safari
SYSTEM LOG -- DATE :2019-01-03 18:26:46 - CLASS : order - FUNCTION : edit - URL : localhost:8080/cv-atp/index.php/order/order/edit/?_id=YJ8h2r7MMaE66FYH3wRCwzVIiHaby3bJGkXKPWck1wCw24kUmpLQuifSsyz8VqYTwxL34th02dxa47riXFogDg%3D%3D - USER ID : 340 - USER IP : ::1 - USER ROLE : 1 - BROWSER : Mozilla/5.0 (Windows NT 10.0; Win64; x64; rv:64.0) Gecko/20100101 Firefox/64.0 - USERNAME : safari
SYSTEM LOG -- DATE :2019-01-03 18:27:34 - CLASS : order - FUNCTION : index - URL : localhost:8080/cv-atp/index.php/order/order/index - USER ID : 340 - USER IP : ::1 - USER ROLE : 1 - BROWSER : Mozilla/5.0 (Windows NT 10.0; Win64; x64; rv:64.0) Gecko/20100101 Firefox/64.0 - USERNAME : safari
SYSTEM LOG -- DATE :2019-01-03 18:27:34 - CLASS : order - FUNCTION : ajax_list - URL : localhost:8080/cv-atp/index.php/order/order/ajax_list - USER ID : 340 - USER IP : ::1 - USER ROLE : 1 - BROWSER : Mozilla/5.0 (Windows NT 10.0; Win64; x64; rv:64.0) Gecko/20100101 Firefox/64.0 - USERNAME : safari
SYSTEM LOG -- DATE :2019-01-03 18:27:37 - CLASS : order - FUNCTION : payment - URL : localhost:8080/cv-atp/index.php/order/order/payment/?_id=i%2FpImqCBAjPn2sOzKtn%2FirNjCxygT%2FLTuhYy7nXn4F8tLZDftyPFbBkcNRzLlWXsWyXBT2yRCIi8w35XzPWdMg%3D%3D - USER ID : 340 - USER IP : ::1 - USER ROLE : 1 - BROWSER : Mozilla/5.0 (Windows NT 10.0; Win64; x64; rv:64.0) Gecko/20100101 Firefox/64.0 - USERNAME : safari
SYSTEM LOG -- DATE :2019-01-03 18:37:23 - CLASS : order - FUNCTION : index - URL : localhost:8080/cv-atp/index.php/order/order - USER ID : 340 - USER IP : ::1 - USER ROLE : 1 - BROWSER : Mozilla/5.0 (Windows NT 10.0; Win64; x64; rv:64.0) Gecko/20100101 Firefox/64.0 - USERNAME : safari
SYSTEM LOG -- DATE :2019-01-03 18:37:24 - CLASS : order - FUNCTION : ajax_list - URL : localhost:8080/cv-atp/index.php/order/order/ajax_list - USER ID : 340 - USER IP : ::1 - USER ROLE : 1 - BROWSER : Mozilla/5.0 (Windows NT 10.0; Win64; x64; rv:64.0) Gecko/20100101 Firefox/64.0 - USERNAME : safari
SYSTEM LOG -- DATE :2019-01-03 18:59:47 - CLASS : order - FUNCTION : payment - URL : localhost:8080/cv-atp/index.php/order/order/payment/?_id=d2WNxF455fLiftFBD0MEZWyuE%2F9b2Uq74XpmFbYBu0M8NHAh95J6vGrpUpFTTrQTm6Hlgyy%2F5lNpBS8sUOyQAA%3D%3D - USER ID : 340 - USER IP : ::1 - USER ROLE : 1 - BROWSER : Mozilla/5.0 (Windows NT 10.0; Win64; x64; rv:64.0) Gecko/20100101 Firefox/64.0 - USERNAME : safari
SYSTEM LOG -- DATE :2019-01-03 19:18:23 - CLASS : order - FUNCTION : update_payment - URL : localhost:8080/cv-atp/index.php/order/order/update_payment - USER ID : 340 - USER IP : ::1 - USER ROLE : 1 - BROWSER : Mozilla/5.0 (Windows NT 10.0; Win64; x64; rv:64.0) Gecko/20100101 Firefox/64.0 - USERNAME : safari
SYSTEM LOG -- DATE :2019-01-03 19:18:42 - CLASS : order - FUNCTION : detail - URL : localhost:8080/cv-atp/index.php/order/order/detail?_id=XSSpWTHX3ed306hfF4ub1nmEK07eNYbRLrZIPv7YpCU%2FR7cycUVilaGGqQZnRmrbMvSYKsNQ0ZxSeiWNV4xQKw%3D%3D - USER ID : 340 - USER IP : ::1 - USER ROLE : 1 - BROWSER : Mozilla/5.0 (Windows NT 10.0; Win64; x64; rv:64.0) Gecko/20100101 Firefox/64.0 - USERNAME : safari
SYSTEM LOG -- DATE :2019-01-03 19:18:59 - CLASS : order - FUNCTION : index - URL : localhost:8080/cv-atp/index.php/order/order/index - USER ID : 340 - USER IP : ::1 - USER ROLE : 1 - BROWSER : Mozilla/5.0 (Windows NT 10.0; Win64; x64; rv:64.0) Gecko/20100101 Firefox/64.0 - USERNAME : safari
SYSTEM LOG -- DATE :2019-01-03 19:18:59 - CLASS : order - FUNCTION : ajax_list - URL : localhost:8080/cv-atp/index.php/order/order/ajax_list - USER ID : 340 - USER IP : ::1 - USER ROLE : 1 - BROWSER : Mozilla/5.0 (Windows NT 10.0; Win64; x64; rv:64.0) Gecko/20100101 Firefox/64.0 - USERNAME : safari
SYSTEM LOG -- DATE :2019-01-03 19:25:48 - CLASS : order - FUNCTION : detail - URL : localhost:8080/cv-atp/index.php/order/order/detail/?_id=9iNekw5s59DqIjt9NXeqaxaxbF6PCGshRVQFUpAjLkGVG0bD10FmGRtOMEI9nC8Rbgxoshgn5qyO5nd3a1LDhg%3D%3D - USER ID : 340 - USER IP : ::1 - USER ROLE : 1 - BROWSER : Mozilla/5.0 (Windows NT 10.0; Win64; x64; rv:64.0) Gecko/20100101 Firefox/64.0 - USERNAME : safari
SYSTEM LOG -- DATE :2019-01-03 19:25:52 - CLASS : order - FUNCTION : index - URL : localhost:8080/cv-atp/index.php/order/order/index - USER ID : 340 - USER IP : ::1 - USER ROLE : 1 - BROWSER : Mozilla/5.0 (Windows NT 10.0; Win64; x64; rv:64.0) Gecko/20100101 Firefox/64.0 - USERNAME : safari
SYSTEM LOG -- DATE :2019-01-03 19:25:54 - CLASS : order - FUNCTION : ajax_list - URL : localhost:8080/cv-atp/index.php/order/order/ajax_list - USER ID : 340 - USER IP : ::1 - USER ROLE : 1 - BROWSER : Mozilla/5.0 (Windows NT 10.0; Win64; x64; rv:64.0) Gecko/20100101 Firefox/64.0 - USERNAME : safari
SYSTEM LOG -- DATE :2019-01-03 22:14:11 - CLASS : me - FUNCTION : index - URL : localhost:8080/cv-atp/index.php/meme/me - USER ID : 340 - USER IP : ::1 - USER ROLE : 1 - BROWSER : Mozilla/5.0 (Windows NT 10.0; Win64; x64; rv:64.0) Gecko/20100101 Firefox/64.0 - USERNAME : safari
SYSTEM LOG -- DATE :2019-01-03 22:14:15 - CLASS : order - FUNCTION : index - URL : localhost:8080/cv-atp/index.php/order/order - USER ID : 340 - USER IP : ::1 - USER ROLE : 1 - BROWSER : Mozilla/5.0 (Windows NT 10.0; Win64; x64; rv:64.0) Gecko/20100101 Firefox/64.0 - USERNAME : safari
SYSTEM LOG -- DATE :2019-01-03 22:14:16 - CLASS : order - FUNCTION : ajax_list - URL : localhost:8080/cv-atp/index.php/order/order/ajax_list - USER ID : 340 - USER IP : ::1 - USER ROLE : 1 - BROWSER : Mozilla/5.0 (Windows NT 10.0; Win64; x64; rv:64.0) Gecko/20100101 Firefox/64.0 - USERNAME : safari
SYSTEM LOG -- DATE :2019-01-03 22:15:45 - CLASS : order - FUNCTION : index - URL : localhost:8080/cv-atp/index.php/order/order - USER ID : 340 - USER IP : ::1 - USER ROLE : 1 - BROWSER : Mozilla/5.0 (Windows NT 10.0; Win64; x64; rv:64.0) Gecko/20100101 Firefox/64.0 - USERNAME : safari
SYSTEM LOG -- DATE :2019-01-03 22:15:46 - CLASS : order - FUNCTION : ajax_list - URL : localhost:8080/cv-atp/index.php/order/order/ajax_list - USER ID : 340 - USER IP : ::1 - USER ROLE : 1 - BROWSER : Mozilla/5.0 (Windows NT 10.0; Win64; x64; rv:64.0) Gecko/20100101 Firefox/64.0 - USERNAME : safari
SYSTEM LOG -- DATE :2019-01-03 22:17:06 - CLASS : order - FUNCTION : update - URL : localhost:8080/cv-atp/index.php/order/order/update/?_id=YpGB6q4Y7HHDazkT7tlXx%2FTMHG94mRbywDhCEcJaMT6%2B7jfx1tvJh3HpVsrJET%2F2DEaBiM1jw1A5OQJpik8PsQ%3D%3D - USER ID : 340 - USER IP : ::1 - USER ROLE : 1 - BROWSER : Mozilla/5.0 (Windows NT 10.0; Win64; x64; rv:64.0) Gecko/20100101 Firefox/64.0 - USERNAME : safari
SYSTEM LOG -- DATE :2019-01-03 22:17:12 - CLASS : order - FUNCTION : index - URL : localhost:8080/cv-atp/index.php/order/order - USER ID : 340 - USER IP : ::1 - USER ROLE : 1 - BROWSER : Mozilla/5.0 (Windows NT 10.0; Win64; x64; rv:64.0) Gecko/20100101 Firefox/64.0 - USERNAME : safari
SYSTEM LOG -- DATE :2019-01-03 22:17:13 - CLASS : order - FUNCTION : ajax_list - URL : localhost:8080/cv-atp/index.php/order/order/ajax_list - USER ID : 340 - USER IP : ::1 - USER ROLE : 1 - BROWSER : Mozilla/5.0 (Windows NT 10.0; Win64; x64; rv:64.0) Gecko/20100101 Firefox/64.0 - USERNAME : safari
SYSTEM LOG -- DATE :2019-01-03 22:17:34 - CLASS : order - FUNCTION : index - URL : localhost:8080/cv-atp/index.php/order/order - USER ID : 340 - USER IP : ::1 - USER ROLE : 1 - BROWSER : Mozilla/5.0 (Windows NT 10.0; Win64; x64; rv:64.0) Gecko/20100101 Firefox/64.0 - USERNAME : safari
SYSTEM LOG -- DATE :2019-01-03 22:17:34 - CLASS : order - FUNCTION : ajax_list - URL : localhost:8080/cv-atp/index.php/order/order/ajax_list - USER ID : 340 - USER IP : ::1 - USER ROLE : 1 - BROWSER : Mozilla/5.0 (Windows NT 10.0; Win64; x64; rv:64.0) Gecko/20100101 Firefox/64.0 - USERNAME : safari
SYSTEM LOG -- DATE :2019-01-03 22:17:57 - CLASS : order - FUNCTION : index - URL : localhost:8080/cv-atp/index.php/order/order - USER ID : 340 - USER IP : ::1 - USER ROLE : 1 - BROWSER : Mozilla/5.0 (Windows NT 10.0; Win64; x64; rv:64.0) Gecko/20100101 Firefox/64.0 - USERNAME : safari
SYSTEM LOG -- DATE :2019-01-03 22:17:58 - CLASS : order - FUNCTION : ajax_list - URL : localhost:8080/cv-atp/index.php/order/order/ajax_list - USER ID : 340 - USER IP : ::1 - USER ROLE : 1 - BROWSER : Mozilla/5.0 (Windows NT 10.0; Win64; x64; rv:64.0) Gecko/20100101 Firefox/64.0 - USERNAME : safari
SYSTEM LOG -- DATE :2019-01-03 22:18:00 - CLASS : order - FUNCTION : update - URL : localhost:8080/cv-atp/index.php/order/order/update/?_id=h2flJdws3v9jxt%2B%2F5wRc1a%2FPp6jc%2B86fNgJP%2BjETPaq7rWATAT7PrYiCbqHEpmAgeT0LtLHISu%2FPcMyMVN4E7w%3D%3D - USER ID : 340 - USER IP : ::1 - USER ROLE : 1 - BROWSER : Mozilla/5.0 (Windows NT 10.0; Win64; x64; rv:64.0) Gecko/20100101 Firefox/64.0 - USERNAME : safari
SYSTEM LOG -- DATE :2019-01-03 22:18:29 - CLASS : order - FUNCTION : index - URL : localhost:8080/cv-atp/index.php/order/order - USER ID : 340 - USER IP : ::1 - USER ROLE : 1 - BROWSER : Mozilla/5.0 (Windows NT 10.0; Win64; x64; rv:64.0) Gecko/20100101 Firefox/64.0 - USERNAME : safari
SYSTEM LOG -- DATE :2019-01-03 22:18:30 - CLASS : order - FUNCTION : ajax_list - URL : localhost:8080/cv-atp/index.php/order/order/ajax_list - USER ID : 340 - USER IP : ::1 - USER ROLE : 1 - BROWSER : Mozilla/5.0 (Windows NT 10.0; Win64; x64; rv:64.0) Gecko/20100101 Firefox/64.0 - USERNAME : safari
SYSTEM LOG -- DATE :2019-01-03 22:18:32 - CLASS : order - FUNCTION : update_order - URL : localhost:8080/cv-atp/index.php/order/order/update_order/?_id=QgbeO2NIwzH2n%2FBMxtnY%2Fxrf0K8TiOPCeUuQeMBY6sS%2Fd3gOHVtxlVFJic3aEzJJaZ00ktRDbNblzyUAGfAKBw%3D%3D - USER ID : 340 - USER IP : ::1 - USER ROLE : 1 - BROWSER : Mozilla/5.0 (Windows NT 10.0; Win64; x64; rv:64.0) Gecko/20100101 Firefox/64.0 - USERNAME : safari
