SYSTEM LOG -- DATE :2017-11-26 11:31:20 - CLASS : me - FUNCTION : index - URL : localhost:8080/golkar/index.php/meme/me - USER ID : 340 - USER IP : ::1 - USER ROLE : 1 - BROWSER : Mozilla/5.0 (Windows NT 10.0; Win64; x64) AppleWebKit/537.36 (KHTML, like Gecko) Chrome/62.0.3202.94 Safari/537.36 - USERNAME : safari
SYSTEM LOG -- DATE :2017-11-26 11:31:26 - CLASS : data - FUNCTION : check_login - URL : localhost:8080/golkar/index.php/ajax/data/check_login - USER ID : 340 - USER IP : ::1 - USER ROLE : 1 - BROWSER : Mozilla/5.0 (Windows NT 10.0; Win64; x64) AppleWebKit/537.36 (KHTML, like Gecko) Chrome/62.0.3202.94 Safari/537.36 - USERNAME : safari
SYSTEM LOG -- DATE :2017-11-26 11:31:30 - CLASS : report_perbandingan_kta - FUNCTION : index - URL : localhost:8080/golkar/index.php/report/report_perbandingan_kta - USER ID : 340 - USER IP : ::1 - USER ROLE : 1 - BROWSER : Mozilla/5.0 (Windows NT 10.0; Win64; x64) AppleWebKit/537.36 (KHTML, like Gecko) Chrome/62.0.3202.94 Safari/537.36 - USERNAME : safari
SYSTEM LOG -- DATE :2017-11-26 11:31:32 - CLASS : data - FUNCTION : check_login - URL : localhost:8080/golkar/index.php/ajax/data/check_login - USER ID : 340 - USER IP : ::1 - USER ROLE : 1 - BROWSER : Mozilla/5.0 (Windows NT 10.0; Win64; x64) AppleWebKit/537.36 (KHTML, like Gecko) Chrome/62.0.3202.94 Safari/537.36 - USERNAME : safari
SYSTEM LOG -- DATE :2017-11-26 11:31:34 - CLASS : data - FUNCTION : kabupaten - URL : localhost:8080/golkar/index.php/ajax/data/kabupaten - USER ID : 340 - USER IP : ::1 - USER ROLE : 1 - BROWSER : Mozilla/5.0 (Windows NT 10.0; Win64; x64) AppleWebKit/537.36 (KHTML, like Gecko) Chrome/62.0.3202.94 Safari/537.36 - USERNAME : safari
SYSTEM LOG -- DATE :2017-11-26 11:31:36 - CLASS : data - FUNCTION : kecamatan - URL : localhost:8080/golkar/index.php/ajax/data/kecamatan - USER ID : 340 - USER IP : ::1 - USER ROLE : 1 - BROWSER : Mozilla/5.0 (Windows NT 10.0; Win64; x64) AppleWebKit/537.36 (KHTML, like Gecko) Chrome/62.0.3202.94 Safari/537.36 - USERNAME : safari
SYSTEM LOG -- DATE :2017-11-26 11:31:37 - CLASS : data - FUNCTION : check_login - URL : localhost:8080/golkar/index.php/ajax/data/check_login - USER ID : 340 - USER IP : ::1 - USER ROLE : 1 - BROWSER : Mozilla/5.0 (Windows NT 10.0; Win64; x64) AppleWebKit/537.36 (KHTML, like Gecko) Chrome/62.0.3202.94 Safari/537.36 - USERNAME : safari
SYSTEM LOG -- DATE :2017-11-26 11:31:37 - CLASS : report_perbandingan_kta - FUNCTION : search - URL : localhost:8080/golkar/index.php/report/report_perbandingan_kta/search - USER ID : 340 - USER IP : ::1 - USER ROLE : 1 - BROWSER : Mozilla/5.0 (Windows NT 10.0; Win64; x64) AppleWebKit/537.36 (KHTML, like Gecko) Chrome/62.0.3202.94 Safari/537.36 - USERNAME : safari
SYSTEM LOG -- DATE :2017-11-26 11:33:48 - CLASS : data - FUNCTION : check_login - URL : localhost:8080/golkar/index.php/ajax/data/check_login - USER ID : 340 - USER IP : ::1 - USER ROLE : 1 - BROWSER : Mozilla/5.0 (Windows NT 10.0; Win64; x64) AppleWebKit/537.36 (KHTML, like Gecko) Chrome/62.0.3202.94 Safari/537.36 - USERNAME : safari
SYSTEM LOG -- DATE :2017-11-26 11:33:53 - CLASS : data - FUNCTION : kecamatan - URL : localhost:8080/golkar/index.php/ajax/data/kecamatan - USER ID : 340 - USER IP : ::1 - USER ROLE : 1 - BROWSER : Mozilla/5.0 (Windows NT 10.0; Win64; x64) AppleWebKit/537.36 (KHTML, like Gecko) Chrome/62.0.3202.94 Safari/537.36 - USERNAME : safari
SYSTEM LOG -- DATE :2017-11-26 11:33:53 - CLASS : data - FUNCTION : kabupaten - URL : localhost:8080/golkar/index.php/ajax/data/kabupaten - USER ID : 340 - USER IP : ::1 - USER ROLE : 1 - BROWSER : Mozilla/5.0 (Windows NT 10.0; Win64; x64) AppleWebKit/537.36 (KHTML, like Gecko) Chrome/62.0.3202.94 Safari/537.36 - USERNAME : safari
SYSTEM LOG -- DATE :2017-11-26 11:33:59 - CLASS : data - FUNCTION : check_login - URL : localhost:8080/golkar/index.php/ajax/data/check_login - USER ID : 340 - USER IP : ::1 - USER ROLE : 1 - BROWSER : Mozilla/5.0 (Windows NT 10.0; Win64; x64) AppleWebKit/537.36 (KHTML, like Gecko) Chrome/62.0.3202.94 Safari/537.36 - USERNAME : safari
