SYSTEM LOG -- DATE :2019-01-04 00:10:59 - CLASS : order - FUNCTION : update_pickup - URL : localhost:8080/cv-atp/index.php/order/order/update_pickup - USER ID : 340 - USER IP : ::1 - USER ROLE : 1 - BROWSER : Mozilla/5.0 (Windows NT 10.0; Win64; x64; rv:64.0) Gecko/20100101 Firefox/64.0 - USERNAME : safari
SYSTEM LOG -- DATE :2019-01-04 00:11:00 - CLASS : order - FUNCTION : detail - URL : localhost:8080/cv-atp/index.php/order/order/detail?_id=VX891EjKkcNcYg0BQnkHYhxVs6jvLfycYNtB3sTtdMDQzTRLZ9CaFmz%2FjBN%2FKIpnFmZutMve5TqQ9kqgXBVYkg%3D%3D - USER ID : 340 - USER IP : ::1 - USER ROLE : 1 - BROWSER : Mozilla/5.0 (Windows NT 10.0; Win64; x64; rv:64.0) Gecko/20100101 Firefox/64.0 - USERNAME : safari
SYSTEM LOG -- DATE :2019-01-04 00:11:09 - CLASS : order - FUNCTION : index - URL : localhost:8080/cv-atp/index.php/order/order/index - USER ID : 340 - USER IP : ::1 - USER ROLE : 1 - BROWSER : Mozilla/5.0 (Windows NT 10.0; Win64; x64; rv:64.0) Gecko/20100101 Firefox/64.0 - USERNAME : safari
SYSTEM LOG -- DATE :2019-01-04 00:11:09 - CLASS : order - FUNCTION : ajax_list - URL : localhost:8080/cv-atp/index.php/order/order/ajax_list - USER ID : 340 - USER IP : ::1 - USER ROLE : 1 - BROWSER : Mozilla/5.0 (Windows NT 10.0; Win64; x64; rv:64.0) Gecko/20100101 Firefox/64.0 - USERNAME : safari
SYSTEM LOG -- DATE :2019-01-04 00:11:11 - CLASS : order - FUNCTION : update_order - URL : localhost:8080/cv-atp/index.php/order/order/update_order/?_id=ea4sX3twmbgkkxRS4QiwxJfXYY8J9tM8nv8lKmpAC20jRdqmXqm0LIInaS8Y1TR4wELgDuIUc%2FFxdpdFSIsFAQ%3D%3D - USER ID : 340 - USER IP : ::1 - USER ROLE : 1 - BROWSER : Mozilla/5.0 (Windows NT 10.0; Win64; x64; rv:64.0) Gecko/20100101 Firefox/64.0 - USERNAME : safari
SYSTEM LOG -- DATE :2019-01-04 00:23:43 - CLASS : order - FUNCTION : update_biaya - URL : localhost:8080/cv-atp/index.php/order/order/update_biaya - USER ID : 340 - USER IP : ::1 - USER ROLE : 1 - BROWSER : Mozilla/5.0 (Windows NT 10.0; Win64; x64; rv:64.0) Gecko/20100101 Firefox/64.0 - USERNAME : safari
SYSTEM LOG -- DATE :2019-01-04 00:24:01 - CLASS : order - FUNCTION : update_order - URL : localhost:8080/cv-atp/index.php/order/order/update_order?_id=3cPR2%2BjEy4cDLvs9GXT0EpIaKwitmcspUwlzVBg5VhmoPClS0q9xKOQn7RHXuCnYUHxRHhUzboJwjXBFqsUNYw%3D%3D - USER ID : 340 - USER IP : ::1 - USER ROLE : 1 - BROWSER : Mozilla/5.0 (Windows NT 10.0; Win64; x64; rv:64.0) Gecko/20100101 Firefox/64.0 - USERNAME : safari
SYSTEM LOG -- DATE :2019-01-04 00:24:54 - CLASS : order - FUNCTION : update_biaya - URL : localhost:8080/cv-atp/index.php/order/order/update_biaya - USER ID : 340 - USER IP : ::1 - USER ROLE : 1 - BROWSER : Mozilla/5.0 (Windows NT 10.0; Win64; x64; rv:64.0) Gecko/20100101 Firefox/64.0 - USERNAME : safari
SYSTEM LOG -- DATE :2019-01-04 00:24:54 - CLASS : order - FUNCTION : update_order - URL : localhost:8080/cv-atp/index.php/order/order/update_order?_id=j0Ca3F1eSk%2Fb0YQl12i41JcJPL89jhpOjm3TwAHWeQgobNM3ZbGH8sC5xJprJZ9a2cVH1REQ4wqr5bVxnEMr6w%3D%3D - USER ID : 340 - USER IP : ::1 - USER ROLE : 1 - BROWSER : Mozilla/5.0 (Windows NT 10.0; Win64; x64; rv:64.0) Gecko/20100101 Firefox/64.0 - USERNAME : safari
SYSTEM LOG -- DATE :2019-01-04 00:38:00 - CLASS : order - FUNCTION : update_biaya - URL : localhost:8080/cv-atp/index.php/order/order/update_biaya?order_id=54990&trx_date=2019-01-04&trx_desc=Uang+Saku+Driver&kas=1.1.1&akun=6.1&biaya=1000 - USER ID : 340 - USER IP : ::1 - USER ROLE : 1 - BROWSER : Mozilla/5.0 (Windows NT 10.0; Win64; x64; rv:64.0) Gecko/20100101 Firefox/64.0 - USERNAME : safari
SYSTEM LOG -- DATE :2019-01-04 00:38:00 - CLASS : order - FUNCTION : update_order - URL : localhost:8080/cv-atp/index.php/order/order/update_order?_id=Xyg7lx5Mcqnk6GSjO41FuingKBCSe9zP%2BpOe9ZgaQTX3douhOtumzUnhygL171Wjbm7KHbPQ84CLzD0CbE5VKA%3D%3D - USER ID : 340 - USER IP : ::1 - USER ROLE : 1 - BROWSER : Mozilla/5.0 (Windows NT 10.0; Win64; x64; rv:64.0) Gecko/20100101 Firefox/64.0 - USERNAME : safari
SYSTEM LOG -- DATE :2019-01-04 00:38:00 - CLASS : order - FUNCTION : index - URL : localhost:8080/cv-atp/index.php/order/order - USER ID : 340 - USER IP : ::1 - USER ROLE : 1 - BROWSER : Mozilla/5.0 (Windows NT 10.0; Win64; x64; rv:64.0) Gecko/20100101 Firefox/64.0 - USERNAME : safari
SYSTEM LOG -- DATE :2019-01-04 00:38:01 - CLASS : order - FUNCTION : ajax_list - URL : localhost:8080/cv-atp/index.php/order/order/ajax_list - USER ID : 340 - USER IP : ::1 - USER ROLE : 1 - BROWSER : Mozilla/5.0 (Windows NT 10.0; Win64; x64; rv:64.0) Gecko/20100101 Firefox/64.0 - USERNAME : safari
SYSTEM LOG -- DATE :2019-01-04 00:38:04 - CLASS : order - FUNCTION : update_order - URL : localhost:8080/cv-atp/index.php/order/order/update_order/?_id=sfdYYBffdtvewJlx7wxWNLJJHilp8CJa%2BRb8o%2FmO45ch8%2BNRhmlhXDABStbSxPWWK73sPJhbpv%2BKcyA8gMWGAg%3D%3D - USER ID : 340 - USER IP : ::1 - USER ROLE : 1 - BROWSER : Mozilla/5.0 (Windows NT 10.0; Win64; x64; rv:64.0) Gecko/20100101 Firefox/64.0 - USERNAME : safari
SYSTEM LOG -- DATE :2019-01-04 00:39:05 - CLASS : order - FUNCTION : update_biaya - URL : localhost:8080/cv-atp/index.php/order/order/update_biaya?order_id=54990&trx_date=2019-01-04&trx_desc=Uang+Saku+Driver&kas=1.1.1&akun=6.1&biaya=1000 - USER ID : 340 - USER IP : ::1 - USER ROLE : 1 - BROWSER : Mozilla/5.0 (Windows NT 10.0; Win64; x64; rv:64.0) Gecko/20100101 Firefox/64.0 - USERNAME : safari
SYSTEM LOG -- DATE :2019-01-04 00:39:05 - CLASS : order - FUNCTION : update_order - URL : localhost:8080/cv-atp/index.php/order/order/update_order?_id=55MxsPXCtzLjbMJPnf%2FnG4gFmJnm8wPRn%2BLGokehFJ9wd40kAMtoUzofQMEc999iBan2pv0aYvM8noowE3KpCw%3D%3D - USER ID : 340 - USER IP : ::1 - USER ROLE : 1 - BROWSER : Mozilla/5.0 (Windows NT 10.0; Win64; x64; rv:64.0) Gecko/20100101 Firefox/64.0 - USERNAME : safari
SYSTEM LOG -- DATE :2019-01-04 00:39:05 - CLASS : order - FUNCTION : index - URL : localhost:8080/cv-atp/index.php/order/order - USER ID : 340 - USER IP : ::1 - USER ROLE : 1 - BROWSER : Mozilla/5.0 (Windows NT 10.0; Win64; x64; rv:64.0) Gecko/20100101 Firefox/64.0 - USERNAME : safari
SYSTEM LOG -- DATE :2019-01-04 00:39:06 - CLASS : order - FUNCTION : ajax_list - URL : localhost:8080/cv-atp/index.php/order/order/ajax_list - USER ID : 340 - USER IP : ::1 - USER ROLE : 1 - BROWSER : Mozilla/5.0 (Windows NT 10.0; Win64; x64; rv:64.0) Gecko/20100101 Firefox/64.0 - USERNAME : safari
SYSTEM LOG -- DATE :2019-01-04 00:39:53 - CLASS : order - FUNCTION : update_order - URL : localhost:8080/cv-atp/index.php/order/order/update_order/?_id=tkxrhqqBF7HZsJSqjSvUYoxaq755laWnmtHB2%2BXAk8zIjKwtGjCaeUBCZ%2BMgGynfnksfjT%2F37Z%2B00BvokYrEcw%3D%3D - USER ID : 340 - USER IP : ::1 - USER ROLE : 1 - BROWSER : Mozilla/5.0 (Windows NT 10.0; Win64; x64; rv:64.0) Gecko/20100101 Firefox/64.0 - USERNAME : safari
SYSTEM LOG -- DATE :2019-01-04 00:40:06 - CLASS : order - FUNCTION : update_biaya - URL : localhost:8080/cv-atp/index.php/order/order/update_biaya - USER ID : 340 - USER IP : ::1 - USER ROLE : 1 - BROWSER : Mozilla/5.0 (Windows NT 10.0; Win64; x64; rv:64.0) Gecko/20100101 Firefox/64.0 - USERNAME : safari
SYSTEM LOG -- DATE :2019-01-04 00:40:06 - CLASS : order - FUNCTION : update_order - URL : localhost:8080/cv-atp/index.php/order/order/update_order?_id=J1cZFqtEECaApC%2B7cknpScgYkzGj6jneyzhXj7QvAjSxP7InHbWnDTaLDkvR4URJlAsnVPX2r9VsK5RUILVLRQ%3D%3D - USER ID : 340 - USER IP : ::1 - USER ROLE : 1 - BROWSER : Mozilla/5.0 (Windows NT 10.0; Win64; x64; rv:64.0) Gecko/20100101 Firefox/64.0 - USERNAME : safari
SYSTEM LOG -- DATE :2019-01-04 00:53:49 - CLASS : order - FUNCTION : update_close - URL : localhost:8080/cv-atp/index.php/order/order/update_close?order_id=54990&order_done=2019-01-05 - USER ID : 340 - USER IP : ::1 - USER ROLE : 1 - BROWSER : Mozilla/5.0 (Windows NT 10.0; Win64; x64; rv:64.0) Gecko/20100101 Firefox/64.0 - USERNAME : safari
SYSTEM LOG -- DATE :2019-01-04 00:54:07 - CLASS : order - FUNCTION : update_order - URL : localhost:8080/cv-atp/index.php/order/order/update_order?_id=zQ%2BMq3JGrZMRAxBB2faJCm%2FnyzFUjUP%2Brj%2FNkVQM4LtB0%2B33omRZ6yUlkErNvXOxtcMuWhZPjC%2B6Fa5oa%2BJoOA%3D%3D - USER ID : 340 - USER IP : ::1 - USER ROLE : 1 - BROWSER : Mozilla/5.0 (Windows NT 10.0; Win64; x64; rv:64.0) Gecko/20100101 Firefox/64.0 - USERNAME : safari
SYSTEM LOG -- DATE :2019-01-04 00:54:07 - CLASS : order - FUNCTION : index - URL : localhost:8080/cv-atp/index.php/order/order - USER ID : 340 - USER IP : ::1 - USER ROLE : 1 - BROWSER : Mozilla/5.0 (Windows NT 10.0; Win64; x64; rv:64.0) Gecko/20100101 Firefox/64.0 - USERNAME : safari
SYSTEM LOG -- DATE :2019-01-04 00:54:08 - CLASS : order - FUNCTION : ajax_list - URL : localhost:8080/cv-atp/index.php/order/order/ajax_list - USER ID : 340 - USER IP : ::1 - USER ROLE : 1 - BROWSER : Mozilla/5.0 (Windows NT 10.0; Win64; x64; rv:64.0) Gecko/20100101 Firefox/64.0 - USERNAME : safari
SYSTEM LOG -- DATE :2019-01-04 00:54:11 - CLASS : order - FUNCTION : update_order - URL : localhost:8080/cv-atp/index.php/order/order/update_order/?_id=hFFtyY8MNdnvz4rjMSqeGFvFhp9ONwyckrZxEVo0hrHhvoxPB3vs%2FoPlC7579Fiaufzd7X7G9nbrPQdP6%2FWz9w%3D%3D - USER ID : 340 - USER IP : ::1 - USER ROLE : 1 - BROWSER : Mozilla/5.0 (Windows NT 10.0; Win64; x64; rv:64.0) Gecko/20100101 Firefox/64.0 - USERNAME : safari
SYSTEM LOG -- DATE :2019-01-04 00:54:31 - CLASS : order - FUNCTION : update_close - URL : localhost:8080/cv-atp/index.php/order/order/update_close - USER ID : 340 - USER IP : ::1 - USER ROLE : 1 - BROWSER : Mozilla/5.0 (Windows NT 10.0; Win64; x64; rv:64.0) Gecko/20100101 Firefox/64.0 - USERNAME : safari
SYSTEM LOG -- DATE :2019-01-04 00:54:31 - CLASS : order - FUNCTION : update_order - URL : localhost:8080/cv-atp/index.php/order/order/update_order?_id=eufm3Db8ORhgxb7MIPZISx5TitbclvK4gRRfD%2BDgQq4IqTy3oUgdiDXJxD6TR3dVLr%2Bxs26c2wN3iGt7zd6uOQ%3D%3D - USER ID : 340 - USER IP : ::1 - USER ROLE : 1 - BROWSER : Mozilla/5.0 (Windows NT 10.0; Win64; x64; rv:64.0) Gecko/20100101 Firefox/64.0 - USERNAME : safari
SYSTEM LOG -- DATE :2019-01-04 00:54:38 - CLASS : order - FUNCTION : index - URL : localhost:8080/cv-atp/index.php/order/order/index - USER ID : 340 - USER IP : ::1 - USER ROLE : 1 - BROWSER : Mozilla/5.0 (Windows NT 10.0; Win64; x64; rv:64.0) Gecko/20100101 Firefox/64.0 - USERNAME : safari
SYSTEM LOG -- DATE :2019-01-04 00:54:38 - CLASS : order - FUNCTION : ajax_list - URL : localhost:8080/cv-atp/index.php/order/order/ajax_list - USER ID : 340 - USER IP : ::1 - USER ROLE : 1 - BROWSER : Mozilla/5.0 (Windows NT 10.0; Win64; x64; rv:64.0) Gecko/20100101 Firefox/64.0 - USERNAME : safari
SYSTEM LOG -- DATE :2019-01-04 00:54:56 - CLASS : order - FUNCTION : index - URL : localhost:8080/cv-atp/index.php/order/order/index - USER ID : 340 - USER IP : ::1 - USER ROLE : 1 - BROWSER : Mozilla/5.0 (Windows NT 10.0; Win64; x64; rv:64.0) Gecko/20100101 Firefox/64.0 - USERNAME : safari
SYSTEM LOG -- DATE :2019-01-04 00:54:57 - CLASS : order - FUNCTION : ajax_list - URL : localhost:8080/cv-atp/index.php/order/order/ajax_list - USER ID : 340 - USER IP : ::1 - USER ROLE : 1 - BROWSER : Mozilla/5.0 (Windows NT 10.0; Win64; x64; rv:64.0) Gecko/20100101 Firefox/64.0 - USERNAME : safari
SYSTEM LOG -- DATE :2019-01-04 00:54:59 - CLASS : order - FUNCTION : detail - URL : localhost:8080/cv-atp/index.php/order/order/detail/?_id=qlaCY94fZZeh0vxU39%2Fesv%2FOfbBDFARZkMwUi37E39nb93lBjbJ9lG4oqkozuvAQgVeKajDp9vDd0BqDTFU61Q%3D%3D - USER ID : 340 - USER IP : ::1 - USER ROLE : 1 - BROWSER : Mozilla/5.0 (Windows NT 10.0; Win64; x64; rv:64.0) Gecko/20100101 Firefox/64.0 - USERNAME : safari
SYSTEM LOG -- DATE :2019-01-04 00:55:14 - CLASS : order - FUNCTION : index - URL : localhost:8080/cv-atp/index.php/order/order/index - USER ID : 340 - USER IP : ::1 - USER ROLE : 1 - BROWSER : Mozilla/5.0 (Windows NT 10.0; Win64; x64; rv:64.0) Gecko/20100101 Firefox/64.0 - USERNAME : safari
SYSTEM LOG -- DATE :2019-01-04 00:55:15 - CLASS : order - FUNCTION : ajax_list - URL : localhost:8080/cv-atp/index.php/order/order/ajax_list - USER ID : 340 - USER IP : ::1 - USER ROLE : 1 - BROWSER : Mozilla/5.0 (Windows NT 10.0; Win64; x64; rv:64.0) Gecko/20100101 Firefox/64.0 - USERNAME : safari
SYSTEM LOG -- DATE :2019-01-04 00:55:17 - CLASS : order - FUNCTION : update_order - URL : localhost:8080/cv-atp/index.php/order/order/update_order/?_id=pNG%2B3ymAhZOUPDdUjTck%2BTy3hEOi80H8ZsW5wt674efDT3rBwYO4gpdaxsdoB2qy5%2FWhZZMf7TQcHxga60JkRQ%3D%3D - USER ID : 340 - USER IP : ::1 - USER ROLE : 1 - BROWSER : Mozilla/5.0 (Windows NT 10.0; Win64; x64; rv:64.0) Gecko/20100101 Firefox/64.0 - USERNAME : safari
SYSTEM LOG -- DATE :2019-01-04 00:57:37 - CLASS : order - FUNCTION : index - URL : localhost:8080/cv-atp/index.php/order/order - USER ID : 340 - USER IP : ::1 - USER ROLE : 1 - BROWSER : Mozilla/5.0 (Windows NT 10.0; Win64; x64; rv:64.0) Gecko/20100101 Firefox/64.0 - USERNAME : safari
SYSTEM LOG -- DATE :2019-01-04 00:57:38 - CLASS : order - FUNCTION : ajax_list - URL : localhost:8080/cv-atp/index.php/order/order/ajax_list - USER ID : 340 - USER IP : ::1 - USER ROLE : 1 - BROWSER : Mozilla/5.0 (Windows NT 10.0; Win64; x64; rv:64.0) Gecko/20100101 Firefox/64.0 - USERNAME : safari
SYSTEM LOG -- DATE :2019-01-04 00:57:49 - CLASS : order - FUNCTION : index - URL : localhost:8080/cv-atp/index.php/order/order - USER ID : 340 - USER IP : ::1 - USER ROLE : 1 - BROWSER : Mozilla/5.0 (Windows NT 10.0; Win64; x64; rv:64.0) Gecko/20100101 Firefox/64.0 - USERNAME : safari
SYSTEM LOG -- DATE :2019-01-04 00:57:49 - CLASS : order - FUNCTION : ajax_list - URL : localhost:8080/cv-atp/index.php/order/order/ajax_list - USER ID : 340 - USER IP : ::1 - USER ROLE : 1 - BROWSER : Mozilla/5.0 (Windows NT 10.0; Win64; x64; rv:64.0) Gecko/20100101 Firefox/64.0 - USERNAME : safari
SYSTEM LOG -- DATE :2019-01-04 00:58:03 - CLASS : order - FUNCTION : index - URL : localhost:8080/cv-atp/index.php/order/order - USER ID : 340 - USER IP : ::1 - USER ROLE : 1 - BROWSER : Mozilla/5.0 (Windows NT 10.0; Win64; x64; rv:64.0) Gecko/20100101 Firefox/64.0 - USERNAME : safari
SYSTEM LOG -- DATE :2019-01-04 00:58:04 - CLASS : order - FUNCTION : ajax_list - URL : localhost:8080/cv-atp/index.php/order/order/ajax_list - USER ID : 340 - USER IP : ::1 - USER ROLE : 1 - BROWSER : Mozilla/5.0 (Windows NT 10.0; Win64; x64; rv:64.0) Gecko/20100101 Firefox/64.0 - USERNAME : safari
SYSTEM LOG -- DATE :2019-01-04 01:03:48 - CLASS : order - FUNCTION : index - URL : localhost:8080/cv-atp/index.php/order/order - USER ID : 340 - USER IP : ::1 - USER ROLE : 1 - BROWSER : Mozilla/5.0 (Windows NT 10.0; Win64; x64; rv:64.0) Gecko/20100101 Firefox/64.0 - USERNAME : safari
SYSTEM LOG -- DATE :2019-01-04 01:03:49 - CLASS : order - FUNCTION : ajax_list - URL : localhost:8080/cv-atp/index.php/order/order/ajax_list - USER ID : 340 - USER IP : ::1 - USER ROLE : 1 - BROWSER : Mozilla/5.0 (Windows NT 10.0; Win64; x64; rv:64.0) Gecko/20100101 Firefox/64.0 - USERNAME : safari
SYSTEM LOG -- DATE :2019-01-04 01:08:35 - CLASS : me - FUNCTION : index - URL : localhost:8080/cv-atp/index.php - USER ID : 340 - USER IP : ::1 - USER ROLE : 1 - BROWSER : Mozilla/5.0 (Windows NT 10.0; Win64; x64; rv:64.0) Gecko/20100101 Firefox/64.0 - USERNAME : safari
SYSTEM LOG -- DATE :2019-01-04 01:10:02 - CLASS : laporan_order - FUNCTION : index - URL : localhost:8080/cv-atp/index.php/report/laporan_order - USER ID : 340 - USER IP : ::1 - USER ROLE : 1 - BROWSER : Mozilla/5.0 (Windows NT 10.0; Win64; x64; rv:64.0) Gecko/20100101 Firefox/64.0 - USERNAME : safari
SYSTEM LOG -- DATE :2019-01-04 01:11:49 - CLASS : laporan_order - FUNCTION : ajax_list - URL : localhost:8080/cv-atp/index.php/report/laporan_order/ajax_list - USER ID : 340 - USER IP : ::1 - USER ROLE : 1 - BROWSER : Mozilla/5.0 (Windows NT 10.0; Win64; x64; rv:64.0) Gecko/20100101 Firefox/64.0 - USERNAME : safari
SYSTEM LOG -- DATE :2019-01-04 01:12:30 - CLASS : laporan_order - FUNCTION : index - URL : localhost:8080/cv-atp/index.php/report/laporan_order - USER ID : 340 - USER IP : ::1 - USER ROLE : 1 - BROWSER : Mozilla/5.0 (Windows NT 10.0; Win64; x64; rv:64.0) Gecko/20100101 Firefox/64.0 - USERNAME : safari
SYSTEM LOG -- DATE :2019-01-04 01:12:30 - CLASS : laporan_order - FUNCTION : ajax_list - URL : localhost:8080/cv-atp/index.php/report/laporan_order/ajax_list - USER ID : 340 - USER IP : ::1 - USER ROLE : 1 - BROWSER : Mozilla/5.0 (Windows NT 10.0; Win64; x64; rv:64.0) Gecko/20100101 Firefox/64.0 - USERNAME : safari
SYSTEM LOG -- DATE :2019-01-04 01:13:30 - CLASS : laporan_order - FUNCTION : index - URL : localhost:8080/cv-atp/index.php/report/laporan_order - USER ID : 340 - USER IP : ::1 - USER ROLE : 1 - BROWSER : Mozilla/5.0 (Windows NT 10.0; Win64; x64; rv:64.0) Gecko/20100101 Firefox/64.0 - USERNAME : safari
SYSTEM LOG -- DATE :2019-01-04 01:13:31 - CLASS : laporan_order - FUNCTION : ajax_list - URL : localhost:8080/cv-atp/index.php/report/laporan_order/ajax_list - USER ID : 340 - USER IP : ::1 - USER ROLE : 1 - BROWSER : Mozilla/5.0 (Windows NT 10.0; Win64; x64; rv:64.0) Gecko/20100101 Firefox/64.0 - USERNAME : safari
SYSTEM LOG -- DATE :2019-01-04 01:13:42 - CLASS : laporan_order - FUNCTION : index - URL : localhost:8080/cv-atp/index.php/report/laporan_order - USER ID : 340 - USER IP : ::1 - USER ROLE : 1 - BROWSER : Mozilla/5.0 (Windows NT 10.0; Win64; x64; rv:64.0) Gecko/20100101 Firefox/64.0 - USERNAME : safari
SYSTEM LOG -- DATE :2019-01-04 01:38:39 - CLASS : laporan_order - FUNCTION : search - URL : localhost:8080/cv-atp/index.php/report/laporan_order/search - USER ID : 340 - USER IP : ::1 - USER ROLE : 1 - BROWSER : Mozilla/5.0 (Windows NT 10.0; Win64; x64; rv:64.0) Gecko/20100101 Firefox/64.0 - USERNAME : safari
SYSTEM LOG -- DATE :2019-01-04 02:10:06 - CLASS : group - FUNCTION : index - URL : localhost:8080/cv-atp/index.php/meme/group - USER ID : 340 - USER IP : ::1 - USER ROLE : 1 - BROWSER : Mozilla/5.0 (Windows NT 10.0; Win64; x64; rv:64.0) Gecko/20100101 Firefox/64.0 - USERNAME : safari
SYSTEM LOG -- DATE :2019-01-04 02:10:09 - CLASS : group - FUNCTION : access - URL : localhost:8080/cv-atp/index.php/meme/group/access/?_id=tlkG4TKEDqZxUS6gPJLZQtouZO9v%2FtoRv3i550HMFmODq81qsQsbX92n9H1e1cMUbrkA1To0pz80zouJSkvKPg%3D%3D - USER ID : 340 - USER IP : ::1 - USER ROLE : 1 - BROWSER : Mozilla/5.0 (Windows NT 10.0; Win64; x64; rv:64.0) Gecko/20100101 Firefox/64.0 - USERNAME : safari
SYSTEM LOG -- DATE :2019-01-04 02:10:15 - CLASS : group - FUNCTION : index - URL : localhost:8080/cv-atp/index.php/meme/group?msg=Update+for+Access+Control+List+Success&type_msg=success - USER ID : 340 - USER IP : ::1 - USER ROLE : 1 - BROWSER : Mozilla/5.0 (Windows NT 10.0; Win64; x64; rv:64.0) Gecko/20100101 Firefox/64.0 - USERNAME : safari
SYSTEM LOG -- DATE :2019-01-04 02:10:20 - CLASS : user - FUNCTION : index - URL : localhost:8080/cv-atp/index.php/meme/user - USER ID : 340 - USER IP : ::1 - USER ROLE : 1 - BROWSER : Mozilla/5.0 (Windows NT 10.0; Win64; x64; rv:64.0) Gecko/20100101 Firefox/64.0 - USERNAME : safari
SYSTEM LOG -- DATE :2019-01-04 02:11:35 - CLASS : user - FUNCTION : add - URL : localhost:8080/cv-atp/index.php/meme/user/add - USER ID : 340 - USER IP : ::1 - USER ROLE : 1 - BROWSER : Mozilla/5.0 (Windows NT 10.0; Win64; x64; rv:64.0) Gecko/20100101 Firefox/64.0 - USERNAME : safari
SYSTEM LOG -- DATE :2019-01-04 02:12:24 - CLASS : group - FUNCTION : index - URL : localhost:8080/cv-atp/index.php/meme/group - USER ID : 340 - USER IP : ::1 - USER ROLE : 1 - BROWSER : Mozilla/5.0 (Windows NT 10.0; Win64; x64; rv:64.0) Gecko/20100101 Firefox/64.0 - USERNAME : safari
SYSTEM LOG -- DATE :2019-01-04 02:12:27 - CLASS : group - FUNCTION : add - URL : localhost:8080/cv-atp/index.php/meme/group/add - USER ID : 340 - USER IP : ::1 - USER ROLE : 1 - BROWSER : Mozilla/5.0 (Windows NT 10.0; Win64; x64; rv:64.0) Gecko/20100101 Firefox/64.0 - USERNAME : safari
SYSTEM LOG -- DATE :2019-01-04 02:12:38 - CLASS : group - FUNCTION : save - URL : localhost:8080/cv-atp/index.php/meme/group/save - USER ID : 340 - USER IP : ::1 - USER ROLE : 1 - BROWSER : Mozilla/5.0 (Windows NT 10.0; Win64; x64; rv:64.0) Gecko/20100101 Firefox/64.0 - USERNAME : safari
SYSTEM LOG -- DATE :2019-01-04 02:12:38 - CLASS : group - FUNCTION : index - URL : localhost:8080/cv-atp/index.php/meme/group?msg=Save%20data%20group%20succes&type_msg=success - USER ID : 340 - USER IP : ::1 - USER ROLE : 1 - BROWSER : Mozilla/5.0 (Windows NT 10.0; Win64; x64; rv:64.0) Gecko/20100101 Firefox/64.0 - USERNAME : safari
SYSTEM LOG -- DATE :2019-01-04 02:12:41 - CLASS : group - FUNCTION : access - URL : localhost:8080/cv-atp/index.php/meme/group/access/?_id=ULNFaxSqL%2FQLdCBjAOKMKjjcyK3VOd9Vn29QXwqwLb%2F1bPIXov4y%2BPk5s8ekWC0pCVqfni%2Fl5Xm90vYlMDJbAQ%3D%3D - USER ID : 340 - USER IP : ::1 - USER ROLE : 1 - BROWSER : Mozilla/5.0 (Windows NT 10.0; Win64; x64; rv:64.0) Gecko/20100101 Firefox/64.0 - USERNAME : safari
SYSTEM LOG -- DATE :2019-01-04 02:13:16 - CLASS : group - FUNCTION : index - URL : localhost:8080/cv-atp/index.php/meme/group?msg=Update+for+Access+Control+List+Success&type_msg=success - USER ID : 340 - USER IP : ::1 - USER ROLE : 1 - BROWSER : Mozilla/5.0 (Windows NT 10.0; Win64; x64; rv:64.0) Gecko/20100101 Firefox/64.0 - USERNAME : safari
SYSTEM LOG -- DATE :2019-01-04 02:13:19 - CLASS : user - FUNCTION : index - URL : localhost:8080/cv-atp/index.php/meme/user - USER ID : 340 - USER IP : ::1 - USER ROLE : 1 - BROWSER : Mozilla/5.0 (Windows NT 10.0; Win64; x64; rv:64.0) Gecko/20100101 Firefox/64.0 - USERNAME : safari
SYSTEM LOG -- DATE :2019-01-04 02:13:22 - CLASS : user - FUNCTION : add - URL : localhost:8080/cv-atp/index.php/meme/user/add - USER ID : 340 - USER IP : ::1 - USER ROLE : 1 - BROWSER : Mozilla/5.0 (Windows NT 10.0; Win64; x64; rv:64.0) Gecko/20100101 Firefox/64.0 - USERNAME : safari
SYSTEM LOG -- DATE :2019-01-04 02:13:34 - CLASS : user - FUNCTION : save - URL : localhost:8080/cv-atp/index.php/meme/user/save - USER ID : 340 - USER IP : ::1 - USER ROLE : 1 - BROWSER : Mozilla/5.0 (Windows NT 10.0; Win64; x64; rv:64.0) Gecko/20100101 Firefox/64.0 - USERNAME : safari
SYSTEM LOG -- DATE :2019-01-04 02:13:35 - CLASS : user - FUNCTION : index - URL : localhost:8080/cv-atp/index.php/meme/user?msg=Save%20data%20user%20success&type_msg=success - USER ID : 340 - USER IP : ::1 - USER ROLE : 1 - BROWSER : Mozilla/5.0 (Windows NT 10.0; Win64; x64; rv:64.0) Gecko/20100101 Firefox/64.0 - USERNAME : safari
SYSTEM LOG -- DATE :2019-01-04 02:13:44 - CLASS : auth - FUNCTION : out - URL : localhost:8080/cv-atp/index.php/auth/out - USER ID : 340 - USER IP : ::1 - USER ROLE : 1 - BROWSER : Mozilla/5.0 (Windows NT 10.0; Win64; x64; rv:64.0) Gecko/20100101 Firefox/64.0 - USERNAME : safari
SYSTEM LOG -- DATE :2019-01-04 02:13:49 - CLASS : me - FUNCTION : index - URL : localhost:8080/cv-atp/index.php/meme/me - USER ID : 591 - USER IP : ::1 - USER ROLE : 46 - BROWSER : Mozilla/5.0 (Windows NT 10.0; Win64; x64; rv:64.0) Gecko/20100101 Firefox/64.0 - USERNAME : admin
