SYSTEM LOG -- DATE :2018-04-03 12:39:21 - CLASS : me - FUNCTION : index - URL : localhost:8080/kaderisasi/index.php/meme/me - USER ID : 340 - USER IP : ::1 - USER ROLE : 1 - BROWSER : Mozilla/5.0 (Windows NT 10.0; Win64; x64) AppleWebKit/537.36 (KHTML, like Gecko) Chrome/65.0.3325.181 Safari/537.36 - USERNAME : safari
SYSTEM LOG -- DATE :2018-04-03 12:39:48 - CLASS : master_anggota - FUNCTION : index - URL : localhost:8080/kaderisasi/index.php/master/master_anggota - USER ID : 340 - USER IP : ::1 - USER ROLE : 1 - BROWSER : Mozilla/5.0 (Windows NT 10.0; Win64; x64) AppleWebKit/537.36 (KHTML, like Gecko) Chrome/65.0.3325.181 Safari/537.36 - USERNAME : safari
SYSTEM LOG -- DATE :2018-04-03 12:39:53 - CLASS : tanda_terima - FUNCTION : index - URL : localhost:8080/kaderisasi/index.php/report/tanda_terima - USER ID : 340 - USER IP : ::1 - USER ROLE : 1 - BROWSER : Mozilla/5.0 (Windows NT 10.0; Win64; x64) AppleWebKit/537.36 (KHTML, like Gecko) Chrome/65.0.3325.181 Safari/537.36 - USERNAME : safari
SYSTEM LOG -- DATE :2018-04-03 12:39:57 - CLASS : tanda_terima - FUNCTION : add - URL : localhost:8080/kaderisasi/index.php/report/tanda_terima/add - USER ID : 340 - USER IP : ::1 - USER ROLE : 1 - BROWSER : Mozilla/5.0 (Windows NT 10.0; Win64; x64) AppleWebKit/537.36 (KHTML, like Gecko) Chrome/65.0.3325.181 Safari/537.36 - USERNAME : safari
SYSTEM LOG -- DATE :2018-04-03 12:40:13 - CLASS : tanda_terima - FUNCTION : save - URL : localhost:8080/kaderisasi/index.php/report/tanda_terima/save - USER ID : 340 - USER IP : ::1 - USER ROLE : 1 - BROWSER : Mozilla/5.0 (Windows NT 10.0; Win64; x64) AppleWebKit/537.36 (KHTML, like Gecko) Chrome/65.0.3325.181 Safari/537.36 - USERNAME : safari
SYSTEM LOG -- DATE :2018-04-03 12:40:15 - CLASS : tanda_terima - FUNCTION : print_pdf - URL : localhost:8080/kaderisasi/index.php/report/tanda_terima/print_pdf/?id=432&filename=20180403124014zzzz.pdf - USER ID : 340 - USER IP : ::1 - USER ROLE : 1 - BROWSER : Mozilla/5.0 (Windows NT 10.0; Win64; x64) AppleWebKit/537.36 (KHTML, like Gecko) Chrome/65.0.3325.181 Safari/537.36 - USERNAME : safari
SYSTEM LOG -- DATE :2018-04-03 12:40:31 - CLASS : master_anggota - FUNCTION : index - URL : localhost:8080/kaderisasi/index.php/master/master_anggota - USER ID : 340 - USER IP : ::1 - USER ROLE : 1 - BROWSER : Mozilla/5.0 (Windows NT 10.0; Win64; x64) AppleWebKit/537.36 (KHTML, like Gecko) Chrome/65.0.3325.181 Safari/537.36 - USERNAME : safari
SYSTEM LOG -- DATE :2018-04-03 12:40:39 - CLASS : master_anggota - FUNCTION : edit - URL : localhost:8080/kaderisasi/index.php/master/master_anggota/edit/?_id=%2FzapicJDONagdimLxX9R%2BtgmYWdcIcYZdclfMvktn4LOo5k1luf6kio%2BUBdBO6GJStrkbs5SXyeY0zdtfK58wA%3D%3D - USER ID : 340 - USER IP : ::1 - USER ROLE : 1 - BROWSER : Mozilla/5.0 (Windows NT 10.0; Win64; x64) AppleWebKit/537.36 (KHTML, like Gecko) Chrome/65.0.3325.181 Safari/537.36 - USERNAME : safari
SYSTEM LOG -- DATE :2018-04-03 12:40:40 - CLASS : data - FUNCTION : kabupaten - URL : localhost:8080/kaderisasi/index.php/ajax/data/kabupaten - USER ID : 340 - USER IP : ::1 - USER ROLE : 1 - BROWSER : Mozilla/5.0 (Windows NT 10.0; Win64; x64) AppleWebKit/537.36 (KHTML, like Gecko) Chrome/65.0.3325.181 Safari/537.36 - USERNAME : safari
SYSTEM LOG -- DATE :2018-04-03 12:40:40 - CLASS : data - FUNCTION : kecamatan - URL : localhost:8080/kaderisasi/index.php/ajax/data/kecamatan - USER ID : 340 - USER IP : ::1 - USER ROLE : 1 - BROWSER : Mozilla/5.0 (Windows NT 10.0; Win64; x64) AppleWebKit/537.36 (KHTML, like Gecko) Chrome/65.0.3325.181 Safari/537.36 - USERNAME : safari
SYSTEM LOG -- DATE :2018-04-03 12:40:40 - CLASS : data - FUNCTION : kelurahan - URL : localhost:8080/kaderisasi/index.php/ajax/data/kelurahan - USER ID : 340 - USER IP : ::1 - USER ROLE : 1 - BROWSER : Mozilla/5.0 (Windows NT 10.0; Win64; x64) AppleWebKit/537.36 (KHTML, like Gecko) Chrome/65.0.3325.181 Safari/537.36 - USERNAME : safari
SYSTEM LOG -- DATE :2018-04-03 12:40:40 - CLASS : master_anggota - FUNCTION : edit - URL : localhost:8080/kaderisasi/index.php/master/master_anggota/edit/favicon.ico - USER ID : 340 - USER IP : ::1 - USER ROLE : 1 - BROWSER : Mozilla/5.0 (Windows NT 10.0; Win64; x64) AppleWebKit/537.36 (KHTML, like Gecko) Chrome/65.0.3325.181 Safari/537.36 - USERNAME : safari
SYSTEM LOG -- DATE :2018-04-03 12:40:40 - CLASS : master_anggota - FUNCTION : index - URL : localhost:8080/kaderisasi/index.php/master/master_anggota?msg=Error%20Parse&type_msg=error - USER ID : 340 - USER IP : ::1 - USER ROLE : 1 - BROWSER : Mozilla/5.0 (Windows NT 10.0; Win64; x64) AppleWebKit/537.36 (KHTML, like Gecko) Chrome/65.0.3325.181 Safari/537.36 - USERNAME : safari
SYSTEM LOG -- DATE :2018-04-03 12:40:44 - CLASS : data - FUNCTION : ktp - URL : localhost:8080/kaderisasi/index.php/ajax/data/ktp - USER ID : 340 - USER IP : ::1 - USER ROLE : 1 - BROWSER : Mozilla/5.0 (Windows NT 10.0; Win64; x64) AppleWebKit/537.36 (KHTML, like Gecko) Chrome/65.0.3325.181 Safari/537.36 - USERNAME : safari
SYSTEM LOG -- DATE :2018-04-03 12:40:50 - CLASS : master_anggota - FUNCTION : save_upload - URL : localhost:8080/kaderisasi/index.php/master/master_anggota/save_upload - USER ID : 340 - USER IP : ::1 - USER ROLE : 1 - BROWSER : Mozilla/5.0 (Windows NT 10.0; Win64; x64) AppleWebKit/537.36 (KHTML, like Gecko) Chrome/65.0.3325.181 Safari/537.36 - USERNAME : safari
SYSTEM LOG -- DATE :2018-04-03 12:40:50 - CLASS : master_anggota - FUNCTION : crop - URL : localhost:8080/kaderisasi/index.php/master/master_anggota/crop/?_id=obr7vgS5v%2F2yA%2BLY9OpaRJPU9yMuGUlfDrBMtihLlJre0ZN75cebH2Xjtm9pvebxZ2DjB3yL8Bj0Wp9OCz3TwQ%3D%3D - USER ID : 340 - USER IP : ::1 - USER ROLE : 1 - BROWSER : Mozilla/5.0 (Windows NT 10.0; Win64; x64) AppleWebKit/537.36 (KHTML, like Gecko) Chrome/65.0.3325.181 Safari/537.36 - USERNAME : safari
SYSTEM LOG -- DATE :2018-04-03 12:40:50 - CLASS : data - FUNCTION : kabupaten - URL : localhost:8080/kaderisasi/index.php/ajax/data/kabupaten - USER ID : 340 - USER IP : ::1 - USER ROLE : 1 - BROWSER : Mozilla/5.0 (Windows NT 10.0; Win64; x64) AppleWebKit/537.36 (KHTML, like Gecko) Chrome/65.0.3325.181 Safari/537.36 - USERNAME : safari
SYSTEM LOG -- DATE :2018-04-03 12:40:51 - CLASS : data - FUNCTION : kecamatan - URL : localhost:8080/kaderisasi/index.php/ajax/data/kecamatan - USER ID : 340 - USER IP : ::1 - USER ROLE : 1 - BROWSER : Mozilla/5.0 (Windows NT 10.0; Win64; x64) AppleWebKit/537.36 (KHTML, like Gecko) Chrome/65.0.3325.181 Safari/537.36 - USERNAME : safari
SYSTEM LOG -- DATE :2018-04-03 12:40:51 - CLASS : data - FUNCTION : kelurahan - URL : localhost:8080/kaderisasi/index.php/ajax/data/kelurahan - USER ID : 340 - USER IP : ::1 - USER ROLE : 1 - BROWSER : Mozilla/5.0 (Windows NT 10.0; Win64; x64) AppleWebKit/537.36 (KHTML, like Gecko) Chrome/65.0.3325.181 Safari/537.36 - USERNAME : safari
SYSTEM LOG -- DATE :2018-04-03 12:40:51 - CLASS : master_anggota - FUNCTION : crop - URL : localhost:8080/kaderisasi/index.php/master/master_anggota/crop/favicon.ico - USER ID : 340 - USER IP : ::1 - USER ROLE : 1 - BROWSER : Mozilla/5.0 (Windows NT 10.0; Win64; x64) AppleWebKit/537.36 (KHTML, like Gecko) Chrome/65.0.3325.181 Safari/537.36 - USERNAME : safari
SYSTEM LOG -- DATE :2018-04-03 12:40:51 - CLASS : master_anggota - FUNCTION : index - URL : localhost:8080/kaderisasi/index.php/master/master_anggota?msg=Error%20Parse&type_msg=error - USER ID : 340 - USER IP : ::1 - USER ROLE : 1 - BROWSER : Mozilla/5.0 (Windows NT 10.0; Win64; x64) AppleWebKit/537.36 (KHTML, like Gecko) Chrome/65.0.3325.181 Safari/537.36 - USERNAME : safari
