SYSTEM LOG -- DATE :2017-10-06 00:31:34 - CLASS : report_perbandingan_kta - FUNCTION : index - URL : localhost:8080/golkar/index.php/report/report_perbandingan_kta - USER ID : 340 - USER IP : ::1 - USER ROLE : 1 - BROWSER : Mozilla/5.0 (Windows NT 10.0; WOW64; rv:55.0) Gecko/20100101 Firefox/55.0 - USERNAME : safari
SYSTEM LOG -- DATE :2017-10-06 00:31:35 - CLASS : data - FUNCTION : check_login - URL : localhost:8080/golkar/index.php/ajax/data/check_login - USER ID : 340 - USER IP : ::1 - USER ROLE : 1 - BROWSER : Mozilla/5.0 (Windows NT 10.0; WOW64; rv:55.0) Gecko/20100101 Firefox/55.0 - USERNAME : safari
SYSTEM LOG -- DATE :2017-10-06 00:31:57 - CLASS : report_perbandingan_kta - FUNCTION : index - URL : localhost:8080/golkar/index.php/report/report_perbandingan_kta - USER ID : 340 - USER IP : ::1 - USER ROLE : 1 - BROWSER : Mozilla/5.0 (Windows NT 10.0; WOW64; rv:55.0) Gecko/20100101 Firefox/55.0 - USERNAME : safari
SYSTEM LOG -- DATE :2017-10-06 00:31:58 - CLASS : data - FUNCTION : check_login - URL : localhost:8080/golkar/index.php/ajax/data/check_login - USER ID : 340 - USER IP : ::1 - USER ROLE : 1 - BROWSER : Mozilla/5.0 (Windows NT 10.0; WOW64; rv:55.0) Gecko/20100101 Firefox/55.0 - USERNAME : safari
SYSTEM LOG -- DATE :2017-10-06 00:32:25 - CLASS : report_perbandingan_kta - FUNCTION : index - URL : localhost:8080/golkar/index.php/report/report_perbandingan_kta - USER ID : 340 - USER IP : ::1 - USER ROLE : 1 - BROWSER : Mozilla/5.0 (Windows NT 10.0; WOW64; rv:55.0) Gecko/20100101 Firefox/55.0 - USERNAME : safari
SYSTEM LOG -- DATE :2017-10-06 00:32:26 - CLASS : data - FUNCTION : check_login - URL : localhost:8080/golkar/index.php/ajax/data/check_login - USER ID : 340 - USER IP : ::1 - USER ROLE : 1 - BROWSER : Mozilla/5.0 (Windows NT 10.0; WOW64; rv:55.0) Gecko/20100101 Firefox/55.0 - USERNAME : safari
SYSTEM LOG -- DATE :2017-10-06 00:32:52 - CLASS : report_perbandingan_kta - FUNCTION : index - URL : localhost:8080/golkar/index.php/report/report_perbandingan_kta - USER ID : 340 - USER IP : ::1 - USER ROLE : 1 - BROWSER : Mozilla/5.0 (Windows NT 10.0; WOW64; rv:55.0) Gecko/20100101 Firefox/55.0 - USERNAME : safari
SYSTEM LOG -- DATE :2017-10-06 00:32:53 - CLASS : data - FUNCTION : check_login - URL : localhost:8080/golkar/index.php/ajax/data/check_login - USER ID : 340 - USER IP : ::1 - USER ROLE : 1 - BROWSER : Mozilla/5.0 (Windows NT 10.0; WOW64; rv:55.0) Gecko/20100101 Firefox/55.0 - USERNAME : safari
SYSTEM LOG -- DATE :2017-10-06 00:32:57 - CLASS : data - FUNCTION : kabupaten - URL : localhost:8080/golkar/index.php/ajax/data/kabupaten - USER ID : 340 - USER IP : ::1 - USER ROLE : 1 - BROWSER : Mozilla/5.0 (Windows NT 10.0; WOW64; rv:55.0) Gecko/20100101 Firefox/55.0 - USERNAME : safari
SYSTEM LOG -- DATE :2017-10-06 00:32:58 - CLASS : data - FUNCTION : check_login - URL : localhost:8080/golkar/index.php/ajax/data/check_login - USER ID : 340 - USER IP : ::1 - USER ROLE : 1 - BROWSER : Mozilla/5.0 (Windows NT 10.0; WOW64; rv:55.0) Gecko/20100101 Firefox/55.0 - USERNAME : safari
SYSTEM LOG -- DATE :2017-10-06 00:32:58 - CLASS : data - FUNCTION : kecamatan - URL : localhost:8080/golkar/index.php/ajax/data/kecamatan - USER ID : 340 - USER IP : ::1 - USER ROLE : 1 - BROWSER : Mozilla/5.0 (Windows NT 10.0; WOW64; rv:55.0) Gecko/20100101 Firefox/55.0 - USERNAME : safari
SYSTEM LOG -- DATE :2017-10-06 00:33:00 - CLASS : data - FUNCTION : kelurahan - URL : localhost:8080/golkar/index.php/ajax/data/kelurahan - USER ID : 340 - USER IP : ::1 - USER ROLE : 1 - BROWSER : Mozilla/5.0 (Windows NT 10.0; WOW64; rv:55.0) Gecko/20100101 Firefox/55.0 - USERNAME : safari
SYSTEM LOG -- DATE :2017-10-06 00:33:02 - CLASS : report_perbandingan_kta - FUNCTION : search - URL : localhost:8080/golkar/index.php/report/report_perbandingan_kta/search - USER ID : 340 - USER IP : ::1 - USER ROLE : 1 - BROWSER : Mozilla/5.0 (Windows NT 10.0; WOW64; rv:55.0) Gecko/20100101 Firefox/55.0 - USERNAME : safari
SYSTEM LOG -- DATE :2017-10-06 00:33:03 - CLASS : data - FUNCTION : kecamatan - URL : localhost:8080/golkar/index.php/ajax/data/kecamatan - USER ID : 340 - USER IP : ::1 - USER ROLE : 1 - BROWSER : Mozilla/5.0 (Windows NT 10.0; WOW64; rv:55.0) Gecko/20100101 Firefox/55.0 - USERNAME : safari
SYSTEM LOG -- DATE :2017-10-06 00:33:03 - CLASS : data - FUNCTION : kabupaten - URL : localhost:8080/golkar/index.php/ajax/data/kabupaten - USER ID : 340 - USER IP : ::1 - USER ROLE : 1 - BROWSER : Mozilla/5.0 (Windows NT 10.0; WOW64; rv:55.0) Gecko/20100101 Firefox/55.0 - USERNAME : safari
SYSTEM LOG -- DATE :2017-10-06 00:33:03 - CLASS : data - FUNCTION : kelurahan - URL : localhost:8080/golkar/index.php/ajax/data/kelurahan - USER ID : 340 - USER IP : ::1 - USER ROLE : 1 - BROWSER : Mozilla/5.0 (Windows NT 10.0; WOW64; rv:55.0) Gecko/20100101 Firefox/55.0 - USERNAME : safari
SYSTEM LOG -- DATE :2017-10-06 00:33:03 - CLASS : data - FUNCTION : check_login - URL : localhost:8080/golkar/index.php/ajax/data/check_login - USER ID : 340 - USER IP : ::1 - USER ROLE : 1 - BROWSER : Mozilla/5.0 (Windows NT 10.0; WOW64; rv:55.0) Gecko/20100101 Firefox/55.0 - USERNAME : safari
SYSTEM LOG -- DATE :2017-10-06 00:33:07 - CLASS : report_perbandingan_kta - FUNCTION : search - URL : localhost:8080/golkar/index.php/report/report_perbandingan_kta/search - USER ID : 340 - USER IP : ::1 - USER ROLE : 1 - BROWSER : Mozilla/5.0 (Windows NT 10.0; WOW64; rv:55.0) Gecko/20100101 Firefox/55.0 - USERNAME : safari
SYSTEM LOG -- DATE :2017-10-06 00:33:08 - CLASS : data - FUNCTION : kecamatan - URL : localhost:8080/golkar/index.php/ajax/data/kecamatan - USER ID : 340 - USER IP : ::1 - USER ROLE : 1 - BROWSER : Mozilla/5.0 (Windows NT 10.0; WOW64; rv:55.0) Gecko/20100101 Firefox/55.0 - USERNAME : safari
SYSTEM LOG -- DATE :2017-10-06 00:33:08 - CLASS : data - FUNCTION : kelurahan - URL : localhost:8080/golkar/index.php/ajax/data/kelurahan - USER ID : 340 - USER IP : ::1 - USER ROLE : 1 - BROWSER : Mozilla/5.0 (Windows NT 10.0; WOW64; rv:55.0) Gecko/20100101 Firefox/55.0 - USERNAME : safari
SYSTEM LOG -- DATE :2017-10-06 00:33:08 - CLASS : data - FUNCTION : kabupaten - URL : localhost:8080/golkar/index.php/ajax/data/kabupaten - USER ID : 340 - USER IP : ::1 - USER ROLE : 1 - BROWSER : Mozilla/5.0 (Windows NT 10.0; WOW64; rv:55.0) Gecko/20100101 Firefox/55.0 - USERNAME : safari
SYSTEM LOG -- DATE :2017-10-06 00:33:08 - CLASS : data - FUNCTION : check_login - URL : localhost:8080/golkar/index.php/ajax/data/check_login - USER ID : 340 - USER IP : ::1 - USER ROLE : 1 - BROWSER : Mozilla/5.0 (Windows NT 10.0; WOW64; rv:55.0) Gecko/20100101 Firefox/55.0 - USERNAME : safari
SYSTEM LOG -- DATE :2017-10-06 00:48:56 - CLASS : report_perbandingan_kta - FUNCTION : search - URL : localhost:8080/golkar/index.php/report/report_perbandingan_kta/search - USER ID : 340 - USER IP : ::1 - USER ROLE : 1 - BROWSER : Mozilla/5.0 (Windows NT 10.0; WOW64; rv:55.0) Gecko/20100101 Firefox/55.0 - USERNAME : safari
SYSTEM LOG -- DATE :2017-10-06 00:49:04 - CLASS : report_perbandingan_kta - FUNCTION : index - URL : localhost:8080/golkar/index.php/report/report_perbandingan_kta - USER ID : 340 - USER IP : ::1 - USER ROLE : 1 - BROWSER : Mozilla/5.0 (Windows NT 10.0; WOW64; rv:55.0) Gecko/20100101 Firefox/55.0 - USERNAME : safari
SYSTEM LOG -- DATE :2017-10-06 00:49:05 - CLASS : data - FUNCTION : check_login - URL : localhost:8080/golkar/index.php/ajax/data/check_login - USER ID : 340 - USER IP : ::1 - USER ROLE : 1 - BROWSER : Mozilla/5.0 (Windows NT 10.0; WOW64; rv:55.0) Gecko/20100101 Firefox/55.0 - USERNAME : safari
SYSTEM LOG -- DATE :2017-10-06 00:54:40 - CLASS : report_perbandingan_kta - FUNCTION : index - URL : localhost:8080/golkar/index.php/report/report_perbandingan_kta - USER ID : 340 - USER IP : ::1 - USER ROLE : 1 - BROWSER : Mozilla/5.0 (Windows NT 10.0; WOW64; rv:55.0) Gecko/20100101 Firefox/55.0 - USERNAME : safari
SYSTEM LOG -- DATE :2017-10-06 00:54:43 - CLASS : data - FUNCTION : check_login - URL : localhost:8080/golkar/index.php/ajax/data/check_login - USER ID : 340 - USER IP : ::1 - USER ROLE : 1 - BROWSER : Mozilla/5.0 (Windows NT 10.0; WOW64; rv:55.0) Gecko/20100101 Firefox/55.0 - USERNAME : safari
SYSTEM LOG -- DATE :2017-10-06 11:16:16 - CLASS : me - FUNCTION : index - URL : localhost:8080/golkar/index.php/meme/me - USER ID : 340 - USER IP : ::1 - USER ROLE : 1 - BROWSER : Mozilla/5.0 (Windows NT 10.0; WOW64; rv:56.0) Gecko/20100101 Firefox/56.0 - USERNAME : safari
SYSTEM LOG -- DATE :2017-10-06 11:16:18 - CLASS : data - FUNCTION : check_login - URL : localhost:8080/golkar/index.php/ajax/data/check_login - USER ID : 340 - USER IP : ::1 - USER ROLE : 1 - BROWSER : Mozilla/5.0 (Windows NT 10.0; WOW64; rv:56.0) Gecko/20100101 Firefox/56.0 - USERNAME : safari
SYSTEM LOG -- DATE :2017-10-06 11:16:22 - CLASS : report_perbandingan_kta - FUNCTION : index - URL : localhost:8080/golkar/index.php/report/report_perbandingan_kta - USER ID : 340 - USER IP : ::1 - USER ROLE : 1 - BROWSER : Mozilla/5.0 (Windows NT 10.0; WOW64; rv:56.0) Gecko/20100101 Firefox/56.0 - USERNAME : safari
SYSTEM LOG -- DATE :2017-10-06 11:16:23 - CLASS : data - FUNCTION : check_login - URL : localhost:8080/golkar/index.php/ajax/data/check_login - USER ID : 340 - USER IP : ::1 - USER ROLE : 1 - BROWSER : Mozilla/5.0 (Windows NT 10.0; WOW64; rv:56.0) Gecko/20100101 Firefox/56.0 - USERNAME : safari
SYSTEM LOG -- DATE :2017-10-06 11:16:25 - CLASS : data - FUNCTION : kabupaten - URL : localhost:8080/golkar/index.php/ajax/data/kabupaten - USER ID : 340 - USER IP : ::1 - USER ROLE : 1 - BROWSER : Mozilla/5.0 (Windows NT 10.0; WOW64; rv:56.0) Gecko/20100101 Firefox/56.0 - USERNAME : safari
SYSTEM LOG -- DATE :2017-10-06 11:16:27 - CLASS : data - FUNCTION : kecamatan - URL : localhost:8080/golkar/index.php/ajax/data/kecamatan - USER ID : 340 - USER IP : ::1 - USER ROLE : 1 - BROWSER : Mozilla/5.0 (Windows NT 10.0; WOW64; rv:56.0) Gecko/20100101 Firefox/56.0 - USERNAME : safari
SYSTEM LOG -- DATE :2017-10-06 11:16:28 - CLASS : data - FUNCTION : check_login - URL : localhost:8080/golkar/index.php/ajax/data/check_login - USER ID : 340 - USER IP : ::1 - USER ROLE : 1 - BROWSER : Mozilla/5.0 (Windows NT 10.0; WOW64; rv:56.0) Gecko/20100101 Firefox/56.0 - USERNAME : safari
SYSTEM LOG -- DATE :2017-10-06 11:16:30 - CLASS : data - FUNCTION : kelurahan - URL : localhost:8080/golkar/index.php/ajax/data/kelurahan - USER ID : 340 - USER IP : ::1 - USER ROLE : 1 - BROWSER : Mozilla/5.0 (Windows NT 10.0; WOW64; rv:56.0) Gecko/20100101 Firefox/56.0 - USERNAME : safari
SYSTEM LOG -- DATE :2017-10-06 11:16:31 - CLASS : report_perbandingan_kta - FUNCTION : search - URL : localhost:8080/golkar/index.php/report/report_perbandingan_kta/search - USER ID : 340 - USER IP : ::1 - USER ROLE : 1 - BROWSER : Mozilla/5.0 (Windows NT 10.0; WOW64; rv:56.0) Gecko/20100101 Firefox/56.0 - USERNAME : safari
SYSTEM LOG -- DATE :2017-10-06 11:16:31 - CLASS : data - FUNCTION : kabupaten - URL : localhost:8080/golkar/index.php/ajax/data/kabupaten - USER ID : 340 - USER IP : ::1 - USER ROLE : 1 - BROWSER : Mozilla/5.0 (Windows NT 10.0; WOW64; rv:56.0) Gecko/20100101 Firefox/56.0 - USERNAME : safari
SYSTEM LOG -- DATE :2017-10-06 11:16:32 - CLASS : data - FUNCTION : kecamatan - URL : localhost:8080/golkar/index.php/ajax/data/kecamatan - USER ID : 340 - USER IP : ::1 - USER ROLE : 1 - BROWSER : Mozilla/5.0 (Windows NT 10.0; WOW64; rv:56.0) Gecko/20100101 Firefox/56.0 - USERNAME : safari
SYSTEM LOG -- DATE :2017-10-06 11:16:32 - CLASS : data - FUNCTION : kelurahan - URL : localhost:8080/golkar/index.php/ajax/data/kelurahan - USER ID : 340 - USER IP : ::1 - USER ROLE : 1 - BROWSER : Mozilla/5.0 (Windows NT 10.0; WOW64; rv:56.0) Gecko/20100101 Firefox/56.0 - USERNAME : safari
SYSTEM LOG -- DATE :2017-10-06 11:16:32 - CLASS : data - FUNCTION : check_login - URL : localhost:8080/golkar/index.php/ajax/data/check_login - USER ID : 340 - USER IP : ::1 - USER ROLE : 1 - BROWSER : Mozilla/5.0 (Windows NT 10.0; WOW64; rv:56.0) Gecko/20100101 Firefox/56.0 - USERNAME : safari
SYSTEM LOG -- DATE :2017-10-06 11:16:34 - CLASS : data - FUNCTION : kelurahan - URL : localhost:8080/golkar/index.php/ajax/data/kelurahan - USER ID : 340 - USER IP : ::1 - USER ROLE : 1 - BROWSER : Mozilla/5.0 (Windows NT 10.0; WOW64; rv:56.0) Gecko/20100101 Firefox/56.0 - USERNAME : safari
SYSTEM LOG -- DATE :2017-10-06 11:16:35 - CLASS : report_perbandingan_kta - FUNCTION : search - URL : localhost:8080/golkar/index.php/report/report_perbandingan_kta/search - USER ID : 340 - USER IP : ::1 - USER ROLE : 1 - BROWSER : Mozilla/5.0 (Windows NT 10.0; WOW64; rv:56.0) Gecko/20100101 Firefox/56.0 - USERNAME : safari
SYSTEM LOG -- DATE :2017-10-06 11:16:35 - CLASS : data - FUNCTION : kabupaten - URL : localhost:8080/golkar/index.php/ajax/data/kabupaten - USER ID : 340 - USER IP : ::1 - USER ROLE : 1 - BROWSER : Mozilla/5.0 (Windows NT 10.0; WOW64; rv:56.0) Gecko/20100101 Firefox/56.0 - USERNAME : safari
SYSTEM LOG -- DATE :2017-10-06 11:16:35 - CLASS : data - FUNCTION : kecamatan - URL : localhost:8080/golkar/index.php/ajax/data/kecamatan - USER ID : 340 - USER IP : ::1 - USER ROLE : 1 - BROWSER : Mozilla/5.0 (Windows NT 10.0; WOW64; rv:56.0) Gecko/20100101 Firefox/56.0 - USERNAME : safari
SYSTEM LOG -- DATE :2017-10-06 11:16:36 - CLASS : data - FUNCTION : kelurahan - URL : localhost:8080/golkar/index.php/ajax/data/kelurahan - USER ID : 340 - USER IP : ::1 - USER ROLE : 1 - BROWSER : Mozilla/5.0 (Windows NT 10.0; WOW64; rv:56.0) Gecko/20100101 Firefox/56.0 - USERNAME : safari
SYSTEM LOG -- DATE :2017-10-06 11:16:36 - CLASS : data - FUNCTION : check_login - URL : localhost:8080/golkar/index.php/ajax/data/check_login - USER ID : 340 - USER IP : ::1 - USER ROLE : 1 - BROWSER : Mozilla/5.0 (Windows NT 10.0; WOW64; rv:56.0) Gecko/20100101 Firefox/56.0 - USERNAME : safari
SYSTEM LOG -- DATE :2017-10-06 11:16:38 - CLASS : data - FUNCTION : kecamatan - URL : localhost:8080/golkar/index.php/ajax/data/kecamatan - USER ID : 340 - USER IP : ::1 - USER ROLE : 1 - BROWSER : Mozilla/5.0 (Windows NT 10.0; WOW64; rv:56.0) Gecko/20100101 Firefox/56.0 - USERNAME : safari
SYSTEM LOG -- DATE :2017-10-06 11:16:40 - CLASS : data - FUNCTION : kelurahan - URL : localhost:8080/golkar/index.php/ajax/data/kelurahan - USER ID : 340 - USER IP : ::1 - USER ROLE : 1 - BROWSER : Mozilla/5.0 (Windows NT 10.0; WOW64; rv:56.0) Gecko/20100101 Firefox/56.0 - USERNAME : safari
SYSTEM LOG -- DATE :2017-10-06 11:16:41 - CLASS : data - FUNCTION : check_login - URL : localhost:8080/golkar/index.php/ajax/data/check_login - USER ID : 340 - USER IP : ::1 - USER ROLE : 1 - BROWSER : Mozilla/5.0 (Windows NT 10.0; WOW64; rv:56.0) Gecko/20100101 Firefox/56.0 - USERNAME : safari
SYSTEM LOG -- DATE :2017-10-06 11:16:41 - CLASS : report_perbandingan_kta - FUNCTION : search - URL : localhost:8080/golkar/index.php/report/report_perbandingan_kta/search - USER ID : 340 - USER IP : ::1 - USER ROLE : 1 - BROWSER : Mozilla/5.0 (Windows NT 10.0; WOW64; rv:56.0) Gecko/20100101 Firefox/56.0 - USERNAME : safari
SYSTEM LOG -- DATE :2017-10-06 11:16:43 - CLASS : data - FUNCTION : kabupaten - URL : localhost:8080/golkar/index.php/ajax/data/kabupaten - USER ID : 340 - USER IP : ::1 - USER ROLE : 1 - BROWSER : Mozilla/5.0 (Windows NT 10.0; WOW64; rv:56.0) Gecko/20100101 Firefox/56.0 - USERNAME : safari
SYSTEM LOG -- DATE :2017-10-06 11:16:43 - CLASS : data - FUNCTION : kecamatan - URL : localhost:8080/golkar/index.php/ajax/data/kecamatan - USER ID : 340 - USER IP : ::1 - USER ROLE : 1 - BROWSER : Mozilla/5.0 (Windows NT 10.0; WOW64; rv:56.0) Gecko/20100101 Firefox/56.0 - USERNAME : safari
SYSTEM LOG -- DATE :2017-10-06 11:16:43 - CLASS : data - FUNCTION : kelurahan - URL : localhost:8080/golkar/index.php/ajax/data/kelurahan - USER ID : 340 - USER IP : ::1 - USER ROLE : 1 - BROWSER : Mozilla/5.0 (Windows NT 10.0; WOW64; rv:56.0) Gecko/20100101 Firefox/56.0 - USERNAME : safari
SYSTEM LOG -- DATE :2017-10-06 11:16:43 - CLASS : data - FUNCTION : check_login - URL : localhost:8080/golkar/index.php/ajax/data/check_login - USER ID : 340 - USER IP : ::1 - USER ROLE : 1 - BROWSER : Mozilla/5.0 (Windows NT 10.0; WOW64; rv:56.0) Gecko/20100101 Firefox/56.0 - USERNAME : safari
SYSTEM LOG -- DATE :2017-10-06 11:17:01 - CLASS : report_perbandingan_kta - FUNCTION : search - URL : localhost:8080/golkar/index.php/report/report_perbandingan_kta/search - USER ID : 340 - USER IP : ::1 - USER ROLE : 1 - BROWSER : Mozilla/5.0 (Windows NT 10.0; WOW64; rv:56.0) Gecko/20100101 Firefox/56.0 - USERNAME : safari
SYSTEM LOG -- DATE :2017-10-06 11:18:20 - CLASS : data - FUNCTION : kabupaten - URL : localhost:8080/golkar/index.php/ajax/data/kabupaten - USER ID : 340 - USER IP : ::1 - USER ROLE : 1 - BROWSER : Mozilla/5.0 (Windows NT 10.0; WOW64; rv:56.0) Gecko/20100101 Firefox/56.0 - USERNAME : safari
SYSTEM LOG -- DATE :2017-10-06 11:18:20 - CLASS : data - FUNCTION : kecamatan - URL : localhost:8080/golkar/index.php/ajax/data/kecamatan - USER ID : 340 - USER IP : ::1 - USER ROLE : 1 - BROWSER : Mozilla/5.0 (Windows NT 10.0; WOW64; rv:56.0) Gecko/20100101 Firefox/56.0 - USERNAME : safari
SYSTEM LOG -- DATE :2017-10-06 11:18:20 - CLASS : data - FUNCTION : kelurahan - URL : localhost:8080/golkar/index.php/ajax/data/kelurahan - USER ID : 340 - USER IP : ::1 - USER ROLE : 1 - BROWSER : Mozilla/5.0 (Windows NT 10.0; WOW64; rv:56.0) Gecko/20100101 Firefox/56.0 - USERNAME : safari
SYSTEM LOG -- DATE :2017-10-06 11:18:21 - CLASS : data - FUNCTION : check_login - URL : localhost:8080/golkar/index.php/ajax/data/check_login - USER ID : 340 - USER IP : ::1 - USER ROLE : 1 - BROWSER : Mozilla/5.0 (Windows NT 10.0; WOW64; rv:56.0) Gecko/20100101 Firefox/56.0 - USERNAME : safari
SYSTEM LOG -- DATE :2017-10-06 11:18:34 - CLASS : report_perbandingan_kta - FUNCTION : search - URL : localhost:8080/golkar/index.php/report/report_perbandingan_kta/search - USER ID : 340 - USER IP : ::1 - USER ROLE : 1 - BROWSER : Mozilla/5.0 (Windows NT 10.0; WOW64; rv:56.0) Gecko/20100101 Firefox/56.0 - USERNAME : safari
SYSTEM LOG -- DATE :2017-10-06 11:18:35 - CLASS : data - FUNCTION : kabupaten - URL : localhost:8080/golkar/index.php/ajax/data/kabupaten - USER ID : 340 - USER IP : ::1 - USER ROLE : 1 - BROWSER : Mozilla/5.0 (Windows NT 10.0; WOW64; rv:56.0) Gecko/20100101 Firefox/56.0 - USERNAME : safari
SYSTEM LOG -- DATE :2017-10-06 11:18:35 - CLASS : data - FUNCTION : kecamatan - URL : localhost:8080/golkar/index.php/ajax/data/kecamatan - USER ID : 340 - USER IP : ::1 - USER ROLE : 1 - BROWSER : Mozilla/5.0 (Windows NT 10.0; WOW64; rv:56.0) Gecko/20100101 Firefox/56.0 - USERNAME : safari
SYSTEM LOG -- DATE :2017-10-06 11:18:36 - CLASS : data - FUNCTION : kelurahan - URL : localhost:8080/golkar/index.php/ajax/data/kelurahan - USER ID : 340 - USER IP : ::1 - USER ROLE : 1 - BROWSER : Mozilla/5.0 (Windows NT 10.0; WOW64; rv:56.0) Gecko/20100101 Firefox/56.0 - USERNAME : safari
SYSTEM LOG -- DATE :2017-10-06 11:18:36 - CLASS : data - FUNCTION : check_login - URL : localhost:8080/golkar/index.php/ajax/data/check_login - USER ID : 340 - USER IP : ::1 - USER ROLE : 1 - BROWSER : Mozilla/5.0 (Windows NT 10.0; WOW64; rv:56.0) Gecko/20100101 Firefox/56.0 - USERNAME : safari
SYSTEM LOG -- DATE :2017-10-06 11:18:57 - CLASS : report_perbandingan_kta - FUNCTION : search - URL : localhost:8080/golkar/index.php/report/report_perbandingan_kta/search - USER ID : 340 - USER IP : ::1 - USER ROLE : 1 - BROWSER : Mozilla/5.0 (Windows NT 10.0; WOW64; rv:56.0) Gecko/20100101 Firefox/56.0 - USERNAME : safari
SYSTEM LOG -- DATE :2017-10-06 11:18:58 - CLASS : data - FUNCTION : kabupaten - URL : localhost:8080/golkar/index.php/ajax/data/kabupaten - USER ID : 340 - USER IP : ::1 - USER ROLE : 1 - BROWSER : Mozilla/5.0 (Windows NT 10.0; WOW64; rv:56.0) Gecko/20100101 Firefox/56.0 - USERNAME : safari
SYSTEM LOG -- DATE :2017-10-06 11:18:58 - CLASS : data - FUNCTION : kecamatan - URL : localhost:8080/golkar/index.php/ajax/data/kecamatan - USER ID : 340 - USER IP : ::1 - USER ROLE : 1 - BROWSER : Mozilla/5.0 (Windows NT 10.0; WOW64; rv:56.0) Gecko/20100101 Firefox/56.0 - USERNAME : safari
SYSTEM LOG -- DATE :2017-10-06 11:18:58 - CLASS : data - FUNCTION : kelurahan - URL : localhost:8080/golkar/index.php/ajax/data/kelurahan - USER ID : 340 - USER IP : ::1 - USER ROLE : 1 - BROWSER : Mozilla/5.0 (Windows NT 10.0; WOW64; rv:56.0) Gecko/20100101 Firefox/56.0 - USERNAME : safari
SYSTEM LOG -- DATE :2017-10-06 11:18:59 - CLASS : data - FUNCTION : check_login - URL : localhost:8080/golkar/index.php/ajax/data/check_login - USER ID : 340 - USER IP : ::1 - USER ROLE : 1 - BROWSER : Mozilla/5.0 (Windows NT 10.0; WOW64; rv:56.0) Gecko/20100101 Firefox/56.0 - USERNAME : safari
SYSTEM LOG -- DATE :2017-10-06 11:19:03 - CLASS : report_perbandingan_kta - FUNCTION : search - URL : localhost:8080/golkar/index.php/report/report_perbandingan_kta/search - USER ID : 340 - USER IP : ::1 - USER ROLE : 1 - BROWSER : Mozilla/5.0 (Windows NT 10.0; WOW64; rv:56.0) Gecko/20100101 Firefox/56.0 - USERNAME : safari
SYSTEM LOG -- DATE :2017-10-06 11:19:04 - CLASS : data - FUNCTION : check_login - URL : localhost:8080/golkar/index.php/ajax/data/check_login - USER ID : 340 - USER IP : ::1 - USER ROLE : 1 - BROWSER : Mozilla/5.0 (Windows NT 10.0; WOW64; rv:56.0) Gecko/20100101 Firefox/56.0 - USERNAME : safari
SYSTEM LOG -- DATE :2017-10-06 11:19:04 - CLASS : data - FUNCTION : kabupaten - URL : localhost:8080/golkar/index.php/ajax/data/kabupaten - USER ID : 340 - USER IP : ::1 - USER ROLE : 1 - BROWSER : Mozilla/5.0 (Windows NT 10.0; WOW64; rv:56.0) Gecko/20100101 Firefox/56.0 - USERNAME : safari
SYSTEM LOG -- DATE :2017-10-06 11:19:04 - CLASS : data - FUNCTION : kecamatan - URL : localhost:8080/golkar/index.php/ajax/data/kecamatan - USER ID : 340 - USER IP : ::1 - USER ROLE : 1 - BROWSER : Mozilla/5.0 (Windows NT 10.0; WOW64; rv:56.0) Gecko/20100101 Firefox/56.0 - USERNAME : safari
SYSTEM LOG -- DATE :2017-10-06 11:19:04 - CLASS : data - FUNCTION : kelurahan - URL : localhost:8080/golkar/index.php/ajax/data/kelurahan - USER ID : 340 - USER IP : ::1 - USER ROLE : 1 - BROWSER : Mozilla/5.0 (Windows NT 10.0; WOW64; rv:56.0) Gecko/20100101 Firefox/56.0 - USERNAME : safari
SYSTEM LOG -- DATE :2017-10-06 11:19:05 - CLASS : data - FUNCTION : check_login - URL : localhost:8080/golkar/index.php/ajax/data/check_login - USER ID : 340 - USER IP : ::1 - USER ROLE : 1 - BROWSER : Mozilla/5.0 (Windows NT 10.0; WOW64; rv:56.0) Gecko/20100101 Firefox/56.0 - USERNAME : safari
SYSTEM LOG -- DATE :2017-10-06 11:19:15 - CLASS : report_perbandingan_kta - FUNCTION : search - URL : localhost:8080/golkar/index.php/report/report_perbandingan_kta/search - USER ID : 340 - USER IP : ::1 - USER ROLE : 1 - BROWSER : Mozilla/5.0 (Windows NT 10.0; WOW64; rv:56.0) Gecko/20100101 Firefox/56.0 - USERNAME : safari
SYSTEM LOG -- DATE :2017-10-06 11:19:16 - CLASS : data - FUNCTION : check_login - URL : localhost:8080/golkar/index.php/ajax/data/check_login - USER ID : 340 - USER IP : ::1 - USER ROLE : 1 - BROWSER : Mozilla/5.0 (Windows NT 10.0; WOW64; rv:56.0) Gecko/20100101 Firefox/56.0 - USERNAME : safari
SYSTEM LOG -- DATE :2017-10-06 11:19:16 - CLASS : data - FUNCTION : kabupaten - URL : localhost:8080/golkar/index.php/ajax/data/kabupaten - USER ID : 340 - USER IP : ::1 - USER ROLE : 1 - BROWSER : Mozilla/5.0 (Windows NT 10.0; WOW64; rv:56.0) Gecko/20100101 Firefox/56.0 - USERNAME : safari
SYSTEM LOG -- DATE :2017-10-06 11:19:16 - CLASS : data - FUNCTION : kecamatan - URL : localhost:8080/golkar/index.php/ajax/data/kecamatan - USER ID : 340 - USER IP : ::1 - USER ROLE : 1 - BROWSER : Mozilla/5.0 (Windows NT 10.0; WOW64; rv:56.0) Gecko/20100101 Firefox/56.0 - USERNAME : safari
SYSTEM LOG -- DATE :2017-10-06 11:19:16 - CLASS : data - FUNCTION : kelurahan - URL : localhost:8080/golkar/index.php/ajax/data/kelurahan - USER ID : 340 - USER IP : ::1 - USER ROLE : 1 - BROWSER : Mozilla/5.0 (Windows NT 10.0; WOW64; rv:56.0) Gecko/20100101 Firefox/56.0 - USERNAME : safari
SYSTEM LOG -- DATE :2017-10-06 11:19:17 - CLASS : data - FUNCTION : check_login - URL : localhost:8080/golkar/index.php/ajax/data/check_login - USER ID : 340 - USER IP : ::1 - USER ROLE : 1 - BROWSER : Mozilla/5.0 (Windows NT 10.0; WOW64; rv:56.0) Gecko/20100101 Firefox/56.0 - USERNAME : safari
SYSTEM LOG -- DATE :2017-10-06 11:21:41 - CLASS : report_perbandingan_kta - FUNCTION : search - URL : localhost:8080/golkar/index.php/report/report_perbandingan_kta/search - USER ID : 340 - USER IP : ::1 - USER ROLE : 1 - BROWSER : Mozilla/5.0 (Windows NT 10.0; WOW64; rv:56.0) Gecko/20100101 Firefox/56.0 - USERNAME : safari
SYSTEM LOG -- DATE :2017-10-06 11:21:42 - CLASS : data - FUNCTION : kabupaten - URL : localhost:8080/golkar/index.php/ajax/data/kabupaten - USER ID : 340 - USER IP : ::1 - USER ROLE : 1 - BROWSER : Mozilla/5.0 (Windows NT 10.0; WOW64; rv:56.0) Gecko/20100101 Firefox/56.0 - USERNAME : safari
SYSTEM LOG -- DATE :2017-10-06 11:21:42 - CLASS : data - FUNCTION : kecamatan - URL : localhost:8080/golkar/index.php/ajax/data/kecamatan - USER ID : 340 - USER IP : ::1 - USER ROLE : 1 - BROWSER : Mozilla/5.0 (Windows NT 10.0; WOW64; rv:56.0) Gecko/20100101 Firefox/56.0 - USERNAME : safari
SYSTEM LOG -- DATE :2017-10-06 11:21:42 - CLASS : data - FUNCTION : kelurahan - URL : localhost:8080/golkar/index.php/ajax/data/kelurahan - USER ID : 340 - USER IP : ::1 - USER ROLE : 1 - BROWSER : Mozilla/5.0 (Windows NT 10.0; WOW64; rv:56.0) Gecko/20100101 Firefox/56.0 - USERNAME : safari
SYSTEM LOG -- DATE :2017-10-06 11:21:43 - CLASS : data - FUNCTION : check_login - URL : localhost:8080/golkar/index.php/ajax/data/check_login - USER ID : 340 - USER IP : ::1 - USER ROLE : 1 - BROWSER : Mozilla/5.0 (Windows NT 10.0; WOW64; rv:56.0) Gecko/20100101 Firefox/56.0 - USERNAME : safari
SYSTEM LOG -- DATE :2017-10-06 11:21:50 - CLASS : report_perbandingan_kta - FUNCTION : search - URL : localhost:8080/golkar/index.php/report/report_perbandingan_kta/search - USER ID : 340 - USER IP : ::1 - USER ROLE : 1 - BROWSER : Mozilla/5.0 (Windows NT 10.0; WOW64; rv:56.0) Gecko/20100101 Firefox/56.0 - USERNAME : safari
SYSTEM LOG -- DATE :2017-10-06 11:21:53 - CLASS : data - FUNCTION : check_login - URL : localhost:8080/golkar/index.php/ajax/data/check_login - USER ID : 340 - USER IP : ::1 - USER ROLE : 1 - BROWSER : Mozilla/5.0 (Windows NT 10.0; WOW64; rv:56.0) Gecko/20100101 Firefox/56.0 - USERNAME : safari
SYSTEM LOG -- DATE :2017-10-06 11:25:13 - CLASS : report_perbandingan_kta - FUNCTION : search - URL : localhost:8080/golkar/index.php/report/report_perbandingan_kta/search - USER ID : 340 - USER IP : ::1 - USER ROLE : 1 - BROWSER : Mozilla/5.0 (Windows NT 10.0; WOW64; rv:56.0) Gecko/20100101 Firefox/56.0 - USERNAME : safari
SYSTEM LOG -- DATE :2017-10-06 11:25:14 - CLASS : data - FUNCTION : check_login - URL : localhost:8080/golkar/index.php/ajax/data/check_login - USER ID : 340 - USER IP : ::1 - USER ROLE : 1 - BROWSER : Mozilla/5.0 (Windows NT 10.0; WOW64; rv:56.0) Gecko/20100101 Firefox/56.0 - USERNAME : safari
SYSTEM LOG -- DATE :2017-10-06 11:25:15 - CLASS : data - FUNCTION : kabupaten - URL : localhost:8080/golkar/index.php/ajax/data/kabupaten - USER ID : 340 - USER IP : ::1 - USER ROLE : 1 - BROWSER : Mozilla/5.0 (Windows NT 10.0; WOW64; rv:56.0) Gecko/20100101 Firefox/56.0 - USERNAME : safari
SYSTEM LOG -- DATE :2017-10-06 11:25:15 - CLASS : data - FUNCTION : kecamatan - URL : localhost:8080/golkar/index.php/ajax/data/kecamatan - USER ID : 340 - USER IP : ::1 - USER ROLE : 1 - BROWSER : Mozilla/5.0 (Windows NT 10.0; WOW64; rv:56.0) Gecko/20100101 Firefox/56.0 - USERNAME : safari
SYSTEM LOG -- DATE :2017-10-06 11:25:15 - CLASS : data - FUNCTION : kelurahan - URL : localhost:8080/golkar/index.php/ajax/data/kelurahan - USER ID : 340 - USER IP : ::1 - USER ROLE : 1 - BROWSER : Mozilla/5.0 (Windows NT 10.0; WOW64; rv:56.0) Gecko/20100101 Firefox/56.0 - USERNAME : safari
SYSTEM LOG -- DATE :2017-10-06 11:25:15 - CLASS : data - FUNCTION : check_login - URL : localhost:8080/golkar/index.php/ajax/data/check_login - USER ID : 340 - USER IP : ::1 - USER ROLE : 1 - BROWSER : Mozilla/5.0 (Windows NT 10.0; WOW64; rv:56.0) Gecko/20100101 Firefox/56.0 - USERNAME : safari
SYSTEM LOG -- DATE :2017-10-06 11:25:20 - CLASS : data - FUNCTION : kelurahan - URL : localhost:8080/golkar/index.php/ajax/data/kelurahan - USER ID : 340 - USER IP : ::1 - USER ROLE : 1 - BROWSER : Mozilla/5.0 (Windows NT 10.0; WOW64; rv:56.0) Gecko/20100101 Firefox/56.0 - USERNAME : safari
SYSTEM LOG -- DATE :2017-10-06 11:25:20 - CLASS : data - FUNCTION : check_login - URL : localhost:8080/golkar/index.php/ajax/data/check_login - USER ID : 340 - USER IP : ::1 - USER ROLE : 1 - BROWSER : Mozilla/5.0 (Windows NT 10.0; WOW64; rv:56.0) Gecko/20100101 Firefox/56.0 - USERNAME : safari
SYSTEM LOG -- DATE :2017-10-06 11:25:21 - CLASS : report_perbandingan_kta - FUNCTION : search - URL : localhost:8080/golkar/index.php/report/report_perbandingan_kta/search - USER ID : 340 - USER IP : ::1 - USER ROLE : 1 - BROWSER : Mozilla/5.0 (Windows NT 10.0; WOW64; rv:56.0) Gecko/20100101 Firefox/56.0 - USERNAME : safari
SYSTEM LOG -- DATE :2017-10-06 11:25:22 - CLASS : data - FUNCTION : kabupaten - URL : localhost:8080/golkar/index.php/ajax/data/kabupaten - USER ID : 340 - USER IP : ::1 - USER ROLE : 1 - BROWSER : Mozilla/5.0 (Windows NT 10.0; WOW64; rv:56.0) Gecko/20100101 Firefox/56.0 - USERNAME : safari
SYSTEM LOG -- DATE :2017-10-06 11:25:22 - CLASS : data - FUNCTION : kecamatan - URL : localhost:8080/golkar/index.php/ajax/data/kecamatan - USER ID : 340 - USER IP : ::1 - USER ROLE : 1 - BROWSER : Mozilla/5.0 (Windows NT 10.0; WOW64; rv:56.0) Gecko/20100101 Firefox/56.0 - USERNAME : safari
SYSTEM LOG -- DATE :2017-10-06 11:25:22 - CLASS : data - FUNCTION : kelurahan - URL : localhost:8080/golkar/index.php/ajax/data/kelurahan - USER ID : 340 - USER IP : ::1 - USER ROLE : 1 - BROWSER : Mozilla/5.0 (Windows NT 10.0; WOW64; rv:56.0) Gecko/20100101 Firefox/56.0 - USERNAME : safari
SYSTEM LOG -- DATE :2017-10-06 11:25:23 - CLASS : data - FUNCTION : check_login - URL : localhost:8080/golkar/index.php/ajax/data/check_login - USER ID : 340 - USER IP : ::1 - USER ROLE : 1 - BROWSER : Mozilla/5.0 (Windows NT 10.0; WOW64; rv:56.0) Gecko/20100101 Firefox/56.0 - USERNAME : safari
SYSTEM LOG -- DATE :2017-10-06 11:26:49 - CLASS : report_perbandingan_kta - FUNCTION : search - URL : localhost:8080/golkar/index.php/report/report_perbandingan_kta/search - USER ID : 340 - USER IP : ::1 - USER ROLE : 1 - BROWSER : Mozilla/5.0 (Windows NT 10.0; WOW64; rv:56.0) Gecko/20100101 Firefox/56.0 - USERNAME : safari
SYSTEM LOG -- DATE :2017-10-06 11:26:50 - CLASS : data - FUNCTION : kabupaten - URL : localhost:8080/golkar/index.php/ajax/data/kabupaten - USER ID : 340 - USER IP : ::1 - USER ROLE : 1 - BROWSER : Mozilla/5.0 (Windows NT 10.0; WOW64; rv:56.0) Gecko/20100101 Firefox/56.0 - USERNAME : safari
SYSTEM LOG -- DATE :2017-10-06 11:26:50 - CLASS : data - FUNCTION : kecamatan - URL : localhost:8080/golkar/index.php/ajax/data/kecamatan - USER ID : 340 - USER IP : ::1 - USER ROLE : 1 - BROWSER : Mozilla/5.0 (Windows NT 10.0; WOW64; rv:56.0) Gecko/20100101 Firefox/56.0 - USERNAME : safari
SYSTEM LOG -- DATE :2017-10-06 11:26:50 - CLASS : data - FUNCTION : kelurahan - URL : localhost:8080/golkar/index.php/ajax/data/kelurahan - USER ID : 340 - USER IP : ::1 - USER ROLE : 1 - BROWSER : Mozilla/5.0 (Windows NT 10.0; WOW64; rv:56.0) Gecko/20100101 Firefox/56.0 - USERNAME : safari
SYSTEM LOG -- DATE :2017-10-06 11:26:50 - CLASS : data - FUNCTION : check_login - URL : localhost:8080/golkar/index.php/ajax/data/check_login - USER ID : 340 - USER IP : ::1 - USER ROLE : 1 - BROWSER : Mozilla/5.0 (Windows NT 10.0; WOW64; rv:56.0) Gecko/20100101 Firefox/56.0 - USERNAME : safari
SYSTEM LOG -- DATE :2017-10-06 11:26:52 - CLASS : data - FUNCTION : kelurahan - URL : localhost:8080/golkar/index.php/ajax/data/kelurahan - USER ID : 340 - USER IP : ::1 - USER ROLE : 1 - BROWSER : Mozilla/5.0 (Windows NT 10.0; WOW64; rv:56.0) Gecko/20100101 Firefox/56.0 - USERNAME : safari
SYSTEM LOG -- DATE :2017-10-06 11:26:52 - CLASS : report_perbandingan_kta - FUNCTION : search - URL : localhost:8080/golkar/index.php/report/report_perbandingan_kta/search - USER ID : 340 - USER IP : ::1 - USER ROLE : 1 - BROWSER : Mozilla/5.0 (Windows NT 10.0; WOW64; rv:56.0) Gecko/20100101 Firefox/56.0 - USERNAME : safari
SYSTEM LOG -- DATE :2017-10-06 11:26:56 - CLASS : data - FUNCTION : kabupaten - URL : localhost:8080/golkar/index.php/ajax/data/kabupaten - USER ID : 340 - USER IP : ::1 - USER ROLE : 1 - BROWSER : Mozilla/5.0 (Windows NT 10.0; WOW64; rv:56.0) Gecko/20100101 Firefox/56.0 - USERNAME : safari
SYSTEM LOG -- DATE :2017-10-06 11:26:56 - CLASS : data - FUNCTION : kecamatan - URL : localhost:8080/golkar/index.php/ajax/data/kecamatan - USER ID : 340 - USER IP : ::1 - USER ROLE : 1 - BROWSER : Mozilla/5.0 (Windows NT 10.0; WOW64; rv:56.0) Gecko/20100101 Firefox/56.0 - USERNAME : safari
SYSTEM LOG -- DATE :2017-10-06 11:26:57 - CLASS : data - FUNCTION : check_login - URL : localhost:8080/golkar/index.php/ajax/data/check_login - USER ID : 340 - USER IP : ::1 - USER ROLE : 1 - BROWSER : Mozilla/5.0 (Windows NT 10.0; WOW64; rv:56.0) Gecko/20100101 Firefox/56.0 - USERNAME : safari
SYSTEM LOG -- DATE :2017-10-06 11:27:11 - CLASS : report_perbandingan_kta - FUNCTION : search - URL : localhost:8080/golkar/index.php/report/report_perbandingan_kta/search - USER ID : 340 - USER IP : ::1 - USER ROLE : 1 - BROWSER : Mozilla/5.0 (Windows NT 10.0; WOW64; rv:56.0) Gecko/20100101 Firefox/56.0 - USERNAME : safari
SYSTEM LOG -- DATE :2017-10-06 11:27:17 - CLASS : data - FUNCTION : check_login - URL : localhost:8080/golkar/index.php/ajax/data/check_login - USER ID : 340 - USER IP : ::1 - USER ROLE : 1 - BROWSER : Mozilla/5.0 (Windows NT 10.0; WOW64; rv:56.0) Gecko/20100101 Firefox/56.0 - USERNAME : safari
SYSTEM LOG -- DATE :2017-10-06 11:28:07 - CLASS : report_perbandingan_kta - FUNCTION : search - URL : localhost:8080/golkar/index.php/report/report_perbandingan_kta/search - USER ID : 340 - USER IP : ::1 - USER ROLE : 1 - BROWSER : Mozilla/5.0 (Windows NT 10.0; WOW64; rv:56.0) Gecko/20100101 Firefox/56.0 - USERNAME : safari
SYSTEM LOG -- DATE :2017-10-06 11:28:10 - CLASS : data - FUNCTION : check_login - URL : localhost:8080/golkar/index.php/ajax/data/check_login - USER ID : 340 - USER IP : ::1 - USER ROLE : 1 - BROWSER : Mozilla/5.0 (Windows NT 10.0; WOW64; rv:56.0) Gecko/20100101 Firefox/56.0 - USERNAME : safari
SYSTEM LOG -- DATE :2017-10-06 11:28:11 - CLASS : data - FUNCTION : kabupaten - URL : localhost:8080/golkar/index.php/ajax/data/kabupaten - USER ID : 340 - USER IP : ::1 - USER ROLE : 1 - BROWSER : Mozilla/5.0 (Windows NT 10.0; WOW64; rv:56.0) Gecko/20100101 Firefox/56.0 - USERNAME : safari
SYSTEM LOG -- DATE :2017-10-06 11:28:11 - CLASS : data - FUNCTION : kecamatan - URL : localhost:8080/golkar/index.php/ajax/data/kecamatan - USER ID : 340 - USER IP : ::1 - USER ROLE : 1 - BROWSER : Mozilla/5.0 (Windows NT 10.0; WOW64; rv:56.0) Gecko/20100101 Firefox/56.0 - USERNAME : safari
SYSTEM LOG -- DATE :2017-10-06 11:28:11 - CLASS : data - FUNCTION : check_login - URL : localhost:8080/golkar/index.php/ajax/data/check_login - USER ID : 340 - USER IP : ::1 - USER ROLE : 1 - BROWSER : Mozilla/5.0 (Windows NT 10.0; WOW64; rv:56.0) Gecko/20100101 Firefox/56.0 - USERNAME : safari
SYSTEM LOG -- DATE :2017-10-06 11:28:39 - CLASS : report_perbandingan_kta - FUNCTION : search - URL : localhost:8080/golkar/index.php/report/report_perbandingan_kta/search - USER ID : 340 - USER IP : ::1 - USER ROLE : 1 - BROWSER : Mozilla/5.0 (Windows NT 10.0; WOW64; rv:56.0) Gecko/20100101 Firefox/56.0 - USERNAME : safari
SYSTEM LOG -- DATE :2017-10-06 11:28:41 - CLASS : data - FUNCTION : check_login - URL : localhost:8080/golkar/index.php/ajax/data/check_login - USER ID : 340 - USER IP : ::1 - USER ROLE : 1 - BROWSER : Mozilla/5.0 (Windows NT 10.0; WOW64; rv:56.0) Gecko/20100101 Firefox/56.0 - USERNAME : safari
SYSTEM LOG -- DATE :2017-10-06 11:28:42 - CLASS : data - FUNCTION : kabupaten - URL : localhost:8080/golkar/index.php/ajax/data/kabupaten - USER ID : 340 - USER IP : ::1 - USER ROLE : 1 - BROWSER : Mozilla/5.0 (Windows NT 10.0; WOW64; rv:56.0) Gecko/20100101 Firefox/56.0 - USERNAME : safari
SYSTEM LOG -- DATE :2017-10-06 11:28:42 - CLASS : data - FUNCTION : kecamatan - URL : localhost:8080/golkar/index.php/ajax/data/kecamatan - USER ID : 340 - USER IP : ::1 - USER ROLE : 1 - BROWSER : Mozilla/5.0 (Windows NT 10.0; WOW64; rv:56.0) Gecko/20100101 Firefox/56.0 - USERNAME : safari
SYSTEM LOG -- DATE :2017-10-06 11:28:43 - CLASS : data - FUNCTION : check_login - URL : localhost:8080/golkar/index.php/ajax/data/check_login - USER ID : 340 - USER IP : ::1 - USER ROLE : 1 - BROWSER : Mozilla/5.0 (Windows NT 10.0; WOW64; rv:56.0) Gecko/20100101 Firefox/56.0 - USERNAME : safari
SYSTEM LOG -- DATE :2017-10-06 11:28:54 - CLASS : data - FUNCTION : kecamatan - URL : localhost:8080/golkar/index.php/ajax/data/kecamatan - USER ID : 340 - USER IP : ::1 - USER ROLE : 1 - BROWSER : Mozilla/5.0 (Windows NT 10.0; WOW64; rv:56.0) Gecko/20100101 Firefox/56.0 - USERNAME : safari
SYSTEM LOG -- DATE :2017-10-06 11:28:55 - CLASS : report_perbandingan_kta - FUNCTION : search - URL : localhost:8080/golkar/index.php/report/report_perbandingan_kta/search - USER ID : 340 - USER IP : ::1 - USER ROLE : 1 - BROWSER : Mozilla/5.0 (Windows NT 10.0; WOW64; rv:56.0) Gecko/20100101 Firefox/56.0 - USERNAME : safari
SYSTEM LOG -- DATE :2017-10-06 11:29:02 - CLASS : data - FUNCTION : check_login - URL : localhost:8080/golkar/index.php/ajax/data/check_login - USER ID : 340 - USER IP : ::1 - USER ROLE : 1 - BROWSER : Mozilla/5.0 (Windows NT 10.0; WOW64; rv:56.0) Gecko/20100101 Firefox/56.0 - USERNAME : safari
SYSTEM LOG -- DATE :2017-10-06 11:29:03 - CLASS : data - FUNCTION : kabupaten - URL : localhost:8080/golkar/index.php/ajax/data/kabupaten - USER ID : 340 - USER IP : ::1 - USER ROLE : 1 - BROWSER : Mozilla/5.0 (Windows NT 10.0; WOW64; rv:56.0) Gecko/20100101 Firefox/56.0 - USERNAME : safari
SYSTEM LOG -- DATE :2017-10-06 11:29:03 - CLASS : data - FUNCTION : kecamatan - URL : localhost:8080/golkar/index.php/ajax/data/kecamatan - USER ID : 340 - USER IP : ::1 - USER ROLE : 1 - BROWSER : Mozilla/5.0 (Windows NT 10.0; WOW64; rv:56.0) Gecko/20100101 Firefox/56.0 - USERNAME : safari
SYSTEM LOG -- DATE :2017-10-06 11:29:04 - CLASS : data - FUNCTION : check_login - URL : localhost:8080/golkar/index.php/ajax/data/check_login - USER ID : 340 - USER IP : ::1 - USER ROLE : 1 - BROWSER : Mozilla/5.0 (Windows NT 10.0; WOW64; rv:56.0) Gecko/20100101 Firefox/56.0 - USERNAME : safari
SYSTEM LOG -- DATE :2017-10-06 11:29:58 - CLASS : report_perbandingan_kta - FUNCTION : search - URL : localhost:8080/golkar/index.php/report/report_perbandingan_kta/search - USER ID : 340 - USER IP : ::1 - USER ROLE : 1 - BROWSER : Mozilla/5.0 (Windows NT 10.0; WOW64; rv:56.0) Gecko/20100101 Firefox/56.0 - USERNAME : safari
SYSTEM LOG -- DATE :2017-10-06 11:30:14 - CLASS : data - FUNCTION : check_login - URL : localhost:8080/golkar/index.php/ajax/data/check_login - USER ID : 340 - USER IP : ::1 - USER ROLE : 1 - BROWSER : Mozilla/5.0 (Windows NT 10.0; WOW64; rv:56.0) Gecko/20100101 Firefox/56.0 - USERNAME : safari
SYSTEM LOG -- DATE :2017-10-06 11:30:18 - CLASS : data - FUNCTION : kabupaten - URL : localhost:8080/golkar/index.php/ajax/data/kabupaten - USER ID : 340 - USER IP : ::1 - USER ROLE : 1 - BROWSER : Mozilla/5.0 (Windows NT 10.0; WOW64; rv:56.0) Gecko/20100101 Firefox/56.0 - USERNAME : safari
SYSTEM LOG -- DATE :2017-10-06 11:30:18 - CLASS : data - FUNCTION : kecamatan - URL : localhost:8080/golkar/index.php/ajax/data/kecamatan - USER ID : 340 - USER IP : ::1 - USER ROLE : 1 - BROWSER : Mozilla/5.0 (Windows NT 10.0; WOW64; rv:56.0) Gecko/20100101 Firefox/56.0 - USERNAME : safari
SYSTEM LOG -- DATE :2017-10-06 11:30:18 - CLASS : data - FUNCTION : check_login - URL : localhost:8080/golkar/index.php/ajax/data/check_login - USER ID : 340 - USER IP : ::1 - USER ROLE : 1 - BROWSER : Mozilla/5.0 (Windows NT 10.0; WOW64; rv:56.0) Gecko/20100101 Firefox/56.0 - USERNAME : safari
SYSTEM LOG -- DATE :2017-10-06 11:31:34 - CLASS : report_perbandingan_kta - FUNCTION : search - URL : localhost:8080/golkar/index.php/report/report_perbandingan_kta/search - USER ID : 340 - USER IP : ::1 - USER ROLE : 1 - BROWSER : Mozilla/5.0 (Windows NT 10.0; WOW64; rv:56.0) Gecko/20100101 Firefox/56.0 - USERNAME : safari
SYSTEM LOG -- DATE :2017-10-06 11:32:40 - CLASS : data - FUNCTION : check_login - URL : localhost:8080/golkar/index.php/ajax/data/check_login - USER ID : 340 - USER IP : ::1 - USER ROLE : 1 - BROWSER : Mozilla/5.0 (Windows NT 10.0; WOW64; rv:56.0) Gecko/20100101 Firefox/56.0 - USERNAME : safari
SYSTEM LOG -- DATE :2017-10-06 11:36:35 - CLASS : report_perbandingan_kta - FUNCTION : search - URL : localhost:8080/golkar/index.php/report/report_perbandingan_kta/search - USER ID : 340 - USER IP : ::1 - USER ROLE : 1 - BROWSER : Mozilla/5.0 (Windows NT 10.0; WOW64; rv:56.0) Gecko/20100101 Firefox/56.0 - USERNAME : safari
SYSTEM LOG -- DATE :2017-10-06 11:36:51 - CLASS : data - FUNCTION : check_login - URL : localhost:8080/golkar/index.php/ajax/data/check_login - USER ID : 340 - USER IP : ::1 - USER ROLE : 1 - BROWSER : Mozilla/5.0 (Windows NT 10.0; WOW64; rv:56.0) Gecko/20100101 Firefox/56.0 - USERNAME : safari
SYSTEM LOG -- DATE :2017-10-06 11:36:54 - CLASS : data - FUNCTION : kabupaten - URL : localhost:8080/golkar/index.php/ajax/data/kabupaten - USER ID : 340 - USER IP : ::1 - USER ROLE : 1 - BROWSER : Mozilla/5.0 (Windows NT 10.0; WOW64; rv:56.0) Gecko/20100101 Firefox/56.0 - USERNAME : safari
SYSTEM LOG -- DATE :2017-10-06 11:36:54 - CLASS : data - FUNCTION : kecamatan - URL : localhost:8080/golkar/index.php/ajax/data/kecamatan - USER ID : 340 - USER IP : ::1 - USER ROLE : 1 - BROWSER : Mozilla/5.0 (Windows NT 10.0; WOW64; rv:56.0) Gecko/20100101 Firefox/56.0 - USERNAME : safari
SYSTEM LOG -- DATE :2017-10-06 11:36:55 - CLASS : data - FUNCTION : check_login - URL : localhost:8080/golkar/index.php/ajax/data/check_login - USER ID : 340 - USER IP : ::1 - USER ROLE : 1 - BROWSER : Mozilla/5.0 (Windows NT 10.0; WOW64; rv:56.0) Gecko/20100101 Firefox/56.0 - USERNAME : safari
SYSTEM LOG -- DATE :2017-10-06 11:37:07 - CLASS : report_perbandingan_kta - FUNCTION : search - URL : localhost:8080/golkar/index.php/report/report_perbandingan_kta/search - USER ID : 340 - USER IP : ::1 - USER ROLE : 1 - BROWSER : Mozilla/5.0 (Windows NT 10.0; WOW64; rv:56.0) Gecko/20100101 Firefox/56.0 - USERNAME : safari
SYSTEM LOG -- DATE :2017-10-06 11:38:21 - CLASS : data - FUNCTION : check_login - URL : localhost:8080/golkar/index.php/ajax/data/check_login - USER ID : 340 - USER IP : ::1 - USER ROLE : 1 - BROWSER : Mozilla/5.0 (Windows NT 10.0; WOW64; rv:56.0) Gecko/20100101 Firefox/56.0 - USERNAME : safari
SYSTEM LOG -- DATE :2017-10-06 11:39:35 - CLASS : report_perbandingan_kta - FUNCTION : search - URL : localhost:8080/golkar/index.php/report/report_perbandingan_kta/search - USER ID : 340 - USER IP : ::1 - USER ROLE : 1 - BROWSER : Mozilla/5.0 (Windows NT 10.0; WOW64; rv:56.0) Gecko/20100101 Firefox/56.0 - USERNAME : safari
SYSTEM LOG -- DATE :2017-10-06 11:39:51 - CLASS : data - FUNCTION : check_login - URL : localhost:8080/golkar/index.php/ajax/data/check_login - USER ID : 340 - USER IP : ::1 - USER ROLE : 1 - BROWSER : Mozilla/5.0 (Windows NT 10.0; WOW64; rv:56.0) Gecko/20100101 Firefox/56.0 - USERNAME : safari
SYSTEM LOG -- DATE :2017-10-06 11:39:54 - CLASS : data - FUNCTION : kabupaten - URL : localhost:8080/golkar/index.php/ajax/data/kabupaten - USER ID : 340 - USER IP : ::1 - USER ROLE : 1 - BROWSER : Mozilla/5.0 (Windows NT 10.0; WOW64; rv:56.0) Gecko/20100101 Firefox/56.0 - USERNAME : safari
SYSTEM LOG -- DATE :2017-10-06 11:39:55 - CLASS : data - FUNCTION : kecamatan - URL : localhost:8080/golkar/index.php/ajax/data/kecamatan - USER ID : 340 - USER IP : ::1 - USER ROLE : 1 - BROWSER : Mozilla/5.0 (Windows NT 10.0; WOW64; rv:56.0) Gecko/20100101 Firefox/56.0 - USERNAME : safari
SYSTEM LOG -- DATE :2017-10-06 11:39:55 - CLASS : data - FUNCTION : check_login - URL : localhost:8080/golkar/index.php/ajax/data/check_login - USER ID : 340 - USER IP : ::1 - USER ROLE : 1 - BROWSER : Mozilla/5.0 (Windows NT 10.0; WOW64; rv:56.0) Gecko/20100101 Firefox/56.0 - USERNAME : safari
SYSTEM LOG -- DATE :2017-10-06 11:40:03 - CLASS : report_perbandingan_kta - FUNCTION : search - URL : localhost:8080/golkar/index.php/report/report_perbandingan_kta/search - USER ID : 340 - USER IP : ::1 - USER ROLE : 1 - BROWSER : Mozilla/5.0 (Windows NT 10.0; WOW64; rv:56.0) Gecko/20100101 Firefox/56.0 - USERNAME : safari
SYSTEM LOG -- DATE :2017-10-06 11:42:33 - CLASS : report_perbandingan_kta - FUNCTION : index - URL : localhost:8080/golkar/index.php/report/report_perbandingan_kta - USER ID : 340 - USER IP : ::1 - USER ROLE : 1 - BROWSER : Mozilla/5.0 (Windows NT 10.0; WOW64; rv:56.0) Gecko/20100101 Firefox/56.0 - USERNAME : safari
SYSTEM LOG -- DATE :2017-10-06 11:42:34 - CLASS : data - FUNCTION : check_login - URL : localhost:8080/golkar/index.php/ajax/data/check_login - USER ID : 340 - USER IP : ::1 - USER ROLE : 1 - BROWSER : Mozilla/5.0 (Windows NT 10.0; WOW64; rv:56.0) Gecko/20100101 Firefox/56.0 - USERNAME : safari
SYSTEM LOG -- DATE :2017-10-06 11:42:37 - CLASS : data - FUNCTION : kabupaten - URL : localhost:8080/golkar/index.php/ajax/data/kabupaten - USER ID : 340 - USER IP : ::1 - USER ROLE : 1 - BROWSER : Mozilla/5.0 (Windows NT 10.0; WOW64; rv:56.0) Gecko/20100101 Firefox/56.0 - USERNAME : safari
SYSTEM LOG -- DATE :2017-10-06 11:42:39 - CLASS : data - FUNCTION : check_login - URL : localhost:8080/golkar/index.php/ajax/data/check_login - USER ID : 340 - USER IP : ::1 - USER ROLE : 1 - BROWSER : Mozilla/5.0 (Windows NT 10.0; WOW64; rv:56.0) Gecko/20100101 Firefox/56.0 - USERNAME : safari
SYSTEM LOG -- DATE :2017-10-06 11:42:39 - CLASS : data - FUNCTION : kecamatan - URL : localhost:8080/golkar/index.php/ajax/data/kecamatan - USER ID : 340 - USER IP : ::1 - USER ROLE : 1 - BROWSER : Mozilla/5.0 (Windows NT 10.0; WOW64; rv:56.0) Gecko/20100101 Firefox/56.0 - USERNAME : safari
SYSTEM LOG -- DATE :2017-10-06 11:42:40 - CLASS : report_perbandingan_kta - FUNCTION : search - URL : localhost:8080/golkar/index.php/report/report_perbandingan_kta/search - USER ID : 340 - USER IP : ::1 - USER ROLE : 1 - BROWSER : Mozilla/5.0 (Windows NT 10.0; WOW64; rv:56.0) Gecko/20100101 Firefox/56.0 - USERNAME : safari
SYSTEM LOG -- DATE :2017-10-06 11:42:44 - CLASS : data - FUNCTION : kabupaten - URL : localhost:8080/golkar/index.php/ajax/data/kabupaten - USER ID : 340 - USER IP : ::1 - USER ROLE : 1 - BROWSER : Mozilla/5.0 (Windows NT 10.0; WOW64; rv:56.0) Gecko/20100101 Firefox/56.0 - USERNAME : safari
SYSTEM LOG -- DATE :2017-10-06 11:42:44 - CLASS : data - FUNCTION : kecamatan - URL : localhost:8080/golkar/index.php/ajax/data/kecamatan - USER ID : 340 - USER IP : ::1 - USER ROLE : 1 - BROWSER : Mozilla/5.0 (Windows NT 10.0; WOW64; rv:56.0) Gecko/20100101 Firefox/56.0 - USERNAME : safari
SYSTEM LOG -- DATE :2017-10-06 11:42:44 - CLASS : data - FUNCTION : check_login - URL : localhost:8080/golkar/index.php/ajax/data/check_login - USER ID : 340 - USER IP : ::1 - USER ROLE : 1 - BROWSER : Mozilla/5.0 (Windows NT 10.0; WOW64; rv:56.0) Gecko/20100101 Firefox/56.0 - USERNAME : safari
SYSTEM LOG -- DATE :2017-10-06 11:42:50 - CLASS : data - FUNCTION : kecamatan - URL : localhost:8080/golkar/index.php/ajax/data/kecamatan - USER ID : 340 - USER IP : ::1 - USER ROLE : 1 - BROWSER : Mozilla/5.0 (Windows NT 10.0; WOW64; rv:56.0) Gecko/20100101 Firefox/56.0 - USERNAME : safari
SYSTEM LOG -- DATE :2017-10-06 11:42:51 - CLASS : report_perbandingan_kta - FUNCTION : search - URL : localhost:8080/golkar/index.php/report/report_perbandingan_kta/search - USER ID : 340 - USER IP : ::1 - USER ROLE : 1 - BROWSER : Mozilla/5.0 (Windows NT 10.0; WOW64; rv:56.0) Gecko/20100101 Firefox/56.0 - USERNAME : safari
SYSTEM LOG -- DATE :2017-10-06 11:43:07 - CLASS : data - FUNCTION : check_login - URL : localhost:8080/golkar/index.php/ajax/data/check_login - USER ID : 340 - USER IP : ::1 - USER ROLE : 1 - BROWSER : Mozilla/5.0 (Windows NT 10.0; WOW64; rv:56.0) Gecko/20100101 Firefox/56.0 - USERNAME : safari
SYSTEM LOG -- DATE :2017-10-06 11:43:11 - CLASS : data - FUNCTION : kabupaten - URL : localhost:8080/golkar/index.php/ajax/data/kabupaten - USER ID : 340 - USER IP : ::1 - USER ROLE : 1 - BROWSER : Mozilla/5.0 (Windows NT 10.0; WOW64; rv:56.0) Gecko/20100101 Firefox/56.0 - USERNAME : safari
SYSTEM LOG -- DATE :2017-10-06 11:43:11 - CLASS : data - FUNCTION : kecamatan - URL : localhost:8080/golkar/index.php/ajax/data/kecamatan - USER ID : 340 - USER IP : ::1 - USER ROLE : 1 - BROWSER : Mozilla/5.0 (Windows NT 10.0; WOW64; rv:56.0) Gecko/20100101 Firefox/56.0 - USERNAME : safari
SYSTEM LOG -- DATE :2017-10-06 11:43:11 - CLASS : data - FUNCTION : check_login - URL : localhost:8080/golkar/index.php/ajax/data/check_login - USER ID : 340 - USER IP : ::1 - USER ROLE : 1 - BROWSER : Mozilla/5.0 (Windows NT 10.0; WOW64; rv:56.0) Gecko/20100101 Firefox/56.0 - USERNAME : safari
SYSTEM LOG -- DATE :2017-10-06 11:43:20 - CLASS : report_perbandingan_kta - FUNCTION : search - URL : localhost:8080/golkar/index.php/report/report_perbandingan_kta/search - USER ID : 340 - USER IP : ::1 - USER ROLE : 1 - BROWSER : Mozilla/5.0 (Windows NT 10.0; WOW64; rv:56.0) Gecko/20100101 Firefox/56.0 - USERNAME : safari
SYSTEM LOG -- DATE :2017-10-06 11:43:30 - CLASS : report_perbandingan_kta - FUNCTION : index - URL : localhost:8080/golkar/index.php/report/report_perbandingan_kta - USER ID : 340 - USER IP : ::1 - USER ROLE : 1 - BROWSER : Mozilla/5.0 (Windows NT 10.0; WOW64; rv:56.0) Gecko/20100101 Firefox/56.0 - USERNAME : safari
SYSTEM LOG -- DATE :2017-10-06 11:43:31 - CLASS : data - FUNCTION : check_login - URL : localhost:8080/golkar/index.php/ajax/data/check_login - USER ID : 340 - USER IP : ::1 - USER ROLE : 1 - BROWSER : Mozilla/5.0 (Windows NT 10.0; WOW64; rv:56.0) Gecko/20100101 Firefox/56.0 - USERNAME : safari
SYSTEM LOG -- DATE :2017-10-06 11:43:33 - CLASS : data - FUNCTION : kabupaten - URL : localhost:8080/golkar/index.php/ajax/data/kabupaten - USER ID : 340 - USER IP : ::1 - USER ROLE : 1 - BROWSER : Mozilla/5.0 (Windows NT 10.0; WOW64; rv:56.0) Gecko/20100101 Firefox/56.0 - USERNAME : safari
SYSTEM LOG -- DATE :2017-10-06 11:43:34 - CLASS : data - FUNCTION : kecamatan - URL : localhost:8080/golkar/index.php/ajax/data/kecamatan - USER ID : 340 - USER IP : ::1 - USER ROLE : 1 - BROWSER : Mozilla/5.0 (Windows NT 10.0; WOW64; rv:56.0) Gecko/20100101 Firefox/56.0 - USERNAME : safari
SYSTEM LOG -- DATE :2017-10-06 11:43:35 - CLASS : report_perbandingan_kta - FUNCTION : search - URL : localhost:8080/golkar/index.php/report/report_perbandingan_kta/search - USER ID : 340 - USER IP : ::1 - USER ROLE : 1 - BROWSER : Mozilla/5.0 (Windows NT 10.0; WOW64; rv:56.0) Gecko/20100101 Firefox/56.0 - USERNAME : safari
SYSTEM LOG -- DATE :2017-10-06 11:43:51 - CLASS : data - FUNCTION : check_login - URL : localhost:8080/golkar/index.php/ajax/data/check_login - USER ID : 340 - USER IP : ::1 - USER ROLE : 1 - BROWSER : Mozilla/5.0 (Windows NT 10.0; WOW64; rv:56.0) Gecko/20100101 Firefox/56.0 - USERNAME : safari
SYSTEM LOG -- DATE :2017-10-06 11:43:54 - CLASS : data - FUNCTION : kabupaten - URL : localhost:8080/golkar/index.php/ajax/data/kabupaten - USER ID : 340 - USER IP : ::1 - USER ROLE : 1 - BROWSER : Mozilla/5.0 (Windows NT 10.0; WOW64; rv:56.0) Gecko/20100101 Firefox/56.0 - USERNAME : safari
SYSTEM LOG -- DATE :2017-10-06 11:43:54 - CLASS : data - FUNCTION : kecamatan - URL : localhost:8080/golkar/index.php/ajax/data/kecamatan - USER ID : 340 - USER IP : ::1 - USER ROLE : 1 - BROWSER : Mozilla/5.0 (Windows NT 10.0; WOW64; rv:56.0) Gecko/20100101 Firefox/56.0 - USERNAME : safari
SYSTEM LOG -- DATE :2017-10-06 11:43:55 - CLASS : data - FUNCTION : check_login - URL : localhost:8080/golkar/index.php/ajax/data/check_login - USER ID : 340 - USER IP : ::1 - USER ROLE : 1 - BROWSER : Mozilla/5.0 (Windows NT 10.0; WOW64; rv:56.0) Gecko/20100101 Firefox/56.0 - USERNAME : safari
SYSTEM LOG -- DATE :2017-10-06 11:44:00 - CLASS : report_perbandingan_kta - FUNCTION : search - URL : localhost:8080/golkar/index.php/report/report_perbandingan_kta/search - USER ID : 340 - USER IP : ::1 - USER ROLE : 1 - BROWSER : Mozilla/5.0 (Windows NT 10.0; WOW64; rv:56.0) Gecko/20100101 Firefox/56.0 - USERNAME : safari
SYSTEM LOG -- DATE :2017-10-06 11:44:00 - CLASS : data - FUNCTION : check_login - URL : localhost:8080/golkar/index.php/ajax/data/check_login - USER ID : 340 - USER IP : ::1 - USER ROLE : 1 - BROWSER : Mozilla/5.0 (Windows NT 10.0; WOW64; rv:56.0) Gecko/20100101 Firefox/56.0 - USERNAME : safari
SYSTEM LOG -- DATE :2017-10-06 11:44:43 - CLASS : report_perbandingan_kta - FUNCTION : index - URL : localhost:8080/golkar/index.php/report/report_perbandingan_kta - USER ID : 340 - USER IP : ::1 - USER ROLE : 1 - BROWSER : Mozilla/5.0 (Windows NT 10.0; WOW64; rv:56.0) Gecko/20100101 Firefox/56.0 - USERNAME : safari
SYSTEM LOG -- DATE :2017-10-06 11:44:44 - CLASS : data - FUNCTION : check_login - URL : localhost:8080/golkar/index.php/ajax/data/check_login - USER ID : 340 - USER IP : ::1 - USER ROLE : 1 - BROWSER : Mozilla/5.0 (Windows NT 10.0; WOW64; rv:56.0) Gecko/20100101 Firefox/56.0 - USERNAME : safari
SYSTEM LOG -- DATE :2017-10-06 11:44:46 - CLASS : data - FUNCTION : kabupaten - URL : localhost:8080/golkar/index.php/ajax/data/kabupaten - USER ID : 340 - USER IP : ::1 - USER ROLE : 1 - BROWSER : Mozilla/5.0 (Windows NT 10.0; WOW64; rv:56.0) Gecko/20100101 Firefox/56.0 - USERNAME : safari
SYSTEM LOG -- DATE :2017-10-06 11:44:49 - CLASS : data - FUNCTION : check_login - URL : localhost:8080/golkar/index.php/ajax/data/check_login - USER ID : 340 - USER IP : ::1 - USER ROLE : 1 - BROWSER : Mozilla/5.0 (Windows NT 10.0; WOW64; rv:56.0) Gecko/20100101 Firefox/56.0 - USERNAME : safari
SYSTEM LOG -- DATE :2017-10-06 11:44:50 - CLASS : data - FUNCTION : kecamatan - URL : localhost:8080/golkar/index.php/ajax/data/kecamatan - USER ID : 340 - USER IP : ::1 - USER ROLE : 1 - BROWSER : Mozilla/5.0 (Windows NT 10.0; WOW64; rv:56.0) Gecko/20100101 Firefox/56.0 - USERNAME : safari
SYSTEM LOG -- DATE :2017-10-06 11:44:50 - CLASS : report_perbandingan_kta - FUNCTION : search - URL : localhost:8080/golkar/index.php/report/report_perbandingan_kta/search - USER ID : 340 - USER IP : ::1 - USER ROLE : 1 - BROWSER : Mozilla/5.0 (Windows NT 10.0; WOW64; rv:56.0) Gecko/20100101 Firefox/56.0 - USERNAME : safari
SYSTEM LOG -- DATE :2017-10-06 11:45:06 - CLASS : data - FUNCTION : check_login - URL : localhost:8080/golkar/index.php/ajax/data/check_login - USER ID : 340 - USER IP : ::1 - USER ROLE : 1 - BROWSER : Mozilla/5.0 (Windows NT 10.0; WOW64; rv:56.0) Gecko/20100101 Firefox/56.0 - USERNAME : safari
SYSTEM LOG -- DATE :2017-10-06 11:45:09 - CLASS : data - FUNCTION : kabupaten - URL : localhost:8080/golkar/index.php/ajax/data/kabupaten - USER ID : 340 - USER IP : ::1 - USER ROLE : 1 - BROWSER : Mozilla/5.0 (Windows NT 10.0; WOW64; rv:56.0) Gecko/20100101 Firefox/56.0 - USERNAME : safari
SYSTEM LOG -- DATE :2017-10-06 11:45:10 - CLASS : data - FUNCTION : kecamatan - URL : localhost:8080/golkar/index.php/ajax/data/kecamatan - USER ID : 340 - USER IP : ::1 - USER ROLE : 1 - BROWSER : Mozilla/5.0 (Windows NT 10.0; WOW64; rv:56.0) Gecko/20100101 Firefox/56.0 - USERNAME : safari
SYSTEM LOG -- DATE :2017-10-06 11:45:10 - CLASS : data - FUNCTION : check_login - URL : localhost:8080/golkar/index.php/ajax/data/check_login - USER ID : 340 - USER IP : ::1 - USER ROLE : 1 - BROWSER : Mozilla/5.0 (Windows NT 10.0; WOW64; rv:56.0) Gecko/20100101 Firefox/56.0 - USERNAME : safari
SYSTEM LOG -- DATE :2017-10-06 11:45:16 - CLASS : report_perbandingan_kta - FUNCTION : search - URL : localhost:8080/golkar/index.php/report/report_perbandingan_kta/search - USER ID : 340 - USER IP : ::1 - USER ROLE : 1 - BROWSER : Mozilla/5.0 (Windows NT 10.0; WOW64; rv:56.0) Gecko/20100101 Firefox/56.0 - USERNAME : safari
SYSTEM LOG -- DATE :2017-10-06 11:45:25 - CLASS : data - FUNCTION : check_login - URL : localhost:8080/golkar/index.php/ajax/data/check_login - USER ID : 340 - USER IP : ::1 - USER ROLE : 1 - BROWSER : Mozilla/5.0 (Windows NT 10.0; WOW64; rv:56.0) Gecko/20100101 Firefox/56.0 - USERNAME : safari
SYSTEM LOG -- DATE :2017-10-06 11:45:46 - CLASS : report_perbandingan_kta - FUNCTION : search - URL : localhost:8080/golkar/index.php/report/report_perbandingan_kta/search - USER ID : 340 - USER IP : ::1 - USER ROLE : 1 - BROWSER : Mozilla/5.0 (Windows NT 10.0; WOW64; rv:56.0) Gecko/20100101 Firefox/56.0 - USERNAME : safari
SYSTEM LOG -- DATE :2017-10-06 11:45:55 - CLASS : data - FUNCTION : check_login - URL : localhost:8080/golkar/index.php/ajax/data/check_login - USER ID : 340 - USER IP : ::1 - USER ROLE : 1 - BROWSER : Mozilla/5.0 (Windows NT 10.0; WOW64; rv:56.0) Gecko/20100101 Firefox/56.0 - USERNAME : safari
SYSTEM LOG -- DATE :2017-10-06 11:47:00 - CLASS : report_perbandingan_kta - FUNCTION : search - URL : localhost:8080/golkar/index.php/report/report_perbandingan_kta/search - USER ID : 340 - USER IP : ::1 - USER ROLE : 1 - BROWSER : Mozilla/5.0 (Windows NT 10.0; WOW64; rv:56.0) Gecko/20100101 Firefox/56.0 - USERNAME : safari
SYSTEM LOG -- DATE :2017-10-06 11:47:16 - CLASS : data - FUNCTION : check_login - URL : localhost:8080/golkar/index.php/ajax/data/check_login - USER ID : 340 - USER IP : ::1 - USER ROLE : 1 - BROWSER : Mozilla/5.0 (Windows NT 10.0; WOW64; rv:56.0) Gecko/20100101 Firefox/56.0 - USERNAME : safari
SYSTEM LOG -- DATE :2017-10-06 11:47:19 - CLASS : data - FUNCTION : kabupaten - URL : localhost:8080/golkar/index.php/ajax/data/kabupaten - USER ID : 340 - USER IP : ::1 - USER ROLE : 1 - BROWSER : Mozilla/5.0 (Windows NT 10.0; WOW64; rv:56.0) Gecko/20100101 Firefox/56.0 - USERNAME : safari
SYSTEM LOG -- DATE :2017-10-06 11:47:19 - CLASS : data - FUNCTION : kecamatan - URL : localhost:8080/golkar/index.php/ajax/data/kecamatan - USER ID : 340 - USER IP : ::1 - USER ROLE : 1 - BROWSER : Mozilla/5.0 (Windows NT 10.0; WOW64; rv:56.0) Gecko/20100101 Firefox/56.0 - USERNAME : safari
SYSTEM LOG -- DATE :2017-10-06 11:47:20 - CLASS : data - FUNCTION : check_login - URL : localhost:8080/golkar/index.php/ajax/data/check_login - USER ID : 340 - USER IP : ::1 - USER ROLE : 1 - BROWSER : Mozilla/5.0 (Windows NT 10.0; WOW64; rv:56.0) Gecko/20100101 Firefox/56.0 - USERNAME : safari
SYSTEM LOG -- DATE :2017-10-06 11:47:33 - CLASS : report_perbandingan_kta - FUNCTION : search - URL : localhost:8080/golkar/index.php/report/report_perbandingan_kta/search - USER ID : 340 - USER IP : ::1 - USER ROLE : 1 - BROWSER : Mozilla/5.0 (Windows NT 10.0; WOW64; rv:56.0) Gecko/20100101 Firefox/56.0 - USERNAME : safari
SYSTEM LOG -- DATE :2017-10-06 11:47:49 - CLASS : data - FUNCTION : check_login - URL : localhost:8080/golkar/index.php/ajax/data/check_login - USER ID : 340 - USER IP : ::1 - USER ROLE : 1 - BROWSER : Mozilla/5.0 (Windows NT 10.0; WOW64; rv:56.0) Gecko/20100101 Firefox/56.0 - USERNAME : safari
SYSTEM LOG -- DATE :2017-10-06 11:47:52 - CLASS : data - FUNCTION : kabupaten - URL : localhost:8080/golkar/index.php/ajax/data/kabupaten - USER ID : 340 - USER IP : ::1 - USER ROLE : 1 - BROWSER : Mozilla/5.0 (Windows NT 10.0; WOW64; rv:56.0) Gecko/20100101 Firefox/56.0 - USERNAME : safari
SYSTEM LOG -- DATE :2017-10-06 11:47:52 - CLASS : data - FUNCTION : kecamatan - URL : localhost:8080/golkar/index.php/ajax/data/kecamatan - USER ID : 340 - USER IP : ::1 - USER ROLE : 1 - BROWSER : Mozilla/5.0 (Windows NT 10.0; WOW64; rv:56.0) Gecko/20100101 Firefox/56.0 - USERNAME : safari
SYSTEM LOG -- DATE :2017-10-06 11:47:53 - CLASS : data - FUNCTION : check_login - URL : localhost:8080/golkar/index.php/ajax/data/check_login - USER ID : 340 - USER IP : ::1 - USER ROLE : 1 - BROWSER : Mozilla/5.0 (Windows NT 10.0; WOW64; rv:56.0) Gecko/20100101 Firefox/56.0 - USERNAME : safari
SYSTEM LOG -- DATE :2017-10-06 11:50:27 - CLASS : report_perbandingan_kta - FUNCTION : search - URL : localhost:8080/golkar/index.php/report/report_perbandingan_kta/search - USER ID : 340 - USER IP : ::1 - USER ROLE : 1 - BROWSER : Mozilla/5.0 (Windows NT 10.0; WOW64; rv:56.0) Gecko/20100101 Firefox/56.0 - USERNAME : safari
SYSTEM LOG -- DATE :2017-10-06 11:50:43 - CLASS : data - FUNCTION : check_login - URL : localhost:8080/golkar/index.php/ajax/data/check_login - USER ID : 340 - USER IP : ::1 - USER ROLE : 1 - BROWSER : Mozilla/5.0 (Windows NT 10.0; WOW64; rv:56.0) Gecko/20100101 Firefox/56.0 - USERNAME : safari
SYSTEM LOG -- DATE :2017-10-06 11:50:46 - CLASS : data - FUNCTION : kabupaten - URL : localhost:8080/golkar/index.php/ajax/data/kabupaten - USER ID : 340 - USER IP : ::1 - USER ROLE : 1 - BROWSER : Mozilla/5.0 (Windows NT 10.0; WOW64; rv:56.0) Gecko/20100101 Firefox/56.0 - USERNAME : safari
SYSTEM LOG -- DATE :2017-10-06 11:50:46 - CLASS : data - FUNCTION : kecamatan - URL : localhost:8080/golkar/index.php/ajax/data/kecamatan - USER ID : 340 - USER IP : ::1 - USER ROLE : 1 - BROWSER : Mozilla/5.0 (Windows NT 10.0; WOW64; rv:56.0) Gecko/20100101 Firefox/56.0 - USERNAME : safari
SYSTEM LOG -- DATE :2017-10-06 11:50:47 - CLASS : data - FUNCTION : check_login - URL : localhost:8080/golkar/index.php/ajax/data/check_login - USER ID : 340 - USER IP : ::1 - USER ROLE : 1 - BROWSER : Mozilla/5.0 (Windows NT 10.0; WOW64; rv:56.0) Gecko/20100101 Firefox/56.0 - USERNAME : safari
SYSTEM LOG -- DATE :2017-10-06 11:52:26 - CLASS : report_perbandingan_kta - FUNCTION : search - URL : localhost:8080/golkar/index.php/report/report_perbandingan_kta/search - USER ID : 340 - USER IP : ::1 - USER ROLE : 1 - BROWSER : Mozilla/5.0 (Windows NT 10.0; WOW64; rv:56.0) Gecko/20100101 Firefox/56.0 - USERNAME : safari
SYSTEM LOG -- DATE :2017-10-06 11:52:30 - CLASS : data - FUNCTION : check_login - URL : localhost:8080/golkar/index.php/ajax/data/check_login - USER ID : 340 - USER IP : ::1 - USER ROLE : 1 - BROWSER : Mozilla/5.0 (Windows NT 10.0; WOW64; rv:56.0) Gecko/20100101 Firefox/56.0 - USERNAME : safari
SYSTEM LOG -- DATE :2017-10-06 11:52:44 - CLASS : report_perbandingan_kta - FUNCTION : search - URL : localhost:8080/golkar/index.php/report/report_perbandingan_kta/search - USER ID : 340 - USER IP : ::1 - USER ROLE : 1 - BROWSER : Mozilla/5.0 (Windows NT 10.0; WOW64; rv:56.0) Gecko/20100101 Firefox/56.0 - USERNAME : safari
SYSTEM LOG -- DATE :2017-10-06 12:32:55 - CLASS : data - FUNCTION : kabupaten - URL : localhost:8080/golkar/index.php/ajax/data/kabupaten - USER ID : 340 - USER IP : ::1 - USER ROLE : 1 - BROWSER : Mozilla/5.0 (Windows NT 10.0; WOW64; rv:56.0) Gecko/20100101 Firefox/56.0 - USERNAME : safari
SYSTEM LOG -- DATE :2017-10-06 12:32:55 - CLASS : data - FUNCTION : kecamatan - URL : localhost:8080/golkar/index.php/ajax/data/kecamatan - USER ID : 340 - USER IP : ::1 - USER ROLE : 1 - BROWSER : Mozilla/5.0 (Windows NT 10.0; WOW64; rv:56.0) Gecko/20100101 Firefox/56.0 - USERNAME : safari
SYSTEM LOG -- DATE :2017-10-06 12:32:56 - CLASS : data - FUNCTION : check_login - URL : localhost:8080/golkar/index.php/ajax/data/check_login - USER ID : 340 - USER IP : ::1 - USER ROLE : 1 - BROWSER : Mozilla/5.0 (Windows NT 10.0; WOW64; rv:56.0) Gecko/20100101 Firefox/56.0 - USERNAME : safari
SYSTEM LOG -- DATE :2017-10-06 12:33:02 - CLASS : data - FUNCTION : kelurahan - URL : localhost:8080/golkar/index.php/ajax/data/kelurahan - USER ID : 340 - USER IP : ::1 - USER ROLE : 1 - BROWSER : Mozilla/5.0 (Windows NT 10.0; WOW64; rv:56.0) Gecko/20100101 Firefox/56.0 - USERNAME : safari
SYSTEM LOG -- DATE :2017-10-06 12:33:05 - CLASS : report_perbandingan_kta - FUNCTION : search - URL : localhost:8080/golkar/index.php/report/report_perbandingan_kta/search - USER ID : 340 - USER IP : ::1 - USER ROLE : 1 - BROWSER : Mozilla/5.0 (Windows NT 10.0; WOW64; rv:56.0) Gecko/20100101 Firefox/56.0 - USERNAME : safari
SYSTEM LOG -- DATE :2017-10-06 12:33:09 - CLASS : data - FUNCTION : check_login - URL : localhost:8080/golkar/index.php/ajax/data/check_login - USER ID : 340 - USER IP : ::1 - USER ROLE : 1 - BROWSER : Mozilla/5.0 (Windows NT 10.0; WOW64; rv:56.0) Gecko/20100101 Firefox/56.0 - USERNAME : safari
SYSTEM LOG -- DATE :2017-10-06 12:33:11 - CLASS : data - FUNCTION : kabupaten - URL : localhost:8080/golkar/index.php/ajax/data/kabupaten - USER ID : 340 - USER IP : ::1 - USER ROLE : 1 - BROWSER : Mozilla/5.0 (Windows NT 10.0; WOW64; rv:56.0) Gecko/20100101 Firefox/56.0 - USERNAME : safari
SYSTEM LOG -- DATE :2017-10-06 12:33:11 - CLASS : data - FUNCTION : kecamatan - URL : localhost:8080/golkar/index.php/ajax/data/kecamatan - USER ID : 340 - USER IP : ::1 - USER ROLE : 1 - BROWSER : Mozilla/5.0 (Windows NT 10.0; WOW64; rv:56.0) Gecko/20100101 Firefox/56.0 - USERNAME : safari
SYSTEM LOG -- DATE :2017-10-06 12:33:11 - CLASS : data - FUNCTION : kelurahan - URL : localhost:8080/golkar/index.php/ajax/data/kelurahan - USER ID : 340 - USER IP : ::1 - USER ROLE : 1 - BROWSER : Mozilla/5.0 (Windows NT 10.0; WOW64; rv:56.0) Gecko/20100101 Firefox/56.0 - USERNAME : safari
SYSTEM LOG -- DATE :2017-10-06 12:33:11 - CLASS : data - FUNCTION : check_login - URL : localhost:8080/golkar/index.php/ajax/data/check_login - USER ID : 340 - USER IP : ::1 - USER ROLE : 1 - BROWSER : Mozilla/5.0 (Windows NT 10.0; WOW64; rv:56.0) Gecko/20100101 Firefox/56.0 - USERNAME : safari
SYSTEM LOG -- DATE :2017-10-06 12:33:15 - CLASS : report_perbandingan_kta - FUNCTION : search - URL : localhost:8080/golkar/index.php/report/report_perbandingan_kta/search - USER ID : 340 - USER IP : ::1 - USER ROLE : 1 - BROWSER : Mozilla/5.0 (Windows NT 10.0; WOW64; rv:56.0) Gecko/20100101 Firefox/56.0 - USERNAME : safari
SYSTEM LOG -- DATE :2017-10-06 12:33:16 - CLASS : data - FUNCTION : check_login - URL : localhost:8080/golkar/index.php/ajax/data/check_login - USER ID : 340 - USER IP : ::1 - USER ROLE : 1 - BROWSER : Mozilla/5.0 (Windows NT 10.0; WOW64; rv:56.0) Gecko/20100101 Firefox/56.0 - USERNAME : safari
SYSTEM LOG -- DATE :2017-10-06 12:33:46 - CLASS : report_perbandingan_kta - FUNCTION : search - URL : localhost:8080/golkar/index.php/report/report_perbandingan_kta/search - USER ID : 340 - USER IP : ::1 - USER ROLE : 1 - BROWSER : Mozilla/5.0 (Windows NT 10.0; WOW64; rv:56.0) Gecko/20100101 Firefox/56.0 - USERNAME : safari
SYSTEM LOG -- DATE :2017-10-06 12:33:50 - CLASS : data - FUNCTION : check_login - URL : localhost:8080/golkar/index.php/ajax/data/check_login - USER ID : 340 - USER IP : ::1 - USER ROLE : 1 - BROWSER : Mozilla/5.0 (Windows NT 10.0; WOW64; rv:56.0) Gecko/20100101 Firefox/56.0 - USERNAME : safari
SYSTEM LOG -- DATE :2017-10-06 12:33:52 - CLASS : data - FUNCTION : kabupaten - URL : localhost:8080/golkar/index.php/ajax/data/kabupaten - USER ID : 340 - USER IP : ::1 - USER ROLE : 1 - BROWSER : Mozilla/5.0 (Windows NT 10.0; WOW64; rv:56.0) Gecko/20100101 Firefox/56.0 - USERNAME : safari
SYSTEM LOG -- DATE :2017-10-06 12:33:52 - CLASS : data - FUNCTION : kecamatan - URL : localhost:8080/golkar/index.php/ajax/data/kecamatan - USER ID : 340 - USER IP : ::1 - USER ROLE : 1 - BROWSER : Mozilla/5.0 (Windows NT 10.0; WOW64; rv:56.0) Gecko/20100101 Firefox/56.0 - USERNAME : safari
SYSTEM LOG -- DATE :2017-10-06 12:33:52 - CLASS : data - FUNCTION : kelurahan - URL : localhost:8080/golkar/index.php/ajax/data/kelurahan - USER ID : 340 - USER IP : ::1 - USER ROLE : 1 - BROWSER : Mozilla/5.0 (Windows NT 10.0; WOW64; rv:56.0) Gecko/20100101 Firefox/56.0 - USERNAME : safari
SYSTEM LOG -- DATE :2017-10-06 12:33:52 - CLASS : data - FUNCTION : check_login - URL : localhost:8080/golkar/index.php/ajax/data/check_login - USER ID : 340 - USER IP : ::1 - USER ROLE : 1 - BROWSER : Mozilla/5.0 (Windows NT 10.0; WOW64; rv:56.0) Gecko/20100101 Firefox/56.0 - USERNAME : safari
SYSTEM LOG -- DATE :2017-10-06 12:33:59 - CLASS : report_perbandingan_kta - FUNCTION : search - URL : localhost:8080/golkar/index.php/report/report_perbandingan_kta/search - USER ID : 340 - USER IP : ::1 - USER ROLE : 1 - BROWSER : Mozilla/5.0 (Windows NT 10.0; WOW64; rv:56.0) Gecko/20100101 Firefox/56.0 - USERNAME : safari
SYSTEM LOG -- DATE :2017-10-06 12:34:49 - CLASS : report_perbandingan_kta - FUNCTION : index - URL : localhost:8080/golkar/index.php/report/report_perbandingan_kta - USER ID : 340 - USER IP : ::1 - USER ROLE : 1 - BROWSER : Mozilla/5.0 (Windows NT 10.0; WOW64; rv:56.0) Gecko/20100101 Firefox/56.0 - USERNAME : safari
SYSTEM LOG -- DATE :2017-10-06 12:34:50 - CLASS : data - FUNCTION : check_login - URL : localhost:8080/golkar/index.php/ajax/data/check_login - USER ID : 340 - USER IP : ::1 - USER ROLE : 1 - BROWSER : Mozilla/5.0 (Windows NT 10.0; WOW64; rv:56.0) Gecko/20100101 Firefox/56.0 - USERNAME : safari
SYSTEM LOG -- DATE :2017-10-06 12:34:54 - CLASS : data - FUNCTION : kabupaten - URL : localhost:8080/golkar/index.php/ajax/data/kabupaten - USER ID : 340 - USER IP : ::1 - USER ROLE : 1 - BROWSER : Mozilla/5.0 (Windows NT 10.0; WOW64; rv:56.0) Gecko/20100101 Firefox/56.0 - USERNAME : safari
SYSTEM LOG -- DATE :2017-10-06 12:34:55 - CLASS : data - FUNCTION : check_login - URL : localhost:8080/golkar/index.php/ajax/data/check_login - USER ID : 340 - USER IP : ::1 - USER ROLE : 1 - BROWSER : Mozilla/5.0 (Windows NT 10.0; WOW64; rv:56.0) Gecko/20100101 Firefox/56.0 - USERNAME : safari
SYSTEM LOG -- DATE :2017-10-06 12:34:57 - CLASS : data - FUNCTION : kecamatan - URL : localhost:8080/golkar/index.php/ajax/data/kecamatan - USER ID : 340 - USER IP : ::1 - USER ROLE : 1 - BROWSER : Mozilla/5.0 (Windows NT 10.0; WOW64; rv:56.0) Gecko/20100101 Firefox/56.0 - USERNAME : safari
SYSTEM LOG -- DATE :2017-10-06 12:34:58 - CLASS : data - FUNCTION : kelurahan - URL : localhost:8080/golkar/index.php/ajax/data/kelurahan - USER ID : 340 - USER IP : ::1 - USER ROLE : 1 - BROWSER : Mozilla/5.0 (Windows NT 10.0; WOW64; rv:56.0) Gecko/20100101 Firefox/56.0 - USERNAME : safari
SYSTEM LOG -- DATE :2017-10-06 12:34:59 - CLASS : report_perbandingan_kta - FUNCTION : search - URL : localhost:8080/golkar/index.php/report/report_perbandingan_kta/search - USER ID : 340 - USER IP : ::1 - USER ROLE : 1 - BROWSER : Mozilla/5.0 (Windows NT 10.0; WOW64; rv:56.0) Gecko/20100101 Firefox/56.0 - USERNAME : safari
SYSTEM LOG -- DATE :2017-10-06 12:35:00 - CLASS : data - FUNCTION : kabupaten - URL : localhost:8080/golkar/index.php/ajax/data/kabupaten - USER ID : 340 - USER IP : ::1 - USER ROLE : 1 - BROWSER : Mozilla/5.0 (Windows NT 10.0; WOW64; rv:56.0) Gecko/20100101 Firefox/56.0 - USERNAME : safari
SYSTEM LOG -- DATE :2017-10-06 12:35:00 - CLASS : data - FUNCTION : kecamatan - URL : localhost:8080/golkar/index.php/ajax/data/kecamatan - USER ID : 340 - USER IP : ::1 - USER ROLE : 1 - BROWSER : Mozilla/5.0 (Windows NT 10.0; WOW64; rv:56.0) Gecko/20100101 Firefox/56.0 - USERNAME : safari
SYSTEM LOG -- DATE :2017-10-06 12:35:00 - CLASS : data - FUNCTION : kelurahan - URL : localhost:8080/golkar/index.php/ajax/data/kelurahan - USER ID : 340 - USER IP : ::1 - USER ROLE : 1 - BROWSER : Mozilla/5.0 (Windows NT 10.0; WOW64; rv:56.0) Gecko/20100101 Firefox/56.0 - USERNAME : safari
SYSTEM LOG -- DATE :2017-10-06 12:35:01 - CLASS : data - FUNCTION : check_login - URL : localhost:8080/golkar/index.php/ajax/data/check_login - USER ID : 340 - USER IP : ::1 - USER ROLE : 1 - BROWSER : Mozilla/5.0 (Windows NT 10.0; WOW64; rv:56.0) Gecko/20100101 Firefox/56.0 - USERNAME : safari
SYSTEM LOG -- DATE :2017-10-06 12:35:01 - CLASS : report_perbandingan_kta - FUNCTION : search - URL : localhost:8080/golkar/index.php/report/report_perbandingan_kta/search - USER ID : 340 - USER IP : ::1 - USER ROLE : 1 - BROWSER : Mozilla/5.0 (Windows NT 10.0; WOW64; rv:56.0) Gecko/20100101 Firefox/56.0 - USERNAME : safari
SYSTEM LOG -- DATE :2017-10-06 12:35:34 - CLASS : report_perbandingan_kta - FUNCTION : index - URL : localhost:8080/golkar/index.php/report/report_perbandingan_kta - USER ID : 340 - USER IP : ::1 - USER ROLE : 1 - BROWSER : Mozilla/5.0 (Windows NT 10.0; WOW64; rv:56.0) Gecko/20100101 Firefox/56.0 - USERNAME : safari
SYSTEM LOG -- DATE :2017-10-06 12:35:35 - CLASS : data - FUNCTION : check_login - URL : localhost:8080/golkar/index.php/ajax/data/check_login - USER ID : 340 - USER IP : ::1 - USER ROLE : 1 - BROWSER : Mozilla/5.0 (Windows NT 10.0; WOW64; rv:56.0) Gecko/20100101 Firefox/56.0 - USERNAME : safari
SYSTEM LOG -- DATE :2017-10-06 12:35:40 - CLASS : data - FUNCTION : kabupaten - URL : localhost:8080/golkar/index.php/ajax/data/kabupaten - USER ID : 340 - USER IP : ::1 - USER ROLE : 1 - BROWSER : Mozilla/5.0 (Windows NT 10.0; WOW64; rv:56.0) Gecko/20100101 Firefox/56.0 - USERNAME : safari
SYSTEM LOG -- DATE :2017-10-06 12:35:40 - CLASS : data - FUNCTION : check_login - URL : localhost:8080/golkar/index.php/ajax/data/check_login - USER ID : 340 - USER IP : ::1 - USER ROLE : 1 - BROWSER : Mozilla/5.0 (Windows NT 10.0; WOW64; rv:56.0) Gecko/20100101 Firefox/56.0 - USERNAME : safari
SYSTEM LOG -- DATE :2017-10-06 12:35:41 - CLASS : data - FUNCTION : kecamatan - URL : localhost:8080/golkar/index.php/ajax/data/kecamatan - USER ID : 340 - USER IP : ::1 - USER ROLE : 1 - BROWSER : Mozilla/5.0 (Windows NT 10.0; WOW64; rv:56.0) Gecko/20100101 Firefox/56.0 - USERNAME : safari
SYSTEM LOG -- DATE :2017-10-06 12:35:43 - CLASS : data - FUNCTION : kelurahan - URL : localhost:8080/golkar/index.php/ajax/data/kelurahan - USER ID : 340 - USER IP : ::1 - USER ROLE : 1 - BROWSER : Mozilla/5.0 (Windows NT 10.0; WOW64; rv:56.0) Gecko/20100101 Firefox/56.0 - USERNAME : safari
SYSTEM LOG -- DATE :2017-10-06 12:35:44 - CLASS : report_perbandingan_kta - FUNCTION : search - URL : localhost:8080/golkar/index.php/report/report_perbandingan_kta/search - USER ID : 340 - USER IP : ::1 - USER ROLE : 1 - BROWSER : Mozilla/5.0 (Windows NT 10.0; WOW64; rv:56.0) Gecko/20100101 Firefox/56.0 - USERNAME : safari
SYSTEM LOG -- DATE :2017-10-06 12:35:44 - CLASS : data - FUNCTION : kabupaten - URL : localhost:8080/golkar/index.php/ajax/data/kabupaten - USER ID : 340 - USER IP : ::1 - USER ROLE : 1 - BROWSER : Mozilla/5.0 (Windows NT 10.0; WOW64; rv:56.0) Gecko/20100101 Firefox/56.0 - USERNAME : safari
SYSTEM LOG -- DATE :2017-10-06 12:35:44 - CLASS : data - FUNCTION : kecamatan - URL : localhost:8080/golkar/index.php/ajax/data/kecamatan - USER ID : 340 - USER IP : ::1 - USER ROLE : 1 - BROWSER : Mozilla/5.0 (Windows NT 10.0; WOW64; rv:56.0) Gecko/20100101 Firefox/56.0 - USERNAME : safari
SYSTEM LOG -- DATE :2017-10-06 12:35:45 - CLASS : data - FUNCTION : kelurahan - URL : localhost:8080/golkar/index.php/ajax/data/kelurahan - USER ID : 340 - USER IP : ::1 - USER ROLE : 1 - BROWSER : Mozilla/5.0 (Windows NT 10.0; WOW64; rv:56.0) Gecko/20100101 Firefox/56.0 - USERNAME : safari
SYSTEM LOG -- DATE :2017-10-06 12:35:45 - CLASS : data - FUNCTION : check_login - URL : localhost:8080/golkar/index.php/ajax/data/check_login - USER ID : 340 - USER IP : ::1 - USER ROLE : 1 - BROWSER : Mozilla/5.0 (Windows NT 10.0; WOW64; rv:56.0) Gecko/20100101 Firefox/56.0 - USERNAME : safari
SYSTEM LOG -- DATE :2017-10-06 12:35:48 - CLASS : data - FUNCTION : kecamatan - URL : localhost:8080/golkar/index.php/ajax/data/kecamatan - USER ID : 340 - USER IP : ::1 - USER ROLE : 1 - BROWSER : Mozilla/5.0 (Windows NT 10.0; WOW64; rv:56.0) Gecko/20100101 Firefox/56.0 - USERNAME : safari
SYSTEM LOG -- DATE :2017-10-06 12:35:50 - CLASS : data - FUNCTION : check_login - URL : localhost:8080/golkar/index.php/ajax/data/check_login - USER ID : 340 - USER IP : ::1 - USER ROLE : 1 - BROWSER : Mozilla/5.0 (Windows NT 10.0; WOW64; rv:56.0) Gecko/20100101 Firefox/56.0 - USERNAME : safari
SYSTEM LOG -- DATE :2017-10-06 12:35:50 - CLASS : data - FUNCTION : kelurahan - URL : localhost:8080/golkar/index.php/ajax/data/kelurahan - USER ID : 340 - USER IP : ::1 - USER ROLE : 1 - BROWSER : Mozilla/5.0 (Windows NT 10.0; WOW64; rv:56.0) Gecko/20100101 Firefox/56.0 - USERNAME : safari
SYSTEM LOG -- DATE :2017-10-06 12:35:51 - CLASS : report_perbandingan_kta - FUNCTION : search - URL : localhost:8080/golkar/index.php/report/report_perbandingan_kta/search - USER ID : 340 - USER IP : ::1 - USER ROLE : 1 - BROWSER : Mozilla/5.0 (Windows NT 10.0; WOW64; rv:56.0) Gecko/20100101 Firefox/56.0 - USERNAME : safari
SYSTEM LOG -- DATE :2017-10-06 12:35:52 - CLASS : data - FUNCTION : kabupaten - URL : localhost:8080/golkar/index.php/ajax/data/kabupaten - USER ID : 340 - USER IP : ::1 - USER ROLE : 1 - BROWSER : Mozilla/5.0 (Windows NT 10.0; WOW64; rv:56.0) Gecko/20100101 Firefox/56.0 - USERNAME : safari
SYSTEM LOG -- DATE :2017-10-06 12:35:52 - CLASS : data - FUNCTION : kecamatan - URL : localhost:8080/golkar/index.php/ajax/data/kecamatan - USER ID : 340 - USER IP : ::1 - USER ROLE : 1 - BROWSER : Mozilla/5.0 (Windows NT 10.0; WOW64; rv:56.0) Gecko/20100101 Firefox/56.0 - USERNAME : safari
SYSTEM LOG -- DATE :2017-10-06 12:35:53 - CLASS : data - FUNCTION : kelurahan - URL : localhost:8080/golkar/index.php/ajax/data/kelurahan - USER ID : 340 - USER IP : ::1 - USER ROLE : 1 - BROWSER : Mozilla/5.0 (Windows NT 10.0; WOW64; rv:56.0) Gecko/20100101 Firefox/56.0 - USERNAME : safari
SYSTEM LOG -- DATE :2017-10-06 12:35:53 - CLASS : data - FUNCTION : check_login - URL : localhost:8080/golkar/index.php/ajax/data/check_login - USER ID : 340 - USER IP : ::1 - USER ROLE : 1 - BROWSER : Mozilla/5.0 (Windows NT 10.0; WOW64; rv:56.0) Gecko/20100101 Firefox/56.0 - USERNAME : safari
SYSTEM LOG -- DATE :2017-10-06 12:35:58 - CLASS : report_perbandingan_kta - FUNCTION : search - URL : localhost:8080/golkar/index.php/report/report_perbandingan_kta/search - USER ID : 340 - USER IP : ::1 - USER ROLE : 1 - BROWSER : Mozilla/5.0 (Windows NT 10.0; WOW64; rv:56.0) Gecko/20100101 Firefox/56.0 - USERNAME : safari
SYSTEM LOG -- DATE :2017-10-06 12:35:58 - CLASS : data - FUNCTION : check_login - URL : localhost:8080/golkar/index.php/ajax/data/check_login - USER ID : 340 - USER IP : ::1 - USER ROLE : 1 - BROWSER : Mozilla/5.0 (Windows NT 10.0; WOW64; rv:56.0) Gecko/20100101 Firefox/56.0 - USERNAME : safari
SYSTEM LOG -- DATE :2017-10-06 12:37:23 - CLASS : report_perbandingan_kta - FUNCTION : index - URL : localhost:8080/golkar/index.php/report/report_perbandingan_kta - USER ID : 340 - USER IP : ::1 - USER ROLE : 1 - BROWSER : Mozilla/5.0 (Windows NT 10.0; WOW64; rv:56.0) Gecko/20100101 Firefox/56.0 - USERNAME : safari
SYSTEM LOG -- DATE :2017-10-06 12:37:24 - CLASS : data - FUNCTION : check_login - URL : localhost:8080/golkar/index.php/ajax/data/check_login - USER ID : 340 - USER IP : ::1 - USER ROLE : 1 - BROWSER : Mozilla/5.0 (Windows NT 10.0; WOW64; rv:56.0) Gecko/20100101 Firefox/56.0 - USERNAME : safari
SYSTEM LOG -- DATE :2017-10-06 12:37:27 - CLASS : data - FUNCTION : kabupaten - URL : localhost:8080/golkar/index.php/ajax/data/kabupaten - USER ID : 340 - USER IP : ::1 - USER ROLE : 1 - BROWSER : Mozilla/5.0 (Windows NT 10.0; WOW64; rv:56.0) Gecko/20100101 Firefox/56.0 - USERNAME : safari
SYSTEM LOG -- DATE :2017-10-06 12:37:29 - CLASS : data - FUNCTION : kecamatan - URL : localhost:8080/golkar/index.php/ajax/data/kecamatan - USER ID : 340 - USER IP : ::1 - USER ROLE : 1 - BROWSER : Mozilla/5.0 (Windows NT 10.0; WOW64; rv:56.0) Gecko/20100101 Firefox/56.0 - USERNAME : safari
SYSTEM LOG -- DATE :2017-10-06 12:37:29 - CLASS : data - FUNCTION : check_login - URL : localhost:8080/golkar/index.php/ajax/data/check_login - USER ID : 340 - USER IP : ::1 - USER ROLE : 1 - BROWSER : Mozilla/5.0 (Windows NT 10.0; WOW64; rv:56.0) Gecko/20100101 Firefox/56.0 - USERNAME : safari
SYSTEM LOG -- DATE :2017-10-06 12:37:31 - CLASS : data - FUNCTION : kelurahan - URL : localhost:8080/golkar/index.php/ajax/data/kelurahan - USER ID : 340 - USER IP : ::1 - USER ROLE : 1 - BROWSER : Mozilla/5.0 (Windows NT 10.0; WOW64; rv:56.0) Gecko/20100101 Firefox/56.0 - USERNAME : safari
SYSTEM LOG -- DATE :2017-10-06 12:37:31 - CLASS : report_perbandingan_kta - FUNCTION : search - URL : localhost:8080/golkar/index.php/report/report_perbandingan_kta/search - USER ID : 340 - USER IP : ::1 - USER ROLE : 1 - BROWSER : Mozilla/5.0 (Windows NT 10.0; WOW64; rv:56.0) Gecko/20100101 Firefox/56.0 - USERNAME : safari
SYSTEM LOG -- DATE :2017-10-06 12:37:33 - CLASS : data - FUNCTION : kabupaten - URL : localhost:8080/golkar/index.php/ajax/data/kabupaten - USER ID : 340 - USER IP : ::1 - USER ROLE : 1 - BROWSER : Mozilla/5.0 (Windows NT 10.0; WOW64; rv:56.0) Gecko/20100101 Firefox/56.0 - USERNAME : safari
SYSTEM LOG -- DATE :2017-10-06 12:37:33 - CLASS : data - FUNCTION : kecamatan - URL : localhost:8080/golkar/index.php/ajax/data/kecamatan - USER ID : 340 - USER IP : ::1 - USER ROLE : 1 - BROWSER : Mozilla/5.0 (Windows NT 10.0; WOW64; rv:56.0) Gecko/20100101 Firefox/56.0 - USERNAME : safari
SYSTEM LOG -- DATE :2017-10-06 12:37:33 - CLASS : data - FUNCTION : kelurahan - URL : localhost:8080/golkar/index.php/ajax/data/kelurahan - USER ID : 340 - USER IP : ::1 - USER ROLE : 1 - BROWSER : Mozilla/5.0 (Windows NT 10.0; WOW64; rv:56.0) Gecko/20100101 Firefox/56.0 - USERNAME : safari
SYSTEM LOG -- DATE :2017-10-06 12:37:33 - CLASS : data - FUNCTION : check_login - URL : localhost:8080/golkar/index.php/ajax/data/check_login - USER ID : 340 - USER IP : ::1 - USER ROLE : 1 - BROWSER : Mozilla/5.0 (Windows NT 10.0; WOW64; rv:56.0) Gecko/20100101 Firefox/56.0 - USERNAME : safari
SYSTEM LOG -- DATE :2017-10-06 12:37:34 - CLASS : report_perbandingan_kta - FUNCTION : search - URL : localhost:8080/golkar/index.php/report/report_perbandingan_kta/search - USER ID : 340 - USER IP : ::1 - USER ROLE : 1 - BROWSER : Mozilla/5.0 (Windows NT 10.0; WOW64; rv:56.0) Gecko/20100101 Firefox/56.0 - USERNAME : safari
SYSTEM LOG -- DATE :2017-10-06 12:37:46 - CLASS : report_perbandingan_kta - FUNCTION : index - URL : localhost:8080/golkar/index.php/report/report_perbandingan_kta - USER ID : 340 - USER IP : ::1 - USER ROLE : 1 - BROWSER : Mozilla/5.0 (Windows NT 10.0; WOW64; rv:56.0) Gecko/20100101 Firefox/56.0 - USERNAME : safari
SYSTEM LOG -- DATE :2017-10-06 12:37:47 - CLASS : data - FUNCTION : check_login - URL : localhost:8080/golkar/index.php/ajax/data/check_login - USER ID : 340 - USER IP : ::1 - USER ROLE : 1 - BROWSER : Mozilla/5.0 (Windows NT 10.0; WOW64; rv:56.0) Gecko/20100101 Firefox/56.0 - USERNAME : safari
SYSTEM LOG -- DATE :2017-10-06 12:37:50 - CLASS : data - FUNCTION : kabupaten - URL : localhost:8080/golkar/index.php/ajax/data/kabupaten - USER ID : 340 - USER IP : ::1 - USER ROLE : 1 - BROWSER : Mozilla/5.0 (Windows NT 10.0; WOW64; rv:56.0) Gecko/20100101 Firefox/56.0 - USERNAME : safari
SYSTEM LOG -- DATE :2017-10-06 12:37:52 - CLASS : data - FUNCTION : kecamatan - URL : localhost:8080/golkar/index.php/ajax/data/kecamatan - USER ID : 340 - USER IP : ::1 - USER ROLE : 1 - BROWSER : Mozilla/5.0 (Windows NT 10.0; WOW64; rv:56.0) Gecko/20100101 Firefox/56.0 - USERNAME : safari
SYSTEM LOG -- DATE :2017-10-06 12:37:52 - CLASS : data - FUNCTION : check_login - URL : localhost:8080/golkar/index.php/ajax/data/check_login - USER ID : 340 - USER IP : ::1 - USER ROLE : 1 - BROWSER : Mozilla/5.0 (Windows NT 10.0; WOW64; rv:56.0) Gecko/20100101 Firefox/56.0 - USERNAME : safari
SYSTEM LOG -- DATE :2017-10-06 12:38:00 - CLASS : data - FUNCTION : kecamatan - URL : localhost:8080/golkar/index.php/ajax/data/kecamatan - USER ID : 340 - USER IP : ::1 - USER ROLE : 1 - BROWSER : Mozilla/5.0 (Windows NT 10.0; WOW64; rv:56.0) Gecko/20100101 Firefox/56.0 - USERNAME : safari
SYSTEM LOG -- DATE :2017-10-06 12:38:02 - CLASS : data - FUNCTION : kelurahan - URL : localhost:8080/golkar/index.php/ajax/data/kelurahan - USER ID : 340 - USER IP : ::1 - USER ROLE : 1 - BROWSER : Mozilla/5.0 (Windows NT 10.0; WOW64; rv:56.0) Gecko/20100101 Firefox/56.0 - USERNAME : safari
SYSTEM LOG -- DATE :2017-10-06 12:38:02 - CLASS : data - FUNCTION : check_login - URL : localhost:8080/golkar/index.php/ajax/data/check_login - USER ID : 340 - USER IP : ::1 - USER ROLE : 1 - BROWSER : Mozilla/5.0 (Windows NT 10.0; WOW64; rv:56.0) Gecko/20100101 Firefox/56.0 - USERNAME : safari
SYSTEM LOG -- DATE :2017-10-06 12:38:03 - CLASS : report_perbandingan_kta - FUNCTION : search - URL : localhost:8080/golkar/index.php/report/report_perbandingan_kta/search - USER ID : 340 - USER IP : ::1 - USER ROLE : 1 - BROWSER : Mozilla/5.0 (Windows NT 10.0; WOW64; rv:56.0) Gecko/20100101 Firefox/56.0 - USERNAME : safari
SYSTEM LOG -- DATE :2017-10-06 12:38:04 - CLASS : data - FUNCTION : kabupaten - URL : localhost:8080/golkar/index.php/ajax/data/kabupaten - USER ID : 340 - USER IP : ::1 - USER ROLE : 1 - BROWSER : Mozilla/5.0 (Windows NT 10.0; WOW64; rv:56.0) Gecko/20100101 Firefox/56.0 - USERNAME : safari
SYSTEM LOG -- DATE :2017-10-06 12:38:04 - CLASS : data - FUNCTION : kecamatan - URL : localhost:8080/golkar/index.php/ajax/data/kecamatan - USER ID : 340 - USER IP : ::1 - USER ROLE : 1 - BROWSER : Mozilla/5.0 (Windows NT 10.0; WOW64; rv:56.0) Gecko/20100101 Firefox/56.0 - USERNAME : safari
SYSTEM LOG -- DATE :2017-10-06 12:38:04 - CLASS : data - FUNCTION : kelurahan - URL : localhost:8080/golkar/index.php/ajax/data/kelurahan - USER ID : 340 - USER IP : ::1 - USER ROLE : 1 - BROWSER : Mozilla/5.0 (Windows NT 10.0; WOW64; rv:56.0) Gecko/20100101 Firefox/56.0 - USERNAME : safari
SYSTEM LOG -- DATE :2017-10-06 12:38:04 - CLASS : data - FUNCTION : check_login - URL : localhost:8080/golkar/index.php/ajax/data/check_login - USER ID : 340 - USER IP : ::1 - USER ROLE : 1 - BROWSER : Mozilla/5.0 (Windows NT 10.0; WOW64; rv:56.0) Gecko/20100101 Firefox/56.0 - USERNAME : safari
SYSTEM LOG -- DATE :2017-10-06 12:38:06 - CLASS : report_perbandingan_kta - FUNCTION : search - URL : localhost:8080/golkar/index.php/report/report_perbandingan_kta/search - USER ID : 340 - USER IP : ::1 - USER ROLE : 1 - BROWSER : Mozilla/5.0 (Windows NT 10.0; WOW64; rv:56.0) Gecko/20100101 Firefox/56.0 - USERNAME : safari
SYSTEM LOG -- DATE :2017-10-06 12:39:42 - CLASS : report_perbandingan_kta - FUNCTION : index - URL : localhost:8080/golkar/index.php/report/report_perbandingan_kta - USER ID : 340 - USER IP : ::1 - USER ROLE : 1 - BROWSER : Mozilla/5.0 (Windows NT 10.0; WOW64; rv:56.0) Gecko/20100101 Firefox/56.0 - USERNAME : safari
SYSTEM LOG -- DATE :2017-10-06 12:39:43 - CLASS : data - FUNCTION : check_login - URL : localhost:8080/golkar/index.php/ajax/data/check_login - USER ID : 340 - USER IP : ::1 - USER ROLE : 1 - BROWSER : Mozilla/5.0 (Windows NT 10.0; WOW64; rv:56.0) Gecko/20100101 Firefox/56.0 - USERNAME : safari
SYSTEM LOG -- DATE :2017-10-06 12:39:45 - CLASS : data - FUNCTION : kabupaten - URL : localhost:8080/golkar/index.php/ajax/data/kabupaten - USER ID : 340 - USER IP : ::1 - USER ROLE : 1 - BROWSER : Mozilla/5.0 (Windows NT 10.0; WOW64; rv:56.0) Gecko/20100101 Firefox/56.0 - USERNAME : safari
SYSTEM LOG -- DATE :2017-10-06 12:39:47 - CLASS : data - FUNCTION : kecamatan - URL : localhost:8080/golkar/index.php/ajax/data/kecamatan - USER ID : 340 - USER IP : ::1 - USER ROLE : 1 - BROWSER : Mozilla/5.0 (Windows NT 10.0; WOW64; rv:56.0) Gecko/20100101 Firefox/56.0 - USERNAME : safari
SYSTEM LOG -- DATE :2017-10-06 12:39:48 - CLASS : data - FUNCTION : check_login - URL : localhost:8080/golkar/index.php/ajax/data/check_login - USER ID : 340 - USER IP : ::1 - USER ROLE : 1 - BROWSER : Mozilla/5.0 (Windows NT 10.0; WOW64; rv:56.0) Gecko/20100101 Firefox/56.0 - USERNAME : safari
SYSTEM LOG -- DATE :2017-10-06 12:39:49 - CLASS : data - FUNCTION : kelurahan - URL : localhost:8080/golkar/index.php/ajax/data/kelurahan - USER ID : 340 - USER IP : ::1 - USER ROLE : 1 - BROWSER : Mozilla/5.0 (Windows NT 10.0; WOW64; rv:56.0) Gecko/20100101 Firefox/56.0 - USERNAME : safari
SYSTEM LOG -- DATE :2017-10-06 12:39:50 - CLASS : report_perbandingan_kta - FUNCTION : search - URL : localhost:8080/golkar/index.php/report/report_perbandingan_kta/search - USER ID : 340 - USER IP : ::1 - USER ROLE : 1 - BROWSER : Mozilla/5.0 (Windows NT 10.0; WOW64; rv:56.0) Gecko/20100101 Firefox/56.0 - USERNAME : safari
SYSTEM LOG -- DATE :2017-10-06 12:39:51 - CLASS : data - FUNCTION : kabupaten - URL : localhost:8080/golkar/index.php/ajax/data/kabupaten - USER ID : 340 - USER IP : ::1 - USER ROLE : 1 - BROWSER : Mozilla/5.0 (Windows NT 10.0; WOW64; rv:56.0) Gecko/20100101 Firefox/56.0 - USERNAME : safari
SYSTEM LOG -- DATE :2017-10-06 12:39:51 - CLASS : data - FUNCTION : kecamatan - URL : localhost:8080/golkar/index.php/ajax/data/kecamatan - USER ID : 340 - USER IP : ::1 - USER ROLE : 1 - BROWSER : Mozilla/5.0 (Windows NT 10.0; WOW64; rv:56.0) Gecko/20100101 Firefox/56.0 - USERNAME : safari
SYSTEM LOG -- DATE :2017-10-06 12:39:51 - CLASS : data - FUNCTION : kelurahan - URL : localhost:8080/golkar/index.php/ajax/data/kelurahan - USER ID : 340 - USER IP : ::1 - USER ROLE : 1 - BROWSER : Mozilla/5.0 (Windows NT 10.0; WOW64; rv:56.0) Gecko/20100101 Firefox/56.0 - USERNAME : safari
SYSTEM LOG -- DATE :2017-10-06 12:39:51 - CLASS : data - FUNCTION : check_login - URL : localhost:8080/golkar/index.php/ajax/data/check_login - USER ID : 340 - USER IP : ::1 - USER ROLE : 1 - BROWSER : Mozilla/5.0 (Windows NT 10.0; WOW64; rv:56.0) Gecko/20100101 Firefox/56.0 - USERNAME : safari
SYSTEM LOG -- DATE :2017-10-06 12:39:52 - CLASS : report_perbandingan_kta - FUNCTION : search - URL : localhost:8080/golkar/index.php/report/report_perbandingan_kta/search - USER ID : 340 - USER IP : ::1 - USER ROLE : 1 - BROWSER : Mozilla/5.0 (Windows NT 10.0; WOW64; rv:56.0) Gecko/20100101 Firefox/56.0 - USERNAME : safari
SYSTEM LOG -- DATE :2017-10-06 12:40:09 - CLASS : report_perbandingan_kta - FUNCTION : index - URL : localhost:8080/golkar/index.php/report/report_perbandingan_kta - USER ID : 340 - USER IP : ::1 - USER ROLE : 1 - BROWSER : Mozilla/5.0 (Windows NT 10.0; WOW64; rv:56.0) Gecko/20100101 Firefox/56.0 - USERNAME : safari
SYSTEM LOG -- DATE :2017-10-06 12:40:10 - CLASS : data - FUNCTION : check_login - URL : localhost:8080/golkar/index.php/ajax/data/check_login - USER ID : 340 - USER IP : ::1 - USER ROLE : 1 - BROWSER : Mozilla/5.0 (Windows NT 10.0; WOW64; rv:56.0) Gecko/20100101 Firefox/56.0 - USERNAME : safari
SYSTEM LOG -- DATE :2017-10-06 12:40:12 - CLASS : data - FUNCTION : kabupaten - URL : localhost:8080/golkar/index.php/ajax/data/kabupaten - USER ID : 340 - USER IP : ::1 - USER ROLE : 1 - BROWSER : Mozilla/5.0 (Windows NT 10.0; WOW64; rv:56.0) Gecko/20100101 Firefox/56.0 - USERNAME : safari
SYSTEM LOG -- DATE :2017-10-06 12:40:14 - CLASS : data - FUNCTION : kecamatan - URL : localhost:8080/golkar/index.php/ajax/data/kecamatan - USER ID : 340 - USER IP : ::1 - USER ROLE : 1 - BROWSER : Mozilla/5.0 (Windows NT 10.0; WOW64; rv:56.0) Gecko/20100101 Firefox/56.0 - USERNAME : safari
SYSTEM LOG -- DATE :2017-10-06 12:40:15 - CLASS : data - FUNCTION : check_login - URL : localhost:8080/golkar/index.php/ajax/data/check_login - USER ID : 340 - USER IP : ::1 - USER ROLE : 1 - BROWSER : Mozilla/5.0 (Windows NT 10.0; WOW64; rv:56.0) Gecko/20100101 Firefox/56.0 - USERNAME : safari
SYSTEM LOG -- DATE :2017-10-06 12:40:16 - CLASS : data - FUNCTION : kelurahan - URL : localhost:8080/golkar/index.php/ajax/data/kelurahan - USER ID : 340 - USER IP : ::1 - USER ROLE : 1 - BROWSER : Mozilla/5.0 (Windows NT 10.0; WOW64; rv:56.0) Gecko/20100101 Firefox/56.0 - USERNAME : safari
SYSTEM LOG -- DATE :2017-10-06 12:40:16 - CLASS : report_perbandingan_kta - FUNCTION : search - URL : localhost:8080/golkar/index.php/report/report_perbandingan_kta/search - USER ID : 340 - USER IP : ::1 - USER ROLE : 1 - BROWSER : Mozilla/5.0 (Windows NT 10.0; WOW64; rv:56.0) Gecko/20100101 Firefox/56.0 - USERNAME : safari
SYSTEM LOG -- DATE :2017-10-06 12:40:21 - CLASS : data - FUNCTION : check_login - URL : localhost:8080/golkar/index.php/ajax/data/check_login - USER ID : 340 - USER IP : ::1 - USER ROLE : 1 - BROWSER : Mozilla/5.0 (Windows NT 10.0; WOW64; rv:56.0) Gecko/20100101 Firefox/56.0 - USERNAME : safari
SYSTEM LOG -- DATE :2017-10-06 12:40:22 - CLASS : data - FUNCTION : kabupaten - URL : localhost:8080/golkar/index.php/ajax/data/kabupaten - USER ID : 340 - USER IP : ::1 - USER ROLE : 1 - BROWSER : Mozilla/5.0 (Windows NT 10.0; WOW64; rv:56.0) Gecko/20100101 Firefox/56.0 - USERNAME : safari
SYSTEM LOG -- DATE :2017-10-06 12:40:22 - CLASS : data - FUNCTION : kecamatan - URL : localhost:8080/golkar/index.php/ajax/data/kecamatan - USER ID : 340 - USER IP : ::1 - USER ROLE : 1 - BROWSER : Mozilla/5.0 (Windows NT 10.0; WOW64; rv:56.0) Gecko/20100101 Firefox/56.0 - USERNAME : safari
SYSTEM LOG -- DATE :2017-10-06 12:40:22 - CLASS : data - FUNCTION : kelurahan - URL : localhost:8080/golkar/index.php/ajax/data/kelurahan - USER ID : 340 - USER IP : ::1 - USER ROLE : 1 - BROWSER : Mozilla/5.0 (Windows NT 10.0; WOW64; rv:56.0) Gecko/20100101 Firefox/56.0 - USERNAME : safari
SYSTEM LOG -- DATE :2017-10-06 12:40:22 - CLASS : data - FUNCTION : check_login - URL : localhost:8080/golkar/index.php/ajax/data/check_login - USER ID : 340 - USER IP : ::1 - USER ROLE : 1 - BROWSER : Mozilla/5.0 (Windows NT 10.0; WOW64; rv:56.0) Gecko/20100101 Firefox/56.0 - USERNAME : safari
SYSTEM LOG -- DATE :2017-10-06 12:40:24 - CLASS : report_perbandingan_kta - FUNCTION : search - URL : localhost:8080/golkar/index.php/report/report_perbandingan_kta/search - USER ID : 340 - USER IP : ::1 - USER ROLE : 1 - BROWSER : Mozilla/5.0 (Windows NT 10.0; WOW64; rv:56.0) Gecko/20100101 Firefox/56.0 - USERNAME : safari
