SYSTEM LOG -- DATE :2017-10-24 03:05:36 - CLASS : me - FUNCTION : index - URL : localhost:8080/golkar/ - USER ID : 340 - USER IP : ::1 - USER ROLE : 1 - BROWSER : Mozilla/5.0 (Windows NT 10.0; Win64; x64; rv:56.0) Gecko/20100101 Firefox/56.0 - USERNAME : safari
SYSTEM LOG -- DATE :2017-10-24 03:05:37 - CLASS : data - FUNCTION : check_login - URL : localhost:8080/golkar/index.php/ajax/data/check_login - USER ID : 340 - USER IP : ::1 - USER ROLE : 1 - BROWSER : Mozilla/5.0 (Windows NT 10.0; Win64; x64; rv:56.0) Gecko/20100101 Firefox/56.0 - USERNAME : safari
SYSTEM LOG -- DATE :2017-10-24 03:05:40 - CLASS : entry_formulir - FUNCTION : index - URL : localhost:8080/golkar/index.php/master/entry_formulir - USER ID : 340 - USER IP : ::1 - USER ROLE : 1 - BROWSER : Mozilla/5.0 (Windows NT 10.0; Win64; x64; rv:56.0) Gecko/20100101 Firefox/56.0 - USERNAME : safari
SYSTEM LOG -- DATE :2017-10-24 03:05:43 - CLASS : entry_formulir - FUNCTION : show_table - URL : localhost:8080/golkar/index.php/master/entry_formulir/show_table?_=1508789142817 - USER ID : 340 - USER IP : ::1 - USER ROLE : 1 - BROWSER : Mozilla/5.0 (Windows NT 10.0; Win64; x64; rv:56.0) Gecko/20100101 Firefox/56.0 - USERNAME : safari
SYSTEM LOG -- DATE :2017-10-24 03:06:31 - CLASS : data - FUNCTION : check_login - URL : localhost:8080/golkar/index.php/ajax/data/check_login - USER ID : 340 - USER IP : ::1 - USER ROLE : 1 - BROWSER : Mozilla/5.0 (Windows NT 10.0; Win64; x64; rv:56.0) Gecko/20100101 Firefox/56.0 - USERNAME : safari
